<?xml version="1.0" encoding="UTF-8" standalone="no"?>
<!-- Created with Inkscape (http://www.inkscape.org/) -->

<svg
   xmlns:dc="http://purl.org/dc/elements/1.1/"
   xmlns:cc="http://creativecommons.org/ns#"
   xmlns:rdf="http://www.w3.org/1999/02/22-rdf-syntax-ns#"
   xmlns:svg="http://www.w3.org/2000/svg"
   xmlns="http://www.w3.org/2000/svg"
   xmlns:sodipodi="http://sodipodi.sourceforge.net/DTD/sodipodi-0.dtd"
   xmlns:inkscape="http://www.inkscape.org/namespaces/inkscape"
   version="1.1"
   id="svg901"
   width="1219"
   height="1707"
   viewBox="0 0 1219 1707"
   sodipodi:docname="APF28.svg"
   inkscape:version="0.92.3 (2405546, 2018-03-11)">
  <metadata
     id="metadata907">
    <rdf:RDF>
      <cc:Work
         rdf:about="">
        <dc:format>image/svg+xml</dc:format>
        <dc:type
           rdf:resource="http://purl.org/dc/dcmitype/StillImage" />
        <dc:title />
      </cc:Work>
    </rdf:RDF>
  </metadata>
  <defs
     id="defs905">
    <meshgradient
       inkscape:collect="always"
       id="meshgradient1311"
       gradientUnits="userSpaceOnUse"
       x="498.78937"
       y="883.88568">
      <meshrow
         id="meshrow1313">
        <meshpatch
           id="meshpatch1315">
          <stop
             path="c 6.76645,0  13.5329,0  20.2993,0"
             style="stop-color:#ffffff;stop-opacity:1"
             id="stop1317" />
          <stop
             path="c 0,2.9823  0,5.9646  0,8.94689"
             style="stop-color:#535a55;stop-opacity:1"
             id="stop1319" />
          <stop
             path="c -6.76645,0  -13.5329,0  -20.2993,0"
             style="stop-color:#ffffff;stop-opacity:1"
             id="stop1321" />
          <stop
             path="c 0,-2.9823  0,-5.9646  0,-8.94689"
             style="stop-color:#535a55;stop-opacity:1"
             id="stop1323" />
        </meshpatch>
      </meshrow>
    </meshgradient>
  </defs>
  <sodipodi:namedview
     pagecolor="#ffffff"
     bordercolor="#666666"
     borderopacity="1"
     objecttolerance="10"
     gridtolerance="10"
     guidetolerance="10"
     inkscape:pageopacity="0"
     inkscape:pageshadow="2"
     inkscape:window-width="1373"
     inkscape:window-height="845"
     id="namedview903"
     showgrid="false"
     inkscape:zoom="1.8009126"
     inkscape:cx="517.19842"
     inkscape:cy="816.98376"
     inkscape:window-x="67"
     inkscape:window-y="27"
     inkscape:window-maximized="1"
     inkscape:current-layer="svg901" />
  <g
     id="g1362"
     inkscape:label="recto"
     style="display:inline">
    <path
       inkscape:label="carte"
       inkscape:connector-curvature="0"
       id="rect915"
       d="M 777.3125,778.80859 V 1031.3867 H 922.93945 V 778.80859 Z m 12.05664,3.3418 a 8.4750023,8.7137346 0 0 1 8.47461,8.71289 8.4750023,8.7137346 0 0 1 -8.47461,8.71484 8.4750023,8.7137346 0 0 1 -8.47461,-8.71484 8.4750023,8.7137346 0 0 1 8.47461,-8.71289 z M 911.48047,1010.498 a 8.4750023,8.7137346 0 0 1 8.47461,8.7129 8.4750023,8.7137346 0 0 1 -8.47461,8.7149 8.4750023,8.7137346 0 0 1 -8.47461,-8.7149 8.4750023,8.7137346 0 0 1 8.47461,-8.7129 z"
       style="display:inline;opacity:1;fill:#12502b;fill-opacity:1;fill-rule:nonzero;stroke:none;stroke-width:3.30999994;stroke-linejoin:round;stroke-miterlimit:4;stroke-dasharray:none;stroke-opacity:1" />
    <g
       inkscape:label="rondelle"
       id="g1165">
      <path
         inkscape:connector-curvature="0"
         style="opacity:1;fill:#eeb204;fill-opacity:1;fill-rule:nonzero;stroke:none;stroke-width:3.08559322;stroke-linejoin:round;stroke-miterlimit:4;stroke-dasharray:none;stroke-opacity:1"
         d="m 911.48047,1006.0801 a 13.130285,13.130285 0 0 0 -13.13086,13.1308 13.130285,13.130285 0 0 0 8.23242,12.1758 h 9.78711 a 13.130285,13.130285 0 0 0 6.57031,-5.7969 v -12.7753 a 13.130285,13.130285 0 0 0 -11.45898,-6.7344 z m 0,4.4179 a 8.4750023,8.7137346 0 0 1 8.47461,8.7129 8.4750023,8.7137346 0 0 1 -8.47461,8.7149 8.4750023,8.7137346 0 0 1 -8.47656,-8.7149 8.4750023,8.7137346 0 0 1 8.47656,-8.7129 z"
         id="path939"
         inkscape:label="2" />
      <path
         inkscape:connector-curvature="0"
         style="opacity:1;fill:#eeb204;fill-opacity:1;fill-rule:nonzero;stroke:none;stroke-width:3.08559322;stroke-linejoin:round;stroke-miterlimit:4;stroke-dasharray:none;stroke-opacity:1"
         d="m 784.17578,778.80859 a 13.130285,13.130285 0 0 0 -6.86328,6.89844 v 10.3457 a 13.130285,13.130285 0 0 0 12.05664,7.94141 13.130285,13.130285 0 0 0 13.12891,-13.13086 13.130285,13.130285 0 0 0 -7.96094,-12.05469 z m 5.19336,3.3418 a 8.4750023,8.7137346 0 0 1 8.47461,8.71289 8.4750023,8.7137346 0 0 1 -8.47461,8.71484 8.4750023,8.7137346 0 0 1 -8.47656,-8.71484 8.4750023,8.7137346 0 0 1 8.47656,-8.71289 z"
         id="path939-3"
         inkscape:label="1" />
    </g>
    <g
       inkscape:label="gros compsants"
       id="g1178">
      <g
         id="g1170"
         inkscape:label="1">
        <rect
           y="806.9787"
           x="803.09601"
           height="69.232414"
           width="106.95214"
           id="rect815"
           style="opacity:1;fill:#172726;fill-opacity:1;fill-rule:nonzero;stroke:none;stroke-width:2.72183394;stroke-linejoin:round;stroke-miterlimit:4;stroke-dasharray:none;stroke-opacity:1" />
        <rect
           inkscape:label="pate"
           y="806.9787"
           x="910.04816"
           height="69.232414"
           width="5.7295823"
           id="rect815-3"
           style="opacity:1;fill:#7f8681;fill-opacity:1;fill-rule:nonzero;stroke:none;stroke-width:0.62998235;stroke-linejoin:round;stroke-miterlimit:4;stroke-dasharray:none;stroke-opacity:1" />
        <rect
           inkscape:label="pate"
           y="806.9787"
           x="796.01599"
           height="69.232414"
           width="7.0800571"
           id="rect815-3-6"
           style="opacity:1;fill:#7f8681;fill-opacity:1;fill-rule:nonzero;stroke:none;stroke-width:0.70030189;stroke-linejoin:round;stroke-miterlimit:4;stroke-dasharray:none;stroke-opacity:1" />
      </g>
      <rect
         style="opacity:1;fill:#0c1818;fill-opacity:1;fill-rule:nonzero;stroke:none;stroke-width:2.59512162;stroke-linejoin:round;stroke-miterlimit:4;stroke-dasharray:none;stroke-opacity:1"
         id="rect815-3-7"
         width="81.356163"
         height="82.73716"
         x="801.3429"
         y="880.33038"
         inkscape:label="2" />
      <rect
         style="opacity:1;fill:#192429;fill-opacity:1;fill-rule:nonzero;stroke:none;stroke-width:6.04971409;stroke-linejoin:round;stroke-miterlimit:4;stroke-dasharray:none;stroke-opacity:1"
         id="rect853"
         width="73.263252"
         height="42.202332"
         x="800.15625"
         y="976.39319"
         inkscape:label="3" />
    </g>
    <g
       inkscape:label="composants"
       id="g1300">
      <g
         id="g1185"
         inkscape:label="1">
        <rect
           inkscape:label="pate"
           y="909.51422"
           x="907.06396"
           height="7.8781714"
           width="10.265495"
           id="rect855"
           style="opacity:1;fill:#7e998d;fill-opacity:1;fill-rule:nonzero;stroke:none;stroke-width:1.93819606;stroke-linejoin:round;stroke-miterlimit:4;stroke-dasharray:none;stroke-opacity:1" />
        <rect
           inkscape:label="pate"
           y="919.77972"
           x="907.422"
           height="6.8038754"
           width="9.668664"
           id="rect855-5"
           style="opacity:1;fill:#7e998d;fill-opacity:1;fill-rule:nonzero;stroke:none;stroke-width:1.74806046;stroke-linejoin:round;stroke-miterlimit:4;stroke-dasharray:none;stroke-opacity:1" />
        <rect
           inkscape:label="pate"
           y="919.06354"
           x="894.6499"
           height="7.7588053"
           width="9.0718327"
           id="rect855-3"
           style="opacity:1;fill:#7e998d;fill-opacity:1;fill-rule:nonzero;stroke:none;stroke-width:1.80817306;stroke-linejoin:round;stroke-miterlimit:4;stroke-dasharray:none;stroke-opacity:1" />
        <rect
           inkscape:label="pate"
           y="909.51428"
           x="894.76923"
           height="7.161974"
           width="9.0718327"
           id="rect855-56"
           style="opacity:1;fill:#7e998d;fill-opacity:1;fill-rule:nonzero;stroke:none;stroke-width:1.7372365;stroke-linejoin:round;stroke-miterlimit:4;stroke-dasharray:none;stroke-opacity:1" />
        <rect
           y="910.80432"
           x="896.56567"
           height="14.630544"
           width="18.241735"
           id="rect855-2"
           style="opacity:1;fill:#192429;fill-opacity:1;fill-rule:nonzero;stroke:none;stroke-width:3.52093792;stroke-linejoin:round;stroke-miterlimit:4;stroke-dasharray:none;stroke-opacity:1" />
      </g>
      <g
         id="g1261"
         inkscape:label="3">
        <g
           inkscape:label="1"
           id="g1247">
          <rect
             style="opacity:1;fill:#78735f;fill-opacity:1;fill-rule:nonzero;stroke:none;stroke-width:2.10544419;stroke-linejoin:round;stroke-miterlimit:4;stroke-dasharray:none;stroke-opacity:1"
             id="rect913"
             width="8.236269"
             height="4.8940148"
             x="905.39276"
             y="957.49945" />
          <rect
             style="opacity:1;fill:#b1c7b6;fill-opacity:1;fill-rule:nonzero;stroke:none;stroke-width:1.64407563;stroke-linejoin:round;stroke-miterlimit:4;stroke-dasharray:none;stroke-opacity:1"
             id="rect913-2"
             width="8.236269"
             height="2.9841552"
             x="905.39276"
             y="954.51526" />
          <rect
             style="opacity:1;fill:#b1c7b6;fill-opacity:1;fill-rule:nonzero;stroke:none;stroke-width:1.64407563;stroke-linejoin:round;stroke-miterlimit:4;stroke-dasharray:none;stroke-opacity:1"
             id="rect913-2-7"
             width="8.236269"
             height="2.9841552"
             x="905.39276"
             y="962.39349" />
        </g>
        <g
           inkscape:label="2"
           id="g1242">
          <rect
             style="opacity:1;fill:#78735f;fill-opacity:1;fill-rule:nonzero;stroke:none;stroke-width:2.10544419;stroke-linejoin:round;stroke-miterlimit:4;stroke-dasharray:none;stroke-opacity:1"
             id="rect913-0"
             width="8.236269"
             height="4.8940148"
             x="905.33313"
             y="978.44824" />
          <rect
             style="opacity:1;fill:#b1c7b6;fill-opacity:1;fill-rule:nonzero;stroke:none;stroke-width:1.64407563;stroke-linejoin:round;stroke-miterlimit:4;stroke-dasharray:none;stroke-opacity:1"
             id="rect913-2-9"
             width="8.236269"
             height="2.9841552"
             x="905.33313"
             y="975.46405" />
          <rect
             style="opacity:1;fill:#b1c7b6;fill-opacity:1;fill-rule:nonzero;stroke:none;stroke-width:1.64407563;stroke-linejoin:round;stroke-miterlimit:4;stroke-dasharray:none;stroke-opacity:1"
             id="rect913-2-7-3"
             width="8.236269"
             height="2.9841552"
             x="905.33313"
             y="983.34229" />
        </g>
        <g
           inkscape:label="3"
           id="g1237">
          <rect
             style="opacity:1;fill:#78735f;fill-opacity:1;fill-rule:nonzero;stroke:none;stroke-width:2.10544419;stroke-linejoin:round;stroke-miterlimit:4;stroke-dasharray:none;stroke-opacity:1"
             id="rect913-6"
             width="8.236269"
             height="4.8940148"
             x="-990.14612"
             y="891.84479"
             transform="rotate(-90)" />
          <rect
             style="opacity:1;fill:#b1c7b6;fill-opacity:1;fill-rule:nonzero;stroke:none;stroke-width:1.64407563;stroke-linejoin:round;stroke-miterlimit:4;stroke-dasharray:none;stroke-opacity:1"
             id="rect913-2-0"
             width="8.236269"
             height="2.9841552"
             x="-990.14612"
             y="896.73883"
             transform="rotate(-90)" />
          <rect
             style="opacity:1;fill:#b1c7b6;fill-opacity:1;fill-rule:nonzero;stroke:none;stroke-width:1.64407563;stroke-linejoin:round;stroke-miterlimit:4;stroke-dasharray:none;stroke-opacity:1"
             id="rect913-2-7-6"
             width="8.236269"
             height="2.9841552"
             x="-990.14612"
             y="888.86066"
             transform="rotate(-90)" />
        </g>
      </g>
      <g
         id="g1232"
         inkscape:label="2">
        <g
           inkscape:label="1"
           id="g1222">
          <rect
             style="opacity:1;fill:#78735f;fill-opacity:1;fill-rule:nonzero;stroke:none;stroke-width:1.97206247;stroke-linejoin:round;stroke-miterlimit:4;stroke-dasharray:none;stroke-opacity:1"
             id="rect913-26"
             width="6.5481758"
             height="5.4004426"
             x="936.5719"
             y="-911.82281"
             transform="rotate(90)" />
          <rect
             style="opacity:1;fill:#b1c7b6;fill-opacity:1;fill-rule:nonzero;stroke:none;stroke-width:1.51159132;stroke-linejoin:round;stroke-miterlimit:4;stroke-dasharray:none;stroke-opacity:1"
             id="rect913-26-1"
             width="3.8472264"
             height="5.4004426"
             x="932.72467"
             y="-911.82281"
             transform="rotate(90)" />
          <rect
             style="opacity:1;fill:#b1c7b6;fill-opacity:1;fill-rule:nonzero;stroke:none;stroke-width:1.51159132;stroke-linejoin:round;stroke-miterlimit:4;stroke-dasharray:none;stroke-opacity:1"
             id="rect913-26-1-8"
             width="3.8472264"
             height="5.4004426"
             x="943.12006"
             y="-911.82281"
             transform="rotate(90)" />
        </g>
        <g
           inkscape:label="2"
           id="g1217">
          <rect
             style="opacity:1;fill:#78735f;fill-opacity:1;fill-rule:nonzero;stroke:none;stroke-width:1.97206247;stroke-linejoin:round;stroke-miterlimit:4;stroke-dasharray:none;stroke-opacity:1"
             id="rect913-26-7"
             width="6.5481758"
             height="5.4004426"
             x="974.99512"
             y="-881.47437"
             transform="rotate(90)" />
          <rect
             style="opacity:1;fill:#b1c7b6;fill-opacity:1;fill-rule:nonzero;stroke:none;stroke-width:1.51159132;stroke-linejoin:round;stroke-miterlimit:4;stroke-dasharray:none;stroke-opacity:1"
             id="rect913-26-1-9"
             width="3.8472264"
             height="5.4004426"
             x="971.14789"
             y="-881.47437"
             transform="rotate(90)" />
          <rect
             style="opacity:1;fill:#b1c7b6;fill-opacity:1;fill-rule:nonzero;stroke:none;stroke-width:1.51159132;stroke-linejoin:round;stroke-miterlimit:4;stroke-dasharray:none;stroke-opacity:1"
             id="rect913-26-1-8-2"
             width="3.8472264"
             height="5.4004426"
             x="981.54327"
             y="-881.47437"
             transform="rotate(90)" />
        </g>
      </g>
      <g
         id="g1212"
         inkscape:label="4">
        <g
           id="g1371">
          <rect
             style="opacity:1;fill:#383834;fill-opacity:1;fill-rule:nonzero;stroke:none;stroke-width:3.38858628;stroke-linejoin:round;stroke-miterlimit:4;stroke-dasharray:none;stroke-opacity:1"
             id="rect1042"
             width="10.205812"
             height="14.502996"
             x="889.75586"
             y="960.84174" />
          <rect
             style="opacity:1;fill:#383834;fill-opacity:1;fill-rule:nonzero;stroke:none;stroke-width:1.11631441;stroke-linejoin:round;stroke-miterlimit:4;stroke-dasharray:none;stroke-opacity:1"
             id="rect1042-0"
             width="2.9530895"
             height="5.4395709"
             x="-1339.3749"
             y="-184.13252"
             transform="matrix(-0.77273248,-0.63473185,0.73325904,-0.67994939,0,0)" />
          <rect
             style="opacity:1;fill:#383834;fill-opacity:1;fill-rule:nonzero;stroke:none;stroke-width:1.11029828;stroke-linejoin:round;stroke-miterlimit:4;stroke-dasharray:none;stroke-opacity:1"
             id="rect1042-0-2"
             width="2.9363384"
             height="5.4117951"
             x="87.042351"
             y="1324.5919"
             transform="matrix(-0.7697439,0.63835282,0.73000746,0.68343917,0,0)" />
          <rect
             style="opacity:1;fill:#383834;fill-opacity:1;fill-rule:nonzero;stroke:none;stroke-width:0.97446156;stroke-linejoin:round;stroke-miterlimit:4;stroke-dasharray:none;stroke-opacity:1"
             id="rect1042-0-3"
             width="2.5568399"
             height="4.7873373"
             x="1309.3705"
             y="1.2191312"
             transform="matrix(0.68012061,0.73310023,-0.63490936,0.77258663,0,0)" />
          <rect
             style="opacity:1;fill:#383834;fill-opacity:1;fill-rule:nonzero;stroke:none;stroke-width:0.97446156;stroke-linejoin:round;stroke-miterlimit:4;stroke-dasharray:none;stroke-opacity:1"
             id="rect1042-0-3-5"
             width="2.5568399"
             height="4.7873373"
             x="68.783623"
             y="-1327.7087"
             transform="matrix(0.68012061,-0.73310023,-0.63490936,-0.77258663,0,0)" />
          <rect
             style="opacity:1;fill:#383834;fill-opacity:1;fill-rule:nonzero;stroke:none;stroke-width:1.3328799;stroke-linejoin:round;stroke-miterlimit:4;stroke-dasharray:none;stroke-opacity:1"
             id="rect1042-9"
             width="3.2228642"
             height="7.1057229"
             x="886.71631"
             y="964.54034" />
          <rect
             style="opacity:1;fill:#383834;fill-opacity:1;fill-rule:nonzero;stroke:none;stroke-width:1.58785796;stroke-linejoin:round;stroke-miterlimit:4;stroke-dasharray:none;stroke-opacity:1"
             id="rect1042-2"
             width="4.5738721"
             height="7.1057105"
             x="899.3764"
             y="964.54034" />
        </g>
        <ellipse
           ry="3.1546788"
           rx="2.9841561"
           cy="964.95135"
           cx="897.15649"
           id="path1044"
           style="opacity:1;fill:#9b9b9f;fill-opacity:1;fill-rule:nonzero;stroke:none;stroke-width:1.00813484;stroke-linejoin:round;stroke-miterlimit:4;stroke-dasharray:none;stroke-opacity:1" />
      </g>
    </g>
    <g
       inkscape:label="texte"
       id="g1202">
      <rect
         style="opacity:1;fill:#00491d;fill-opacity:1;fill-rule:nonzero;stroke:none;stroke-width:3.11990047;stroke-linejoin:round;stroke-miterlimit:4;stroke-dasharray:none;stroke-opacity:1"
         id="rect1124"
         width="61.47361"
         height="8.7137356"
         x="829.35657"
         y="785.85083" />
      <rect
         style="opacity:1;fill:#00491d;fill-opacity:1;fill-rule:nonzero;stroke:none;stroke-width:3.41032553;stroke-linejoin:round;stroke-miterlimit:4;stroke-dasharray:none;stroke-opacity:1"
         id="rect1126"
         width="29.722151"
         height="8.2362728"
         x="829.35657"
         y="794.56458" />
      <text
         xml:space="preserve"
         style="font-style:normal;font-weight:normal;font-size:6.19754314px;line-height:1.25;font-family:sans-serif;letter-spacing:0px;word-spacing:0px;fill:#12502b;fill-opacity:1;stroke:none;stroke-width:0.15493859"
         x="830.33679"
         y="792.40454"
         id="text1132"
         inkscape:label="Armadeus Systems"><tspan
           sodipodi:role="line"
           id="tspan1130"
           x="830.33679"
           y="792.40454"
           style="fill:#12502b;fill-opacity:1;stroke-width:0.15493859">Armadeus Systems</tspan></text>
      <text
         xml:space="preserve"
         style="font-style:normal;font-weight:normal;font-size:5.16408491px;line-height:1.25;font-family:sans-serif;letter-spacing:0px;word-spacing:0px;fill:#12502b;fill-opacity:1;stroke:none;stroke-width:0.12910214"
         x="829.68701"
         y="800.55969"
         id="text1140"
         inkscape:label="APF28 V1.1"><tspan
           sodipodi:role="line"
           id="tspan1138"
           x="829.68701"
           y="800.55969"
           style="fill:#12502b;fill-opacity:1;stroke-width:0.12910214">APF28 V1.1</tspan></text>
    </g>
    <g
       inkscape:label="points"
       id="g1194">
      <circle
         style="display:inline;opacity:1;fill:#eeb204;fill-opacity:1;fill-rule:nonzero;stroke:none;stroke-width:2.79370785;stroke-linejoin:round;stroke-miterlimit:4;stroke-dasharray:none;stroke-opacity:1"
         id="path890"
         cx="890.49371"
         cy="1010.9682"
         r="3.4254165"
         inkscape:label="3" />
      <circle
         style="display:inline;opacity:1;fill:#eeb204;fill-opacity:1;fill-rule:nonzero;stroke:none;stroke-width:2.79370785;stroke-linejoin:round;stroke-miterlimit:4;stroke-dasharray:none;stroke-opacity:1"
         id="path890-2"
         cx="787.91754"
         cy="996.14392"
         r="3.4254165"
         inkscape:label="2" />
      <circle
         style="display:inline;opacity:1;fill:#eeb204;fill-opacity:1;fill-rule:nonzero;stroke:none;stroke-width:2.79370785;stroke-linejoin:round;stroke-miterlimit:4;stroke-dasharray:none;stroke-opacity:1"
         id="path890-8"
         cx="790.95612"
         cy="920.85492"
         r="3.4254165"
         inkscape:label="1" />
    </g>
  </g>
  <g
     id="g2079"
     inkscape:label="verso">
    <path
       inkscape:label="carte"
       inkscape:connector-curvature="0"
       id="rect915-6"
       d="M 383.51125,1032.1779 V 779.5998 H 529.1382 v 252.5781 z m 12.05664,-3.3418 a 8.4750023,8.7137346 0 0 0 8.47461,-8.7129 8.4750023,8.7137346 0 0 0 -8.47461,-8.7148 8.4750023,8.7137346 0 0 0 -8.47461,8.7148 8.4750023,8.7137346 0 0 0 8.47461,8.7129 z M 517.67922,800.4885 a 8.4750023,8.7137346 0 0 0 8.47461,-8.7129 8.4750023,8.7137346 0 0 0 -8.47461,-8.7149 8.4750023,8.7137346 0 0 0 -8.47461,8.7149 8.4750023,8.7137346 0 0 0 8.47461,8.7129 z"
       style="display:inline;opacity:1;fill:#12502b;fill-opacity:1;fill-rule:nonzero;stroke:none;stroke-width:3.30999994;stroke-linejoin:round;stroke-miterlimit:4;stroke-dasharray:none;stroke-opacity:1" />
    <g
       transform="matrix(1,0,0,-1,-393.80125,1810.9865)"
       inkscape:label="rondelle"
       id="g1165-7">
      <path
         inkscape:connector-curvature="0"
         style="opacity:1;fill:#eeb204;fill-opacity:1;fill-rule:nonzero;stroke:none;stroke-width:3.08559322;stroke-linejoin:round;stroke-miterlimit:4;stroke-dasharray:none;stroke-opacity:1"
         d="m 911.48047,1006.0801 a 13.130285,13.130285 0 0 0 -13.13086,13.1308 13.130285,13.130285 0 0 0 8.23242,12.1758 h 9.78711 a 13.130285,13.130285 0 0 0 6.57031,-5.7969 v -12.7753 a 13.130285,13.130285 0 0 0 -11.45898,-6.7344 z m 0,4.4179 a 8.4750023,8.7137346 0 0 1 8.47461,8.7129 8.4750023,8.7137346 0 0 1 -8.47461,8.7149 8.4750023,8.7137346 0 0 1 -8.47656,-8.7149 8.4750023,8.7137346 0 0 1 8.47656,-8.7129 z"
         id="path939-5"
         inkscape:label="2" />
      <path
         inkscape:connector-curvature="0"
         style="opacity:1;fill:#eeb204;fill-opacity:1;fill-rule:nonzero;stroke:none;stroke-width:3.08559322;stroke-linejoin:round;stroke-miterlimit:4;stroke-dasharray:none;stroke-opacity:1"
         d="m 784.17578,778.80859 a 13.130285,13.130285 0 0 0 -6.86328,6.89844 v 10.3457 a 13.130285,13.130285 0 0 0 12.05664,7.94141 13.130285,13.130285 0 0 0 13.12891,-13.13086 13.130285,13.130285 0 0 0 -7.96094,-12.05469 z m 5.19336,3.3418 a 8.4750023,8.7137346 0 0 1 8.47461,8.71289 8.4750023,8.7137346 0 0 1 -8.47461,8.71484 8.4750023,8.7137346 0 0 1 -8.47656,-8.71484 8.4750023,8.7137346 0 0 1 8.47656,-8.71289 z"
         id="path939-3-3"
         inkscape:label="1" />
    </g>
    <g
       transform="matrix(1,0,0,-1,-393.80125,1810.9865)"
       inkscape:label="points"
       id="g1194-5">
      <circle
         style="display:inline;opacity:1;fill:#eeb204;fill-opacity:1;fill-rule:nonzero;stroke:none;stroke-width:2.79370785;stroke-linejoin:round;stroke-miterlimit:4;stroke-dasharray:none;stroke-opacity:1"
         id="path890-4"
         cx="890.49371"
         cy="1010.9682"
         r="3.4254165"
         inkscape:label="3" />
      <circle
         style="display:inline;opacity:1;fill:#eeb204;fill-opacity:1;fill-rule:nonzero;stroke:none;stroke-width:2.79370785;stroke-linejoin:round;stroke-miterlimit:4;stroke-dasharray:none;stroke-opacity:1"
         id="path890-2-7"
         cx="787.91754"
         cy="996.14392"
         r="3.4254165"
         inkscape:label="2" />
      <circle
         style="display:inline;opacity:1;fill:#eeb204;fill-opacity:1;fill-rule:nonzero;stroke:none;stroke-width:2.79370785;stroke-linejoin:round;stroke-miterlimit:4;stroke-dasharray:none;stroke-opacity:1"
         id="path890-8-6"
         cx="790.95612"
         cy="920.85492"
         r="3.4254165"
         inkscape:label="1" />
    </g>
    <g
       inkscape:label="barette gauche"
       id="g1980">
      <rect
         style="opacity:1;fill:#0c0e04;fill-opacity:1;fill-rule:nonzero;stroke:none;stroke-width:3.92261076;stroke-linejoin:round;stroke-miterlimit:4;stroke-dasharray:none;stroke-opacity:1"
         id="rect1633"
         width="5.5"
         height="95.5"
         x="397.5"
         y="905.75" />
      <rect
         style="opacity:1;fill:#20241d;fill-opacity:1;fill-rule:nonzero;stroke:none;stroke-width:0.8297568;stroke-linejoin:round;stroke-miterlimit:4;stroke-dasharray:none;stroke-opacity:1"
         id="rect1633-4"
         width="8.3565063"
         height="2.8125002"
         x="396.07175"
         y="902.9375" />
      <rect
         style="opacity:1;fill:#20241d;fill-opacity:1;fill-rule:nonzero;stroke:none;stroke-width:0.83685058;stroke-linejoin:round;stroke-miterlimit:4;stroke-dasharray:none;stroke-opacity:1"
         id="rect1633-4-8"
         width="8.5"
         height="2.8125002"
         x="395.92825"
         y="1001.2712" />
      <rect
         style="opacity:1;fill:#6c6356;fill-opacity:1;fill-rule:nonzero;stroke:none;stroke-width:1.99914479;stroke-linejoin:round;stroke-miterlimit:4;stroke-dasharray:none;stroke-opacity:1"
         id="rect1633-4-1"
         width="1.4282506"
         height="95.521187"
         x="403"
         y="905.75" />
      <rect
         style="opacity:1;fill:#6c6356;fill-opacity:1;fill-rule:nonzero;stroke:none;stroke-width:1.99914479;stroke-linejoin:round;stroke-miterlimit:4;stroke-dasharray:none;stroke-opacity:1"
         id="rect1633-4-1-2"
         width="1.4282506"
         height="95.521187"
         x="396.07175"
         y="905.75" />
      <rect
         style="opacity:1;fill:#8d7250;fill-opacity:1;fill-rule:nonzero;stroke:none;stroke-width:3.7869432;stroke-linejoin:round;stroke-miterlimit:4;stroke-dasharray:none;stroke-opacity:1"
         id="rect1633-4-1-9"
         width="5.1249971"
         height="95.521149"
         x="404.42825"
         y="905.75" />
      <rect
         style="opacity:1;fill:#8d7250;fill-opacity:1;fill-rule:nonzero;stroke:none;stroke-width:3.78352618;stroke-linejoin:round;stroke-miterlimit:4;stroke-dasharray:none;stroke-opacity:1"
         id="rect1633-4-1-9-9"
         width="5.1157503"
         height="95.521187"
         x="390.95599"
         y="905.75" />
    </g>
    <g
       inkscape:label="barette droite"
       id="g1971">
      <rect
         style="opacity:1;fill:#0c0e04;fill-opacity:1;fill-rule:nonzero;stroke:none;stroke-width:3.92261076;stroke-linejoin:round;stroke-miterlimit:4;stroke-dasharray:none;stroke-opacity:1"
         id="rect1633-8"
         width="5.5"
         height="95.5"
         x="507.33914"
         y="905.73944" />
      <rect
         style="opacity:1;fill:#20241d;fill-opacity:1;fill-rule:nonzero;stroke:none;stroke-width:0.8297568;stroke-linejoin:round;stroke-miterlimit:4;stroke-dasharray:none;stroke-opacity:1"
         id="rect1633-4-85"
         width="8.3565063"
         height="2.8125002"
         x="505.91089"
         y="902.92694" />
      <rect
         style="opacity:1;fill:#20241d;fill-opacity:1;fill-rule:nonzero;stroke:none;stroke-width:0.83685058;stroke-linejoin:round;stroke-miterlimit:4;stroke-dasharray:none;stroke-opacity:1"
         id="rect1633-4-8-0"
         width="8.5"
         height="2.8125002"
         x="505.7674"
         y="1001.2606" />
      <rect
         style="opacity:1;fill:#6c6356;fill-opacity:1;fill-rule:nonzero;stroke:none;stroke-width:1.99914479;stroke-linejoin:round;stroke-miterlimit:4;stroke-dasharray:none;stroke-opacity:1"
         id="rect1633-4-1-96"
         width="1.4282506"
         height="95.521187"
         x="512.83911"
         y="905.73944" />
      <rect
         style="opacity:1;fill:#6c6356;fill-opacity:1;fill-rule:nonzero;stroke:none;stroke-width:1.99914479;stroke-linejoin:round;stroke-miterlimit:4;stroke-dasharray:none;stroke-opacity:1"
         id="rect1633-4-1-2-3"
         width="1.4282506"
         height="95.521187"
         x="505.91089"
         y="905.73944" />
      <rect
         style="opacity:1;fill:#8d7250;fill-opacity:1;fill-rule:nonzero;stroke:none;stroke-width:3.83284712;stroke-linejoin:round;stroke-miterlimit:4;stroke-dasharray:none;stroke-opacity:1"
         id="rect1633-4-1-9-8"
         width="5.2499971"
         height="95.521149"
         x="514.2674"
         y="905.73944" />
      <rect
         style="opacity:1;fill:#8d7250;fill-opacity:1;fill-rule:nonzero;stroke:none;stroke-width:3.78352618;stroke-linejoin:round;stroke-miterlimit:4;stroke-dasharray:none;stroke-opacity:1"
         id="rect1633-4-1-9-9-5"
         width="5.1157503"
         height="95.521187"
         x="500.79514"
         y="905.73944" />
    </g>
    <g
       inkscape:label="composants"
       id="g1962">
      <g
         id="g1280"
         inkscape:label="g1280">
        <rect
           y="953.44104"
           x="449.29446"
           height="19.934158"
           width="20.88909"
           id="rect406"
           style="opacity:1;fill:#192122;fill-opacity:1;fill-rule:nonzero;stroke:none;stroke-width:3.69871545;stroke-linejoin:round;stroke-miterlimit:4;stroke-dasharray:none;stroke-opacity:1" />
        <rect
           y="955.11212"
           x="470.18356"
           height="16.711269"
           width="3.7762744"
           id="rect1213"
           style="opacity:1;fill:#778f88;fill-opacity:1;fill-rule:nonzero;stroke:none;stroke-width:3.254107;stroke-linejoin:round;stroke-miterlimit:4;stroke-dasharray:none;stroke-opacity:1" />
        <rect
           y="954.69434"
           x="445.68698"
           height="17.188734"
           width="3.607465"
           id="rect1213-5"
           style="opacity:1;fill:#778f88;fill-opacity:1;fill-rule:nonzero;stroke:none;stroke-width:3.22565818;stroke-linejoin:round;stroke-miterlimit:4;stroke-dasharray:none;stroke-opacity:1" />
        <rect
           transform="rotate(90)"
           y="-468.09464"
           x="949.96735"
           height="16.711269"
           width="3.3542509"
           id="rect1213-9"
           style="opacity:1;fill:#778f88;fill-opacity:1;fill-rule:nonzero;stroke:none;stroke-width:3.06688738;stroke-linejoin:round;stroke-miterlimit:4;stroke-dasharray:none;stroke-opacity:1" />
        <rect
           transform="rotate(90)"
           y="-467.97528"
           x="973.37518"
           height="16.711269"
           width="3.7762744"
           id="rect1213-9-3"
           style="opacity:1;fill:#778f88;fill-opacity:1;fill-rule:nonzero;stroke:none;stroke-width:3.254107;stroke-linejoin:round;stroke-miterlimit:4;stroke-dasharray:none;stroke-opacity:1" />
      </g>
      <g
         id="g1328">
        <rect
           y="883.88568"
           x="512.3363"
           height="11.985463"
           width="7.6808257"
           id="rect1282"
           style="opacity:1;fill:#c3c8c2;fill-opacity:1;fill-rule:nonzero;stroke:none;stroke-width:1.14229429;stroke-linejoin:round;stroke-miterlimit:4;stroke-dasharray:none;stroke-opacity:1" />
        <rect
           y="883.88568"
           x="497.94531"
           height="11.39463"
           width="7.089993"
           id="rect1282-7"
           style="opacity:1;fill:#c3c8c2;fill-opacity:1;fill-rule:nonzero;stroke:none;stroke-width:1.07008839;stroke-linejoin:round;stroke-miterlimit:4;stroke-dasharray:none;stroke-opacity:1" />
        <rect
           y="883.88568"
           x="498.78937"
           height="8.9468946"
           width="20.299341"
           id="rect1301"
           style="opacity:1;fill:url(#meshgradient1311);fill-opacity:1;fill-rule:nonzero;stroke:none;stroke-width:3.49879837;stroke-linejoin:round;stroke-miterlimit:4;stroke-dasharray:none;stroke-opacity:1" />
      </g>
      <g
         id="g1352">
        <rect
           y="854.72516"
           x="498.71207"
           height="14.085215"
           width="7.5200725"
           id="rect1330"
           style="opacity:1;fill:#0b0d0f;fill-opacity:1;fill-rule:nonzero;stroke:none;stroke-width:2.59660435;stroke-linejoin:round;stroke-miterlimit:4;stroke-dasharray:none;stroke-opacity:1" />
        <rect
           y="850.66675"
           x="498.71207"
           height="4.0584512"
           width="7.5200768"
           id="rect1332"
           style="opacity:1;fill:#8a8f8c;fill-opacity:1;fill-rule:nonzero;stroke:none;stroke-width:1.08690989;stroke-linejoin:round;stroke-miterlimit:4;stroke-dasharray:none;stroke-opacity:1" />
        <rect
           y="868.81036"
           x="498.71207"
           height="4.0584512"
           width="7.5200768"
           id="rect1332-4"
           style="opacity:1;fill:#8a8f8c;fill-opacity:1;fill-rule:nonzero;stroke:none;stroke-width:1.08690989;stroke-linejoin:round;stroke-miterlimit:4;stroke-dasharray:none;stroke-opacity:1" />
      </g>
      <g
         id="g1391">
        <rect
           y="833.89996"
           x="493.38376"
           height="7.0710683"
           width="11.844039"
           id="rect1354"
           style="opacity:1;fill:#766e56;fill-opacity:1;fill-rule:nonzero;stroke:none;stroke-width:1.04481506;stroke-linejoin:round;stroke-miterlimit:4;stroke-dasharray:none;stroke-opacity:1" />
        <rect
           y="833.89996"
           x="505.22778"
           height="7.0710683"
           width="2.0329323"
           id="rect1354-5"
           style="opacity:1;fill:#b1c5b4;fill-opacity:1;fill-rule:nonzero;stroke:none;stroke-width:0.4328635;stroke-linejoin:round;stroke-miterlimit:4;stroke-dasharray:none;stroke-opacity:1" />
        <rect
           y="833.89996"
           x="491.35083"
           height="7.0710683"
           width="2.0329323"
           id="rect1354-5-2"
           style="opacity:1;fill:#b1c5b4;fill-opacity:1;fill-rule:nonzero;stroke:none;stroke-width:0.4328635;stroke-linejoin:round;stroke-miterlimit:4;stroke-dasharray:none;stroke-opacity:1" />
      </g>
      <g
         transform="translate(-7.4246191,-10.69505)"
         id="g1391-5">
        <rect
           y="833.89996"
           x="493.38376"
           height="7.0710683"
           width="11.844039"
           id="rect1354-4"
           style="opacity:1;fill:#766e56;fill-opacity:1;fill-rule:nonzero;stroke:none;stroke-width:1.04481506;stroke-linejoin:round;stroke-miterlimit:4;stroke-dasharray:none;stroke-opacity:1" />
        <rect
           y="833.89996"
           x="505.22778"
           height="7.0710683"
           width="2.0329323"
           id="rect1354-5-7"
           style="opacity:1;fill:#b1c5b4;fill-opacity:1;fill-rule:nonzero;stroke:none;stroke-width:0.4328635;stroke-linejoin:round;stroke-miterlimit:4;stroke-dasharray:none;stroke-opacity:1" />
        <rect
           y="833.89996"
           x="491.35083"
           height="7.0710683"
           width="2.0329323"
           id="rect1354-5-2-4"
           style="opacity:1;fill:#b1c5b4;fill-opacity:1;fill-rule:nonzero;stroke:none;stroke-width:0.4328635;stroke-linejoin:round;stroke-miterlimit:4;stroke-dasharray:none;stroke-opacity:1" />
      </g>
      <g
         transform="rotate(90,474.37063,776.81486)"
         id="g1391-4">
        <rect
           y="833.89996"
           x="493.38376"
           height="7.0710683"
           width="11.844039"
           id="rect1354-3"
           style="opacity:1;fill:#766e56;fill-opacity:1;fill-rule:nonzero;stroke:none;stroke-width:1.04481506;stroke-linejoin:round;stroke-miterlimit:4;stroke-dasharray:none;stroke-opacity:1" />
        <rect
           y="833.89996"
           x="505.22778"
           height="7.0710683"
           width="2.0329323"
           id="rect1354-5-0"
           style="opacity:1;fill:#b1c5b4;fill-opacity:1;fill-rule:nonzero;stroke:none;stroke-width:0.4328635;stroke-linejoin:round;stroke-miterlimit:4;stroke-dasharray:none;stroke-opacity:1" />
        <rect
           y="833.89996"
           x="491.35083"
           height="7.0710683"
           width="2.0329323"
           id="rect1354-5-2-7"
           style="opacity:1;fill:#b1c5b4;fill-opacity:1;fill-rule:nonzero;stroke:none;stroke-width:0.4328635;stroke-linejoin:round;stroke-miterlimit:4;stroke-dasharray:none;stroke-opacity:1" />
      </g>
      <g
         transform="matrix(0,0.82222203,-0.65000002,0,1058.3997,419.47059)"
         id="g1391-8-4">
        <rect
           y="833.89996"
           x="493.38376"
           height="7.0710683"
           width="11.844039"
           id="rect1354-6-3"
           style="opacity:1;fill:#766e56;fill-opacity:1;fill-rule:nonzero;stroke:none;stroke-width:1.04481506;stroke-linejoin:round;stroke-miterlimit:4;stroke-dasharray:none;stroke-opacity:1" />
        <rect
           y="833.89996"
           x="505.22778"
           height="7.0710683"
           width="2.0329323"
           id="rect1354-5-8-1"
           style="opacity:1;fill:#b1c5b4;fill-opacity:1;fill-rule:nonzero;stroke:none;stroke-width:0.4328635;stroke-linejoin:round;stroke-miterlimit:4;stroke-dasharray:none;stroke-opacity:1" />
        <rect
           y="833.89996"
           x="491.35083"
           height="7.0710683"
           width="2.0329323"
           id="rect1354-5-2-8-4"
           style="opacity:1;fill:#b1c5b4;fill-opacity:1;fill-rule:nonzero;stroke:none;stroke-width:0.4328635;stroke-linejoin:round;stroke-miterlimit:4;stroke-dasharray:none;stroke-opacity:1" />
      </g>
      <g
         transform="matrix(0,-1,0.65000002,0,-105.92688,1481.875)"
         id="g1391-8-4-8-2">
        <rect
           y="833.89996"
           x="493.38376"
           height="7.0710683"
           width="11.844039"
           id="rect1354-6-3-9-72"
           style="opacity:1;fill:#192122;fill-opacity:1;fill-rule:nonzero;stroke:none;stroke-width:1.04481506;stroke-linejoin:round;stroke-miterlimit:4;stroke-dasharray:none;stroke-opacity:1" />
        <rect
           y="833.89996"
           x="505.22778"
           height="7.0710683"
           width="2.0329323"
           id="rect1354-5-8-1-2-2"
           style="opacity:1;fill:#b1c5b4;fill-opacity:1;fill-rule:nonzero;stroke:none;stroke-width:0.4328635;stroke-linejoin:round;stroke-miterlimit:4;stroke-dasharray:none;stroke-opacity:1" />
        <rect
           y="833.89996"
           x="491.35083"
           height="7.0710683"
           width="2.0329323"
           id="rect1354-5-2-8-4-66-6"
           style="opacity:1;fill:#b1c5b4;fill-opacity:1;fill-rule:nonzero;stroke:none;stroke-width:0.4328635;stroke-linejoin:round;stroke-miterlimit:4;stroke-dasharray:none;stroke-opacity:1" />
      </g>
      <g
         transform="matrix(-0.82222203,0,0,-0.65000002,909.22723,1390.9609)"
         id="g1391-8-4-1">
        <rect
           y="833.89996"
           x="493.38376"
           height="7.0710683"
           width="11.844039"
           id="rect1354-6-3-0"
           style="opacity:1;fill:#766e56;fill-opacity:1;fill-rule:nonzero;stroke:none;stroke-width:1.04481506;stroke-linejoin:round;stroke-miterlimit:4;stroke-dasharray:none;stroke-opacity:1" />
        <rect
           y="833.89996"
           x="505.22778"
           height="7.0710683"
           width="2.0329323"
           id="rect1354-5-8-1-6"
           style="opacity:1;fill:#b1c5b4;fill-opacity:1;fill-rule:nonzero;stroke:none;stroke-width:0.4328635;stroke-linejoin:round;stroke-miterlimit:4;stroke-dasharray:none;stroke-opacity:1" />
        <rect
           y="833.89996"
           x="491.35083"
           height="7.0710683"
           width="2.0329323"
           id="rect1354-5-2-8-4-1"
           style="opacity:1;fill:#b1c5b4;fill-opacity:1;fill-rule:nonzero;stroke:none;stroke-width:0.4328635;stroke-linejoin:round;stroke-miterlimit:4;stroke-dasharray:none;stroke-opacity:1" />
      </g>
      <g
         transform="matrix(-0.82222203,0,0,-0.65000002,882.88758,1354.8985)"
         id="g1391-8-4-5">
        <rect
           y="833.89996"
           x="493.38376"
           height="7.0710683"
           width="11.844039"
           id="rect1354-6-3-94"
           style="opacity:1;fill:#766e56;fill-opacity:1;fill-rule:nonzero;stroke:none;stroke-width:1.04481506;stroke-linejoin:round;stroke-miterlimit:4;stroke-dasharray:none;stroke-opacity:1" />
        <rect
           y="833.89996"
           x="505.22778"
           height="7.0710683"
           width="2.0329323"
           id="rect1354-5-8-1-9"
           style="opacity:1;fill:#b1c5b4;fill-opacity:1;fill-rule:nonzero;stroke:none;stroke-width:0.4328635;stroke-linejoin:round;stroke-miterlimit:4;stroke-dasharray:none;stroke-opacity:1" />
        <rect
           y="833.89996"
           x="491.35083"
           height="7.0710683"
           width="2.0329323"
           id="rect1354-5-2-8-4-0"
           style="opacity:1;fill:#b1c5b4;fill-opacity:1;fill-rule:nonzero;stroke:none;stroke-width:0.4328635;stroke-linejoin:round;stroke-miterlimit:4;stroke-dasharray:none;stroke-opacity:1" />
      </g>
      <g
         transform="matrix(-0.82222203,0,0,-0.65000002,813.41429,1380.5311)"
         id="g1391-8-4-91">
        <rect
           y="833.89996"
           x="493.38376"
           height="7.0710683"
           width="11.844039"
           id="rect1354-6-3-7"
           style="opacity:1;fill:#766e56;fill-opacity:1;fill-rule:nonzero;stroke:none;stroke-width:1.04481506;stroke-linejoin:round;stroke-miterlimit:4;stroke-dasharray:none;stroke-opacity:1" />
        <rect
           y="833.89996"
           x="505.22778"
           height="7.0710683"
           width="2.0329323"
           id="rect1354-5-8-1-7"
           style="opacity:1;fill:#b1c5b4;fill-opacity:1;fill-rule:nonzero;stroke:none;stroke-width:0.4328635;stroke-linejoin:round;stroke-miterlimit:4;stroke-dasharray:none;stroke-opacity:1" />
        <rect
           y="833.89996"
           x="491.35083"
           height="7.0710683"
           width="2.0329323"
           id="rect1354-5-2-8-4-11"
           style="opacity:1;fill:#b1c5b4;fill-opacity:1;fill-rule:nonzero;stroke:none;stroke-width:0.4328635;stroke-linejoin:round;stroke-miterlimit:4;stroke-dasharray:none;stroke-opacity:1" />
      </g>
      <g
         transform="matrix(0,0.82222203,-0.65000002,0,943.31809,449.52265)"
         id="g1391-8-4-59">
        <rect
           y="833.89996"
           x="493.38376"
           height="7.0710683"
           width="11.844039"
           id="rect1354-6-3-77"
           style="opacity:1;fill:#766e56;fill-opacity:1;fill-rule:nonzero;stroke:none;stroke-width:1.04481506;stroke-linejoin:round;stroke-miterlimit:4;stroke-dasharray:none;stroke-opacity:1" />
        <rect
           y="833.89996"
           x="505.22778"
           height="7.0710683"
           width="2.0329323"
           id="rect1354-5-8-1-67"
           style="opacity:1;fill:#b1c5b4;fill-opacity:1;fill-rule:nonzero;stroke:none;stroke-width:0.4328635;stroke-linejoin:round;stroke-miterlimit:4;stroke-dasharray:none;stroke-opacity:1" />
        <rect
           y="833.89996"
           x="491.35083"
           height="7.0710683"
           width="2.0329323"
           id="rect1354-5-2-8-4-3"
           style="opacity:1;fill:#b1c5b4;fill-opacity:1;fill-rule:nonzero;stroke:none;stroke-width:0.4328635;stroke-linejoin:round;stroke-miterlimit:4;stroke-dasharray:none;stroke-opacity:1" />
      </g>
      <g
         transform="matrix(0,0.82222203,-0.65000002,0,1022.1605,523.94564)"
         id="g1391-8-4-6">
        <rect
           y="833.89996"
           x="493.38376"
           height="7.0710683"
           width="11.844039"
           id="rect1354-6-3-5"
           style="opacity:1;fill:#766e56;fill-opacity:1;fill-rule:nonzero;stroke:none;stroke-width:1.04481506;stroke-linejoin:round;stroke-miterlimit:4;stroke-dasharray:none;stroke-opacity:1" />
        <rect
           y="833.89996"
           x="505.22778"
           height="7.0710683"
           width="2.0329323"
           id="rect1354-5-8-1-63"
           style="opacity:1;fill:#b1c5b4;fill-opacity:1;fill-rule:nonzero;stroke:none;stroke-width:0.4328635;stroke-linejoin:round;stroke-miterlimit:4;stroke-dasharray:none;stroke-opacity:1" />
        <rect
           y="833.89996"
           x="491.35083"
           height="7.0710683"
           width="2.0329323"
           id="rect1354-5-2-8-4-9"
           style="opacity:1;fill:#b1c5b4;fill-opacity:1;fill-rule:nonzero;stroke:none;stroke-width:0.4328635;stroke-linejoin:round;stroke-miterlimit:4;stroke-dasharray:none;stroke-opacity:1" />
      </g>
      <g
         id="g1842">
        <rect
           y="845.0509"
           x="510.93121"
           height="9.9490948"
           width="5.6937637"
           id="rect1781"
           style="opacity:1;fill:#0b0d0f;fill-opacity:1;fill-rule:nonzero;stroke:none;stroke-width:1.76356125;stroke-linejoin:round;stroke-miterlimit:4;stroke-dasharray:none;stroke-opacity:1" />
        <rect
           y="855"
           x="510.93121"
           height="2.8240948"
           width="5.6937637"
           id="rect1781-3"
           style="opacity:1;fill:#b1c5b4;fill-opacity:1;fill-rule:nonzero;stroke:none;stroke-width:0.93959004;stroke-linejoin:round;stroke-miterlimit:4;stroke-dasharray:none;stroke-opacity:1" />
        <rect
           y="842.22681"
           x="510.93121"
           height="2.8240948"
           width="5.6937637"
           id="rect1781-3-0"
           style="opacity:1;fill:#b1c5b4;fill-opacity:1;fill-rule:nonzero;stroke:none;stroke-width:0.93959004;stroke-linejoin:round;stroke-miterlimit:4;stroke-dasharray:none;stroke-opacity:1" />
        <text
           transform="rotate(-90)"
           id="text1835"
           y="515.84253"
           x="-854.21661"
           style="font-style:normal;font-weight:normal;font-size:5.17906332px;line-height:1.25;font-family:sans-serif;letter-spacing:0px;word-spacing:0px;fill:#f2f2f2;fill-opacity:1;stroke:none;stroke-width:0.12947658"
           xml:space="preserve"><tspan
             style="stroke-width:0.12947658"
             y="515.84253"
             x="-854.21661"
             id="tspan1833"
             sodipodi:role="line">.10</tspan></text>
      </g>
      <g
         transform="rotate(90,528.77677,829.87368)"
         id="g1842-4">
        <rect
           y="845.0509"
           x="510.93121"
           height="9.9490948"
           width="5.6937637"
           id="rect1781-4"
           style="opacity:1;fill:#0b0d0f;fill-opacity:1;fill-rule:nonzero;stroke:none;stroke-width:1.76356125;stroke-linejoin:round;stroke-miterlimit:4;stroke-dasharray:none;stroke-opacity:1" />
        <rect
           y="855"
           x="510.93121"
           height="2.8240948"
           width="5.6937637"
           id="rect1781-3-4"
           style="opacity:1;fill:#b1c5b4;fill-opacity:1;fill-rule:nonzero;stroke:none;stroke-width:0.93959004;stroke-linejoin:round;stroke-miterlimit:4;stroke-dasharray:none;stroke-opacity:1" />
        <rect
           y="842.22681"
           x="510.93121"
           height="2.8240948"
           width="5.6937637"
           id="rect1781-3-0-4"
           style="opacity:1;fill:#b1c5b4;fill-opacity:1;fill-rule:nonzero;stroke:none;stroke-width:0.93959004;stroke-linejoin:round;stroke-miterlimit:4;stroke-dasharray:none;stroke-opacity:1" />
        <text
           transform="rotate(-90)"
           id="text1835-7"
           y="515.84253"
           x="-854.21661"
           style="font-style:normal;font-weight:normal;font-size:5.17906332px;line-height:1.25;font-family:sans-serif;letter-spacing:0px;word-spacing:0px;fill:#f2f2f2;fill-opacity:1;stroke:none;stroke-width:0.12947658"
           xml:space="preserve"><tspan
             style="stroke-width:0.12947658"
             y="515.84253"
             x="-854.21661"
             id="tspan1833-6"
             sodipodi:role="line">.10</tspan></text>
      </g>
      <g
         transform="translate(-0.0280966,21.099551)"
         id="g1842-3">
        <rect
           y="845.0509"
           x="510.93121"
           height="9.9490948"
           width="5.6937637"
           id="rect1781-1"
           style="opacity:1;fill:#0b0d0f;fill-opacity:1;fill-rule:nonzero;stroke:none;stroke-width:1.76356125;stroke-linejoin:round;stroke-miterlimit:4;stroke-dasharray:none;stroke-opacity:1" />
        <rect
           y="855"
           x="510.93121"
           height="2.8240948"
           width="5.6937637"
           id="rect1781-3-7"
           style="opacity:1;fill:#b1c5b4;fill-opacity:1;fill-rule:nonzero;stroke:none;stroke-width:0.93959004;stroke-linejoin:round;stroke-miterlimit:4;stroke-dasharray:none;stroke-opacity:1" />
        <rect
           y="842.22681"
           x="510.93121"
           height="2.8240948"
           width="5.6937637"
           id="rect1781-3-0-5"
           style="opacity:1;fill:#b1c5b4;fill-opacity:1;fill-rule:nonzero;stroke:none;stroke-width:0.93959004;stroke-linejoin:round;stroke-miterlimit:4;stroke-dasharray:none;stroke-opacity:1" />
        <text
           transform="rotate(-90)"
           id="text1835-9"
           y="515.84253"
           x="-854.21661"
           style="font-style:normal;font-weight:normal;font-size:5.17906332px;line-height:1.25;font-family:sans-serif;letter-spacing:0px;word-spacing:0px;fill:#f2f2f2;fill-opacity:1;stroke:none;stroke-width:0.12947658"
           xml:space="preserve"><tspan
             style="stroke-width:0.12947658"
             y="515.84253"
             x="-854.21661"
             id="tspan1833-62"
             sodipodi:role="line">.10</tspan></text>
      </g>
    </g>
  </g>
</svg>
