<?xml version="1.0" encoding="UTF-8" standalone="no"?>
<!-- Created with Inkscape (http://www.inkscape.org/) -->

<svg
   xmlns:osb="http://www.openswatchbook.org/uri/2009/osb"
   xmlns:dc="http://purl.org/dc/elements/1.1/"
   xmlns:cc="http://creativecommons.org/ns#"
   xmlns:rdf="http://www.w3.org/1999/02/22-rdf-syntax-ns#"
   xmlns:svg="http://www.w3.org/2000/svg"
   xmlns="http://www.w3.org/2000/svg"
   xmlns:sodipodi="http://sodipodi.sourceforge.net/DTD/sodipodi-0.dtd"
   xmlns:inkscape="http://www.inkscape.org/namespaces/inkscape"
   version="1.1"
   id="svg89"
   xml:space="preserve"
   width="793.91998"
   height="1123.2"
   viewBox="0 0 793.91998 1123.2"
   sodipodi:docname="OPOS6UL_SP.svg"
   inkscape:version="0.92.3 (2405546, 2018-03-11)"><metadata
     id="metadata95"><rdf:RDF><cc:Work
         rdf:about=""><dc:format>image/svg+xml</dc:format><dc:type
           rdf:resource="http://purl.org/dc/dcmitype/StillImage" /><dc:title /></cc:Work></rdf:RDF></metadata><defs
     id="defs93"><meshgradient
       inkscape:collect="always"
       id="meshgradient1211"
       gradientUnits="userSpaceOnUse"
       x="398.87375"
       y="-496.96771"><meshrow
         id="meshrow1213"><meshpatch
           id="meshpatch1215"><stop
             path="c 1.74944,0  3.49888,0  5.24832,0"
             style="stop-color:#ffffff;stop-opacity:1"
             id="stop1217" /><stop
             path="c 0,3.16568  0,6.33135  0,9.49703"
             style="stop-color:#615d61;stop-opacity:1"
             id="stop1219" /><stop
             path="c -1.74944,0  -3.49888,0  -5.24832,0"
             style="stop-color:#ffffff;stop-opacity:1"
             id="stop1221" /><stop
             path="c 0,-3.16568  0,-6.33135  0,-9.49703"
             style="stop-color:#615d61;stop-opacity:1"
             id="stop1223" /></meshpatch></meshrow></meshgradient><meshgradient
       inkscape:collect="always"
       id="meshgradient1506"
       gradientUnits="userSpaceOnUse"
       x="377.40137"
       y="-485.17978"><meshrow
         id="meshrow1508"><meshpatch
           id="meshpatch1510"><stop
             path="c 1.58978,0  3.17955,0  4.76933,0"
             style="stop-color:#ffffff;stop-opacity:1"
             id="stop1512" /><stop
             path="c 0,2.11044  0,4.22087  0,6.33131"
             style="stop-color:#787778;stop-opacity:1"
             id="stop1514" /><stop
             path="c -1.58978,0  -3.17955,0  -4.76933,0"
             style="stop-color:#ffffff;stop-opacity:1"
             id="stop1516" /><stop
             path="c 0,-2.11044  0,-4.22087  0,-6.33131"
             style="stop-color:#787778;stop-opacity:1"
             id="stop1518" /></meshpatch></meshrow></meshgradient><marker
       inkscape:isstock="true"
       style="overflow:visible"
       id="Arrow1Lstart"
       refX="0.0"
       refY="0.0"
       orient="auto"
       inkscape:stockid="Arrow1Lstart"><path
         transform="scale(0.8) translate(12.5,0)"
         style="fill-rule:evenodd;stroke:#000000;stroke-width:1.0pt"
         d="M 0.0,0.0 L 5.0,-5.0 L -12.5,0.0 L 5.0,5.0 L 0.0,0.0 z "
         id="path1781" /></marker><linearGradient
       osb:paint="solid"
       id="linearGradient2354"><stop
         id="stop2352"
         offset="0"
         style="stop-color:#000000;stop-opacity:1;" /></linearGradient></defs><sodipodi:namedview
     pagecolor="#ffffff"
     bordercolor="#666666"
     borderopacity="1"
     objecttolerance="10"
     gridtolerance="10"
     guidetolerance="10"
     inkscape:pageopacity="0"
     inkscape:pageshadow="2"
     inkscape:window-width="1373"
     inkscape:window-height="845"
     id="namedview91"
     showgrid="false"
     inkscape:zoom="4.0533363"
     inkscape:cx="359.95227"
     inkscape:cy="614.72833"
     inkscape:window-x="67"
     inkscape:window-y="27"
     inkscape:window-maximized="1"
     inkscape:current-layer="g97" /><g
     id="g97"
     inkscape:groupmode="layer"
     inkscape:label="Xerox Scan_16062021152638"
     transform="matrix(1.3333333,0,0,-1.3333333,0,1123.2)"><g
       id="g1696"
       inkscape:label="recto"
       style="display:inline;opacity:1"><path
         inkscape:label="carte"
         inkscape:connector-curvature="0"
         id="rect125"
         d="M 357.88624,525.34431 V 356.06404 h 134.625 v 169.28027 z m 128.09619,-1.3667 a 4.1234841,4.1234841 0 0 0 4.12354,-4.12354 4.1234841,4.1234841 0 0 0 -4.12354,-4.12353 4.1234841,4.1234841 0 0 0 -4.12353,4.12353 4.1234841,4.1234841 0 0 0 4.12353,4.12354 z m -121.76513,-0.0498 a 4.3319616,4.3319616 0 0 0 4.333,-4.33154 4.3319616,4.3319616 0 0 0 -4.333,-4.33302 4.3319616,4.3319616 0 0 0 -4.33155,4.33302 4.3319616,4.3319616 0 0 0 4.33155,4.33154 z M 485.80519,366.22712 a 4.2070017,4.2070017 0 0 0 4.20703,-4.20703 4.2070017,4.2070017 0 0 0 -4.20703,-4.20703 4.2070017,4.2070017 0 0 0 -4.20703,4.20703 4.2070017,4.2070017 0 0 0 4.20703,4.20703 z m -121.54541,-0.16553 a 3.9570806,3.9570806 0 0 0 3.95654,-3.95801 3.9570806,3.9570806 0 0 0 -3.95654,-3.95654 3.9570806,3.9570806 0 0 0 -3.95655,3.95654 3.9570806,3.9570806 0 0 0 3.95655,3.95801 z"
         style="display:inline;opacity:1;fill:#005253;fill-opacity:1;fill-rule:nonzero;stroke:none;stroke-width:2.45885563;stroke-linejoin:round;stroke-miterlimit:4;stroke-dasharray:none;stroke-opacity:1" /><g
         inkscape:label="rondelle (carrées)"
         id="g1019"><path
           style="opacity:1;fill:#eeb204;fill-opacity:1;fill-rule:nonzero;stroke:none;stroke-width:3.30999994;stroke-linejoin:round;stroke-miterlimit:4;stroke-dasharray:none;stroke-opacity:1"
           d="m 477.14648,631.58398 v 17.0625 h 17.48633 v -17.0625 z m 8.53321,3.76954 a 4.9481807,4.9481807 0 0 1 4.94726,4.94726 4.9481807,4.9481807 0 0 1 -4.94726,4.94922 4.9481807,4.9481807 0 0 1 -4.94922,-4.94922 4.9481807,4.9481807 0 0 1 4.94922,-4.94726 z"
           transform="matrix(0.75000002,0,0,-0.75000002,0,842.40002)"
           id="rect139"
           inkscape:connector-curvature="0" /><path
           style="opacity:1;fill:#eeb204;fill-opacity:1;fill-rule:nonzero;stroke:none;stroke-width:3.30999994;stroke-linejoin:round;stroke-miterlimit:4;stroke-dasharray:none;stroke-opacity:1"
           d="m 638.98242,632.15234 v 16.57227 h 17.67188 v -16.57227 z m 8.71875,3.76954 a 4.9481807,4.9481807 0 0 1 4.94727,4.94726 4.9481807,4.9481807 0 0 1 -4.94727,4.94922 4.9481807,4.9481807 0 0 1 -4.94922,-4.94922 4.9481807,4.9481807 0 0 1 4.94922,-4.94726 z"
           transform="matrix(0.75000002,0,0,-0.75000002,0,842.40002)"
           id="rect139-3"
           inkscape:connector-curvature="0" /><path
           style="opacity:1;fill:#eeb204;fill-opacity:1;fill-rule:nonzero;stroke:none;stroke-width:3.2878592;stroke-linejoin:round;stroke-miterlimit:4;stroke-dasharray:none;stroke-opacity:1"
           d="m 639.29492,422.91406 v 16.65039 h 17.4375 v -16.65039 z m 8.60352,2.66992 a 4.8822041,4.9481807 0 0 1 4.88086,4.94727 4.8822041,4.9481807 0 0 1 -4.88086,4.94922 4.8822041,4.9481807 0 0 1 -4.88282,-4.94922 4.8822041,4.9481807 0 0 1 4.88282,-4.94727 z"
           transform="matrix(0.75000002,0,0,-0.75000002,0,842.40002)"
           id="rect139-6"
           inkscape:connector-curvature="0" /><path
           style="opacity:1;fill:#eeb204;fill-opacity:1;fill-rule:nonzero;stroke:none;stroke-width:2.41072011;stroke-linejoin:round;stroke-miterlimit:4;stroke-dasharray:none;stroke-opacity:1"
           d="m 357.88624,525.16759 v -12.72343 h 13.07719 v 12.72343 z m 6.45187,-2.70205 a 3.6616532,3.5469203 0 0 0 3.66098,-3.54627 3.6616532,3.5469203 0 0 0 -3.66098,-3.54766 3.6616532,3.5469203 0 0 0 -3.66242,3.54766 3.6616532,3.5469203 0 0 0 3.66242,3.54627 z"
           id="rect139-7"
           inkscape:connector-curvature="0" /></g><g
         inkscape:label="points"
         id="g1024"><circle
           style="opacity:1;fill:#eeb204;fill-opacity:1;fill-rule:nonzero;stroke:none;stroke-width:2.48250008;stroke-linejoin:round;stroke-miterlimit:4;stroke-dasharray:none;stroke-opacity:1"
           id="path992"
           cx="377.00427"
           cy="-364.22147"
           r="1.6493937"
           transform="scale(1,-1)" /><circle
           style="opacity:1;fill:#eeb204;fill-opacity:1;fill-rule:nonzero;stroke:none;stroke-width:2.48250008;stroke-linejoin:round;stroke-miterlimit:4;stroke-dasharray:none;stroke-opacity:1"
           id="path992-5"
           cx="488.6918"
           cy="-506.77625"
           r="1.6493937"
           transform="scale(1,-1)" /><circle
           style="opacity:1;fill:#eeb204;fill-opacity:1;fill-rule:nonzero;stroke:none;stroke-width:2.48250008;stroke-linejoin:round;stroke-miterlimit:4;stroke-dasharray:none;stroke-opacity:1"
           id="path992-3"
           cx="362.6015"
           cy="-504.95013"
           r="1.6493937"
           transform="scale(1,-1)" /></g><g
         inkscape:label="gros composants"
         id="g1051"><rect
           style="opacity:1;fill:#17171d;fill-opacity:1;fill-rule:nonzero;stroke:none;stroke-width:4.74897385;stroke-linejoin:round;stroke-miterlimit:4;stroke-dasharray:none;stroke-opacity:1"
           id="rect1026"
           width="25.325317"
           height="36.071915"
           x="440.69382"
           y="-483.51361"
           transform="scale(1,-1)" /><rect
           style="opacity:1;fill:#0b101b;fill-opacity:1;fill-rule:nonzero;stroke:none;stroke-width:6.24966526;stroke-linejoin:round;stroke-miterlimit:4;stroke-dasharray:none;stroke-opacity:1"
           id="rect1028"
           width="38.65443"
           height="38.487816"
           x="386.12778"
           y="-486.09616"
           transform="scale(1,-1)" /><rect
           style="opacity:1;fill:#232430;fill-opacity:1;fill-rule:nonzero;stroke:none;stroke-width:2.48250008;stroke-linejoin:round;stroke-miterlimit:4;stroke-dasharray:none;stroke-opacity:1"
           id="rect1030"
           width="36.655064"
           height="36.571758"
           x="428.94754"
           y="-436.27859"
           transform="scale(1,-1)" /><rect
           style="opacity:1;fill:#1c1b26;fill-opacity:1;fill-rule:nonzero;stroke:none;stroke-width:3.77199841;stroke-linejoin:round;stroke-miterlimit:4;stroke-dasharray:none;stroke-opacity:1"
           id="rect1032"
           width="32.406406"
           height="36.40514"
           x="392.54242"
           y="-436.5285"
           transform="scale(1,-1)" /></g><g
         inkscape:label="moyens composants"
         id="g1276"><g
           id="g1117"><rect
             transform="scale(1,-1)"
             y="-518.37463"
             x="445.85886"
             height="17.547447"
             width="2.082674"
             id="rect1055"
             style="opacity:1;fill:#8e9895;fill-opacity:1;fill-rule:nonzero;stroke:none;stroke-width:2.44582701;stroke-linejoin:round;stroke-miterlimit:4;stroke-dasharray:none;stroke-opacity:1" /><rect
             transform="scale(1,-1)"
             y="-518.32288"
             x="449.4827"
             height="17.606354"
             width="2.082674"
             id="rect1055-5"
             style="opacity:1;fill:#8e9895;fill-opacity:1;fill-rule:nonzero;stroke:none;stroke-width:2.449929;stroke-linejoin:round;stroke-miterlimit:4;stroke-dasharray:none;stroke-opacity:1" /><rect
             transform="scale(1,-1)"
             y="-518.27405"
             x="453.14819"
             height="17.488541"
             width="2.082674"
             id="rect1055-6"
             style="opacity:1;fill:#8e9895;fill-opacity:1;fill-rule:nonzero;stroke:none;stroke-width:2.44171834;stroke-linejoin:round;stroke-miterlimit:4;stroke-dasharray:none;stroke-opacity:1" /><rect
             transform="scale(1,-1)"
             y="-518.21515"
             x="456.98035"
             height="17.370728"
             width="2.082674"
             id="rect1055-2"
             style="opacity:1;fill:#8e9895;fill-opacity:1;fill-rule:nonzero;stroke:none;stroke-width:2.43347979;stroke-linejoin:round;stroke-miterlimit:4;stroke-dasharray:none;stroke-opacity:1" /><rect
             inkscape:transform-center-y="-0.32128735"
             inkscape:transform-center-x="1.5550633"
             transform="scale(1,-1)"
             y="-518.15625"
             x="460.47922"
             height="17.429634"
             width="2.082674"
             id="rect1055-9"
             style="opacity:1;fill:#8e9895;fill-opacity:1;fill-rule:nonzero;stroke:none;stroke-width:2.43760276;stroke-linejoin:round;stroke-miterlimit:4;stroke-dasharray:none;stroke-opacity:1" /><rect
             inkscape:transform-center-y="0.63826189"
             inkscape:transform-center-x="-0.6664557"
             transform="scale(1,-1)"
             y="-518.30853"
             x="464.06143"
             height="17.311819"
             width="2.082674"
             id="rect1055-1"
             style="opacity:1;fill:#8e9895;fill-opacity:1;fill-rule:nonzero;stroke:none;stroke-width:2.42935014;stroke-linejoin:round;stroke-miterlimit:4;stroke-dasharray:none;stroke-opacity:1" /><rect
             transform="scale(1,-1)"
             y="-518.29431"
             x="467.39371"
             height="17.252913"
             width="2.082674"
             id="rect1055-27"
             style="opacity:1;fill:#8e9895;fill-opacity:1;fill-rule:nonzero;stroke:none;stroke-width:2.42521358;stroke-linejoin:round;stroke-miterlimit:4;stroke-dasharray:none;stroke-opacity:1" /><rect
             transform="scale(1,-1)"
             y="-518.1908"
             x="470.89261"
             height="17.194006"
             width="2.082674"
             id="rect1055-0"
             style="opacity:1;fill:#8e9895;fill-opacity:1;fill-rule:nonzero;stroke:none;stroke-width:2.42106962;stroke-linejoin:round;stroke-miterlimit:4;stroke-dasharray:none;stroke-opacity:1" /><rect
             transform="scale(1,-1)"
             y="-514.50385"
             x="445.77554"
             height="8.6639242"
             width="27.40799"
             id="rect1053"
             style="opacity:1;fill:#221d2b;fill-opacity:1;fill-rule:nonzero;stroke:none;stroke-width:3.85299587;stroke-linejoin:round;stroke-miterlimit:4;stroke-dasharray:none;stroke-opacity:1" /></g><g
           id="g1148"><rect
             transform="scale(1,-1)"
             y="-517.73291"
             x="410.69901"
             height="13.548591"
             width="13.312963"
             id="rect1119"
             style="opacity:1;fill:#33333b;fill-opacity:1;fill-rule:nonzero;stroke:none;stroke-width:2.31167769;stroke-linejoin:round;stroke-miterlimit:4;stroke-dasharray:none;stroke-opacity:1" /><rect
             transform="scale(1,-1)"
             y="-516.49585"
             x="409.7565"
             height="11.486847"
             width="0.9425106"
             id="rect1121"
             style="opacity:1;fill:#94a3ae;fill-opacity:1;fill-rule:nonzero;stroke:none;stroke-width:0.59103274;stroke-linejoin:round;stroke-miterlimit:4;stroke-dasharray:none;stroke-opacity:1" /><rect
             transform="scale(1,-1)"
             y="-516.52533"
             x="424.01199"
             height="11.486847"
             width="0.94251055"
             id="rect1121-9"
             style="opacity:1;fill:#94a3ae;fill-opacity:1;fill-rule:nonzero;stroke:none;stroke-width:0.59103274;stroke-linejoin:round;stroke-miterlimit:4;stroke-dasharray:none;stroke-opacity:1" /><rect
             transform="matrix(0,-1,-1,0,0,0)"
             y="-423.04004"
             x="-504.18433"
             height="11.486847"
             width="0.94251055"
             id="rect1121-3"
             style="opacity:1;fill:#94a3ae;fill-opacity:1;fill-rule:nonzero;stroke:none;stroke-width:0.59103274;stroke-linejoin:round;stroke-miterlimit:4;stroke-dasharray:none;stroke-opacity:1" /></g></g><g
         inkscape:label="composants"
         id="g1607"><g
           id="g1228"><rect
             transform="scale(1,-1)"
             y="-490.21985"
             x="397.79074"
             height="2.7491295"
             width="6.3313293"
             id="rect1188"
             style="opacity:1;fill:#beb7b4;fill-opacity:1;fill-rule:nonzero;stroke:none;stroke-width:1.06205058;stroke-linejoin:round;stroke-miterlimit:4;stroke-dasharray:none;stroke-opacity:1" /><rect
             transform="scale(1,-1)"
             y="-497.00937"
             x="397.91568"
             height="2.7491295"
             width="6.3313293"
             id="rect1188-6"
             style="opacity:1;fill:#beb7b4;fill-opacity:1;fill-rule:nonzero;stroke:none;stroke-width:1.06205058;stroke-linejoin:round;stroke-miterlimit:4;stroke-dasharray:none;stroke-opacity:1" /><rect
             transform="scale(1,-1)"
             y="-496.96771"
             x="398.87375"
             height="9.4970293"
             width="5.2483215"
             id="rect1188-0"
             style="opacity:1;fill:url(#meshgradient1211);fill-opacity:1;fill-rule:nonzero;stroke:none;stroke-width:1.79723239;stroke-linejoin:round;stroke-miterlimit:4;stroke-dasharray:none;stroke-opacity:1" /></g><g
           id="g1259"><rect
             transform="scale(1,-1)"
             y="-520.44263"
             x="391.78992"
             height="1.1192315"
             width="10.779965"
             id="rect1232"
             style="opacity:1;fill:#eaf4ef;fill-opacity:1;fill-rule:nonzero;stroke:none;stroke-width:2.98803711;stroke-linejoin:round;stroke-miterlimit:4;stroke-dasharray:none;stroke-opacity:1" /><rect
             transform="scale(1,-1)"
             y="-517.64459"
             x="391.87827"
             height="1.1192315"
             width="10.779965"
             id="rect1232-6"
             style="opacity:1;fill:#eaf4ef;fill-opacity:1;fill-rule:nonzero;stroke:none;stroke-width:2.98803711;stroke-linejoin:round;stroke-miterlimit:4;stroke-dasharray:none;stroke-opacity:1" /><rect
             transform="scale(1,-1)"
             y="-515.05267"
             x="392.05499"
             height="1.1192315"
             width="10.779965"
             id="rect1232-2"
             style="opacity:1;fill:#eaf4ef;fill-opacity:1;fill-rule:nonzero;stroke:none;stroke-width:2.98803711;stroke-linejoin:round;stroke-miterlimit:4;stroke-dasharray:none;stroke-opacity:1" /><rect
             transform="scale(1,-1)"
             y="-521.20844"
             x="395.02979"
             height="7.8935275"
             width="4.3591113"
             id="rect1230"
             style="opacity:1;fill:#0a0e13;fill-opacity:1;fill-rule:nonzero;stroke:none;stroke-width:1.52526045;stroke-linejoin:round;stroke-miterlimit:4;stroke-dasharray:none;stroke-opacity:1" /></g><g
           transform="translate(29.17364,-131.06788)"
           id="g1259-6"><rect
             transform="scale(1,-1)"
             y="-520.44263"
             x="391.78992"
             height="1.1192315"
             width="10.779965"
             id="rect1232-1"
             style="opacity:1;fill:#eaf4ef;fill-opacity:1;fill-rule:nonzero;stroke:none;stroke-width:2.98803711;stroke-linejoin:round;stroke-miterlimit:4;stroke-dasharray:none;stroke-opacity:1" /><rect
             transform="scale(1,-1)"
             y="-517.64459"
             x="391.87827"
             height="1.1192315"
             width="10.779965"
             id="rect1232-6-8"
             style="opacity:1;fill:#eaf4ef;fill-opacity:1;fill-rule:nonzero;stroke:none;stroke-width:2.98803711;stroke-linejoin:round;stroke-miterlimit:4;stroke-dasharray:none;stroke-opacity:1" /><rect
             transform="scale(1,-1)"
             y="-515.05267"
             x="392.05499"
             height="1.1192315"
             width="10.779965"
             id="rect1232-2-7"
             style="opacity:1;fill:#eaf4ef;fill-opacity:1;fill-rule:nonzero;stroke:none;stroke-width:2.98803711;stroke-linejoin:round;stroke-miterlimit:4;stroke-dasharray:none;stroke-opacity:1" /><rect
             transform="scale(1,-1)"
             y="-521.20844"
             x="395.02979"
             height="7.8935275"
             width="4.3591113"
             id="rect1230-9"
             style="opacity:1;fill:#0a0e13;fill-opacity:1;fill-rule:nonzero;stroke:none;stroke-width:1.52526045;stroke-linejoin:round;stroke-miterlimit:4;stroke-dasharray:none;stroke-opacity:1" /></g><g
           id="g1340"><rect
             transform="scale(1,-1)"
             y="-397.44501"
             x="432.84802"
             height="5.5961571"
             width="2.8275318"
             id="rect1305"
             style="opacity:1;fill:#3d3b43;fill-opacity:1;fill-rule:nonzero;stroke:none;stroke-width:1.36902988;stroke-linejoin:round;stroke-miterlimit:4;stroke-dasharray:none;stroke-opacity:1" /><rect
             transform="scale(1,-1)"
             y="-397.44501"
             x="435.67557"
             height="5.5961571"
             width="2.8275318"
             id="rect1305-2"
             style="opacity:1;fill:#bdb9bd;fill-opacity:1;fill-rule:nonzero;stroke:none;stroke-width:1.36902988;stroke-linejoin:round;stroke-miterlimit:4;stroke-dasharray:none;stroke-opacity:1" /><rect
             transform="scale(1,-1)"
             y="-397.44501"
             x="430.02048"
             height="5.5961571"
             width="2.8275318"
             id="rect1305-2-0"
             style="opacity:1;fill:#bdb9bd;fill-opacity:1;fill-rule:nonzero;stroke:none;stroke-width:1.36902988;stroke-linejoin:round;stroke-miterlimit:4;stroke-dasharray:none;stroke-opacity:1" /></g><g
           transform="translate(-43.802064,113.60887)"
           id="g1340-2"><rect
             transform="scale(1,-1)"
             y="-397.44501"
             x="432.84802"
             height="5.5961571"
             width="2.8275318"
             id="rect1305-3"
             style="opacity:1;fill:#3d3b43;fill-opacity:1;fill-rule:nonzero;stroke:none;stroke-width:1.36902988;stroke-linejoin:round;stroke-miterlimit:4;stroke-dasharray:none;stroke-opacity:1" /><rect
             transform="scale(1,-1)"
             y="-397.44501"
             x="435.67557"
             height="5.5961571"
             width="2.8275318"
             id="rect1305-2-7"
             style="opacity:1;fill:#bdb9bd;fill-opacity:1;fill-rule:nonzero;stroke:none;stroke-width:1.36902988;stroke-linejoin:round;stroke-miterlimit:4;stroke-dasharray:none;stroke-opacity:1" /><rect
             transform="scale(1,-1)"
             y="-397.44501"
             x="430.02048"
             height="5.5961571"
             width="2.8275318"
             id="rect1305-2-0-5"
             style="opacity:1;fill:#bdb9bd;fill-opacity:1;fill-rule:nonzero;stroke:none;stroke-width:1.36902988;stroke-linejoin:round;stroke-miterlimit:4;stroke-dasharray:none;stroke-opacity:1" /></g><g
           id="g1401"
           transform="matrix(1,0,0,0.75000003,0,128.98406)"><rect
             transform="scale(1,-1)"
             y="-516.40753"
             x="385.60468"
             height="2.8275323"
             width="3.2693338"
             id="rect1366"
             style="opacity:1;fill:#9c8c7c;fill-opacity:1;fill-rule:nonzero;stroke:none;stroke-width:2.79075098;stroke-linejoin:round;stroke-miterlimit:4;stroke-dasharray:none;stroke-opacity:1" /><rect
             transform="scale(1,-1)"
             y="-516.40753"
             x="388.87402"
             height="2.8275323"
             width="1.5904866"
             id="rect1366-9"
             style="opacity:1;fill:#b8bfc5;fill-opacity:1;fill-rule:nonzero;stroke:none;stroke-width:1.94650924;stroke-linejoin:round;stroke-miterlimit:4;stroke-dasharray:none;stroke-opacity:1" /><rect
             transform="scale(1,-1)"
             y="-516.40753"
             x="383.92584"
             height="2.8275323"
             width="1.6788471"
             id="rect1366-9-2"
             style="opacity:1;fill:#b8bfc5;fill-opacity:1;fill-rule:nonzero;stroke:none;stroke-width:1.99984813;stroke-linejoin:round;stroke-miterlimit:4;stroke-dasharray:none;stroke-opacity:1" /></g><g
           transform="matrix(1,0,0,0.75000003,12.429348,123.62352)"
           id="g1401-2"><rect
             transform="scale(1,-1)"
             y="-516.40753"
             x="385.60468"
             height="2.8275323"
             width="3.2693338"
             id="rect1366-8"
             style="opacity:1;fill:#9c8c7c;fill-opacity:1;fill-rule:nonzero;stroke:none;stroke-width:2.79075098;stroke-linejoin:round;stroke-miterlimit:4;stroke-dasharray:none;stroke-opacity:1" /><rect
             transform="scale(1,-1)"
             y="-516.40753"
             x="388.87402"
             height="2.8275323"
             width="1.5904866"
             id="rect1366-9-9"
             style="opacity:1;fill:#b8bfc5;fill-opacity:1;fill-rule:nonzero;stroke:none;stroke-width:1.94650924;stroke-linejoin:round;stroke-miterlimit:4;stroke-dasharray:none;stroke-opacity:1" /><rect
             transform="scale(1,-1)"
             y="-516.40753"
             x="383.92584"
             height="2.8275323"
             width="1.6788471"
             id="rect1366-9-2-7"
             style="opacity:1;fill:#b8bfc5;fill-opacity:1;fill-rule:nonzero;stroke:none;stroke-width:1.99984813;stroke-linejoin:round;stroke-miterlimit:4;stroke-dasharray:none;stroke-opacity:1" /></g><g
           transform="matrix(1,0,0,0.79166669,46.00629,94.949349)"
           id="g1401-3"><rect
             transform="scale(1,-1)"
             y="-516.40753"
             x="385.60468"
             height="2.8275323"
             width="3.2693338"
             id="rect1366-6"
             style="opacity:1;fill:#9c8c7c;fill-opacity:1;fill-rule:nonzero;stroke:none;stroke-width:2.79075098;stroke-linejoin:round;stroke-miterlimit:4;stroke-dasharray:none;stroke-opacity:1" /><rect
             transform="scale(1,-1)"
             y="-516.40753"
             x="388.87402"
             height="2.8275323"
             width="1.5904866"
             id="rect1366-9-1"
             style="opacity:1;fill:#b8bfc5;fill-opacity:1;fill-rule:nonzero;stroke:none;stroke-width:1.94650924;stroke-linejoin:round;stroke-miterlimit:4;stroke-dasharray:none;stroke-opacity:1" /><rect
             transform="scale(1,-1)"
             y="-516.40753"
             x="383.92584"
             height="2.8275323"
             width="1.6788471"
             id="rect1366-9-2-2"
             style="opacity:1;fill:#b8bfc5;fill-opacity:1;fill-rule:nonzero;stroke:none;stroke-width:1.99984813;stroke-linejoin:round;stroke-miterlimit:4;stroke-dasharray:none;stroke-opacity:1" /></g><g
           transform="matrix(0,-1,0.79166672,0,25.380227,899.33194)"
           id="g1401-3-9"><rect
             transform="scale(1,-1)"
             y="-516.40753"
             x="385.60468"
             height="2.8275323"
             width="3.2693338"
             id="rect1366-6-3"
             style="opacity:1;fill:#262936;fill-opacity:1;fill-rule:nonzero;stroke:none;stroke-width:2.79075098;stroke-linejoin:round;stroke-miterlimit:4;stroke-dasharray:none;stroke-opacity:1" /><rect
             transform="scale(1,-1)"
             y="-516.40753"
             x="388.87402"
             height="2.8275323"
             width="1.5904866"
             id="rect1366-9-1-1"
             style="opacity:1;fill:#b8bfc5;fill-opacity:1;fill-rule:nonzero;stroke:none;stroke-width:1.94650924;stroke-linejoin:round;stroke-miterlimit:4;stroke-dasharray:none;stroke-opacity:1" /><rect
             transform="scale(1,-1)"
             y="-516.40753"
             x="383.92584"
             height="2.8275323"
             width="1.6788471"
             id="rect1366-9-2-2-9"
             style="opacity:1;fill:#b8bfc5;fill-opacity:1;fill-rule:nonzero;stroke:none;stroke-width:1.99984813;stroke-linejoin:round;stroke-miterlimit:4;stroke-dasharray:none;stroke-opacity:1" /></g><g
           transform="matrix(1,0,0,0.79166672,37.920244,-14.744455)"
           id="g1401-3-4"><rect
             transform="scale(1,-1)"
             y="-516.40753"
             x="385.60468"
             height="2.8275323"
             width="3.2693338"
             id="rect1366-6-7"
             style="opacity:1;fill:#9c8c7c;fill-opacity:1;fill-rule:nonzero;stroke:none;stroke-width:2.79075098;stroke-linejoin:round;stroke-miterlimit:4;stroke-dasharray:none;stroke-opacity:1" /><rect
             transform="scale(1,-1)"
             y="-516.40753"
             x="388.87402"
             height="2.8275323"
             width="1.5904866"
             id="rect1366-9-1-8"
             style="opacity:1;fill:#b8bfc5;fill-opacity:1;fill-rule:nonzero;stroke:none;stroke-width:1.94650924;stroke-linejoin:round;stroke-miterlimit:4;stroke-dasharray:none;stroke-opacity:1" /><rect
             transform="scale(1,-1)"
             y="-516.40753"
             x="383.92584"
             height="2.8275323"
             width="1.6788471"
             id="rect1366-9-2-2-4"
             style="opacity:1;fill:#b8bfc5;fill-opacity:1;fill-rule:nonzero;stroke:none;stroke-width:1.99984813;stroke-linejoin:round;stroke-miterlimit:4;stroke-dasharray:none;stroke-opacity:1" /></g><g
           transform="matrix(1,0,0,0.79166672,48.750149,-20.159408)"
           id="g1401-3-5"><rect
             transform="scale(1,-1)"
             y="-516.40753"
             x="385.60468"
             height="2.8275323"
             width="3.2693338"
             id="rect1366-6-0"
             style="opacity:1;fill:#9c8c7c;fill-opacity:1;fill-rule:nonzero;stroke:none;stroke-width:2.79075098;stroke-linejoin:round;stroke-miterlimit:4;stroke-dasharray:none;stroke-opacity:1" /><rect
             transform="scale(1,-1)"
             y="-516.40753"
             x="388.87402"
             height="2.8275323"
             width="1.5904866"
             id="rect1366-9-1-3"
             style="opacity:1;fill:#b8bfc5;fill-opacity:1;fill-rule:nonzero;stroke:none;stroke-width:1.94650924;stroke-linejoin:round;stroke-miterlimit:4;stroke-dasharray:none;stroke-opacity:1" /><rect
             transform="scale(1,-1)"
             y="-516.40753"
             x="383.92584"
             height="2.8275323"
             width="1.6788471"
             id="rect1366-9-2-2-6"
             style="opacity:1;fill:#b8bfc5;fill-opacity:1;fill-rule:nonzero;stroke:none;stroke-width:1.99984813;stroke-linejoin:round;stroke-miterlimit:4;stroke-dasharray:none;stroke-opacity:1" /></g><g
           id="g1523"><rect
             transform="scale(1,-1)"
             y="-485.09647"
             x="376.88071"
             height="2.0826743"
             width="7.4143195"
             id="rect1487"
             style="opacity:1;fill:#a3b7be;fill-opacity:1;fill-rule:nonzero;stroke:none;stroke-width:1.66269839;stroke-linejoin:round;stroke-miterlimit:4;stroke-dasharray:none;stroke-opacity:1" /><rect
             transform="scale(1,-1)"
             y="-480.88947"
             x="376.67242"
             height="2.0826743"
             width="7.4143195"
             id="rect1487-1"
             style="opacity:1;fill:#a3b7be;fill-opacity:1;fill-rule:nonzero;stroke:none;stroke-width:1.66269839;stroke-linejoin:round;stroke-miterlimit:4;stroke-dasharray:none;stroke-opacity:1" /><rect
             transform="scale(1,-1)"
             y="-485.17978"
             x="377.40137"
             height="6.3313112"
             width="4.7693291"
             id="rect1504"
             style="opacity:1;fill:url(#meshgradient1506);fill-opacity:1;fill-rule:nonzero;stroke:none;stroke-width:1.30504632;stroke-linejoin:round;stroke-miterlimit:4;stroke-dasharray:none;stroke-opacity:1" /></g><g
           transform="rotate(62.169151,453.78643,456.32955)"
           id="g1259-6-0"><rect
             transform="scale(1,-1)"
             y="-520.44263"
             x="392.79132"
             height="1.1192315"
             width="7.7168059"
             id="rect1232-1-6"
             style="opacity:1;fill:#eaf4ef;fill-opacity:1;fill-rule:nonzero;stroke:none;stroke-width:2.52811074;stroke-linejoin:round;stroke-miterlimit:4;stroke-dasharray:none;stroke-opacity:1" /><rect
             transform="scale(1,-1)"
             y="-517.64459"
             x="392.82077"
             height="1.1192315"
             width="7.7168055"
             id="rect1232-6-8-3"
             style="opacity:1;fill:#eaf4ef;fill-opacity:1;fill-rule:nonzero;stroke:none;stroke-width:2.52811074;stroke-linejoin:round;stroke-miterlimit:4;stroke-dasharray:none;stroke-opacity:1" /><rect
             transform="scale(1,-1)"
             y="-515.05267"
             x="392.8797"
             height="1.1192315"
             width="7.5989923"
             id="rect1232-2-7-2"
             style="opacity:1;fill:#eaf4ef;fill-opacity:1;fill-rule:nonzero;stroke:none;stroke-width:2.50873804;stroke-linejoin:round;stroke-miterlimit:4;stroke-dasharray:none;stroke-opacity:1" /><rect
             transform="scale(1,-1)"
             y="-521.20844"
             x="395.02979"
             height="7.8935275"
             width="4.3591113"
             id="rect1230-9-0"
             style="opacity:1;fill:#0a0e13;fill-opacity:1;fill-rule:nonzero;stroke:none;stroke-width:1.52526045;stroke-linejoin:round;stroke-miterlimit:4;stroke-dasharray:none;stroke-opacity:1" /></g></g></g><g
       id="g4247"
       inkscape:label="verso"
       style="opacity:1"><path
         inkscape:label="carte"
         inkscape:connector-curvature="0"
         id="rect125-1"
         d="M 138.61645,351.78463 V 521.0649 h 134.625 V 351.78463 Z m 128.09619,1.3667 a 4.1234841,4.1234841 0 0 1 4.12354,4.12354 4.1234841,4.1234841 0 0 1 -4.12354,4.12353 4.1234841,4.1234841 0 0 1 -4.12353,-4.12353 4.1234841,4.1234841 0 0 1 4.12353,-4.12354 z m -121.76513,0.0498 a 4.3319616,4.3319616 0 0 1 4.333,4.33154 4.3319616,4.3319616 0 0 1 -4.333,4.33302 4.3319616,4.3319616 0 0 1 -4.33155,-4.33302 4.3319616,4.3319616 0 0 1 4.33155,-4.33154 z M 266.5354,510.90182 a 4.2070017,4.2070017 0 0 1 4.20703,4.20703 4.2070017,4.2070017 0 0 1 -4.20703,4.20703 4.2070017,4.2070017 0 0 1 -4.20703,-4.20703 4.2070017,4.2070017 0 0 1 4.20703,-4.20703 z m -121.54541,0.16553 a 3.9570806,3.9570806 0 0 1 3.95654,3.95801 3.9570806,3.9570806 0 0 1 -3.95654,3.95654 3.9570806,3.9570806 0 0 1 -3.95655,-3.95654 3.9570806,3.9570806 0 0 1 3.95655,-3.95801 z"
         style="display:inline;opacity:1;fill:#005253;fill-opacity:1;fill-rule:nonzero;stroke:none;stroke-width:2.45885563;stroke-linejoin:round;stroke-miterlimit:4;stroke-dasharray:none;stroke-opacity:1" /><g
         transform="matrix(1,0,0,-1,-219.26979,877.12894)"
         inkscape:label="rondelle (carrées)"
         id="g1019-5"><path
           style="opacity:1;fill:#eeb204;fill-opacity:1;fill-rule:nonzero;stroke:none;stroke-width:3.30999994;stroke-linejoin:round;stroke-miterlimit:4;stroke-dasharray:none;stroke-opacity:1"
           d="m 477.14648,631.58398 v 17.0625 h 17.48633 v -17.0625 z m 8.53321,3.76954 a 4.9481807,4.9481807 0 0 1 4.94726,4.94726 4.9481807,4.9481807 0 0 1 -4.94726,4.94922 4.9481807,4.9481807 0 0 1 -4.94922,-4.94922 4.9481807,4.9481807 0 0 1 4.94922,-4.94726 z"
           transform="matrix(0.75000002,0,0,-0.75000002,0,842.40002)"
           id="rect139-5"
           inkscape:connector-curvature="0" /><path
           style="opacity:1;fill:#eeb204;fill-opacity:1;fill-rule:nonzero;stroke:none;stroke-width:3.30999994;stroke-linejoin:round;stroke-miterlimit:4;stroke-dasharray:none;stroke-opacity:1"
           d="m 638.98242,632.15234 v 16.57227 h 17.67188 v -16.57227 z m 8.71875,3.76954 a 4.9481807,4.9481807 0 0 1 4.94727,4.94726 4.9481807,4.9481807 0 0 1 -4.94727,4.94922 4.9481807,4.9481807 0 0 1 -4.94922,-4.94922 4.9481807,4.9481807 0 0 1 4.94922,-4.94726 z"
           transform="matrix(0.75000002,0,0,-0.75000002,0,842.40002)"
           id="rect139-3-4"
           inkscape:connector-curvature="0" /><path
           style="opacity:1;fill:#eeb204;fill-opacity:1;fill-rule:nonzero;stroke:none;stroke-width:3.2878592;stroke-linejoin:round;stroke-miterlimit:4;stroke-dasharray:none;stroke-opacity:1"
           d="m 639.29492,422.91406 v 16.65039 h 17.4375 v -16.65039 z m 8.60352,2.66992 a 4.8822041,4.9481807 0 0 1 4.88086,4.94727 4.8822041,4.9481807 0 0 1 -4.88086,4.94922 4.8822041,4.9481807 0 0 1 -4.88282,-4.94922 4.8822041,4.9481807 0 0 1 4.88282,-4.94727 z"
           transform="matrix(0.75000002,0,0,-0.75000002,0,842.40002)"
           id="rect139-6-7"
           inkscape:connector-curvature="0" /><path
           style="opacity:1;fill:#eeb204;fill-opacity:1;fill-rule:nonzero;stroke:none;stroke-width:2.41072011;stroke-linejoin:round;stroke-miterlimit:4;stroke-dasharray:none;stroke-opacity:1"
           d="m 357.88624,525.16759 v -12.72343 h 13.07719 v 12.72343 z m 6.45187,-2.70205 a 3.6616532,3.5469203 0 0 0 3.66098,-3.54627 3.6616532,3.5469203 0 0 0 -3.66098,-3.54766 3.6616532,3.5469203 0 0 0 -3.66242,3.54766 3.6616532,3.5469203 0 0 0 3.66242,3.54627 z"
           id="rect139-7-6"
           inkscape:connector-curvature="0" /></g><g
         transform="matrix(1,0,0,-1,-219.26979,877.12894)"
         inkscape:label="points"
         id="g1024-5"><circle
           style="opacity:1;fill:#eeb204;fill-opacity:1;fill-rule:nonzero;stroke:none;stroke-width:2.48250008;stroke-linejoin:round;stroke-miterlimit:4;stroke-dasharray:none;stroke-opacity:1"
           id="path992-6"
           cx="377.00427"
           cy="-364.22147"
           r="1.6493937"
           transform="scale(1,-1)" /><circle
           style="opacity:1;fill:#eeb204;fill-opacity:1;fill-rule:nonzero;stroke:none;stroke-width:2.48250008;stroke-linejoin:round;stroke-miterlimit:4;stroke-dasharray:none;stroke-opacity:1"
           id="path992-5-9"
           cx="488.6918"
           cy="-506.77625"
           r="1.6493937"
           transform="scale(1,-1)" /><circle
           style="opacity:1;fill:#eeb204;fill-opacity:1;fill-rule:nonzero;stroke:none;stroke-width:2.48250008;stroke-linejoin:round;stroke-miterlimit:4;stroke-dasharray:none;stroke-opacity:1"
           id="path992-3-3"
           cx="362.6015"
           cy="-504.95013"
           r="1.6493937"
           transform="scale(1,-1)" /></g><g
         inkscape:label="connecteur droit"
         id="g1933-1-3"
         transform="matrix(0.63896627,0,0,-0.64852785,-85.192168,989.87659)"><path
           inkscape:connector-curvature="0"
           style="opacity:1;fill:#e4e3bb;fill-opacity:1;fill-rule:nonzero;stroke:none;stroke-width:1.81309426;stroke-miterlimit:4;stroke-dasharray:none;stroke-opacity:1"
           d="m 534.16406,760.36523 v 161.23829 h 3.1543 v -2.30079 h 5.70898 v 2.30079 h 2.04493 V 760.36523 h -2.04493 v 2.98438 h -6.13476 v -2.98438 z"
           id="rect1832-1-8" /><rect
           style="opacity:1;fill:#d0c08c;fill-opacity:1;fill-rule:nonzero;stroke:none;stroke-width:2.16393209;stroke-miterlimit:4;stroke-dasharray:none;stroke-opacity:1"
           id="rect1840-5-5"
           width="2.6418481"
           height="161.23798"
           x="545.07227"
           y="760.36554" /><rect
           style="opacity:1;fill:#fffde5;fill-opacity:1;fill-rule:nonzero;stroke:none;stroke-width:1.37328279;stroke-miterlimit:4;stroke-dasharray:none;stroke-opacity:1"
           id="rect1842-9-6"
           width="20.623463"
           height="11.07872"
           x="529.47754"
           y="749.2868" /><rect
           style="opacity:1;fill:#fffde5;fill-opacity:1;fill-rule:nonzero;stroke:none;stroke-width:2.37115526;stroke-miterlimit:4;stroke-dasharray:none;stroke-opacity:1"
           id="rect1844-8-1"
           width="2.386893"
           height="161.15324"
           x="547.71411"
           y="760.36554" /><rect
           style="opacity:1;fill:#fffde5;fill-opacity:1;fill-rule:nonzero;stroke:none;stroke-width:3.32300305;stroke-miterlimit:4;stroke-dasharray:none;stroke-opacity:1"
           id="rect1844-9-4-1"
           width="4.6878581"
           height="161.15324"
           x="529.47754"
           y="760.36554" /><rect
           style="opacity:1;fill:#fffde5;fill-opacity:1;fill-rule:nonzero;stroke:none;stroke-width:1.255;stroke-miterlimit:4;stroke-dasharray:none;stroke-opacity:1"
           id="rect1861-8-5"
           width="20.623459"
           height="3.6645141"
           x="529.47754"
           y="921.5188" /><rect
           style="opacity:1;fill:#fffde5;fill-opacity:1;fill-rule:nonzero;stroke:none;stroke-width:1.255;stroke-miterlimit:4;stroke-dasharray:none;stroke-opacity:1"
           id="rect1863-1-9"
           width="11.078719"
           height="5.6245804"
           x="533.909"
           y="923.90503" /><rect
           style="opacity:1;fill:#d0c08c;fill-opacity:1;fill-rule:nonzero;stroke:none;stroke-width:1.255;stroke-miterlimit:4;stroke-dasharray:none;stroke-opacity:1"
           id="rect1865-0-8"
           width="3.2384093"
           height="8.8629999"
           x="529.47754"
           y="925.18329" /><rect
           style="opacity:1;fill:#d0c08c;fill-opacity:1;fill-rule:nonzero;stroke:none;stroke-width:0.71283984;stroke-miterlimit:4;stroke-dasharray:none;stroke-opacity:1"
           id="rect1865-6-3-4"
           width="1.2783282"
           height="7.2438025"
           x="532.71594"
           y="925.18329" /><rect
           style="opacity:1;fill:#d0c08c;fill-opacity:1;fill-rule:nonzero;stroke:none;stroke-width:1.4449743;stroke-miterlimit:4;stroke-dasharray:none;stroke-opacity:1"
           id="rect1865-3-0-8"
           width="14.402349"
           height="2.6418731"
           x="533.909"
           y="929.5296" /><rect
           style="opacity:1;fill:#d0c08c;fill-opacity:1;fill-rule:nonzero;stroke:none;stroke-width:0.60486609;stroke-miterlimit:4;stroke-dasharray:none;stroke-opacity:1"
           id="rect1865-8-4-1"
           width="4.3462811"
           height="1.5340011"
           x="543.11285"
           y="932.17145" /><rect
           style="opacity:1;fill:#d0c08c;fill-opacity:1;fill-rule:nonzero;stroke:none;stroke-width:1.39729738;stroke-miterlimit:4;stroke-dasharray:none;stroke-opacity:1"
           id="rect1865-5-4-0"
           width="6.0506988"
           height="5.8802676"
           x="544.98773"
           y="923.90503" /><rect
           style="opacity:0.7;fill:#dee0db;fill-opacity:1;fill-rule:nonzero;stroke:none;stroke-width:2.01497221;stroke-miterlimit:4;stroke-dasharray:none;stroke-opacity:1"
           id="rect1902-4-3"
           width="4.9735513"
           height="155.61339"
           x="550.0636"
           y="763.60449" /><rect
           style="opacity:0.7;fill:#dee0db;fill-opacity:1;fill-rule:nonzero;stroke:none;stroke-width:2.02320266;stroke-miterlimit:4;stroke-dasharray:none;stroke-opacity:1"
           id="rect1902-6-4-0"
           width="5.0280333"
           height="155.18729"
           x="524.44958"
           y="764.11578" /></g><g
         inkscape:label="connecteur gauche"
         id="g1933-1-3-4"
         transform="matrix(-0.63896627,0,0,-0.64852785,497.16293,990.37018)"><path
           inkscape:connector-curvature="0"
           style="opacity:1;fill:#e4e3bb;fill-opacity:1;fill-rule:nonzero;stroke:none;stroke-width:1.81309426;stroke-miterlimit:4;stroke-dasharray:none;stroke-opacity:1"
           d="m 534.16406,760.36523 v 161.23829 h 3.1543 v -2.30079 h 5.70898 v 2.30079 h 2.04493 V 760.36523 h -2.04493 v 2.98438 h -6.13476 v -2.98438 z"
           id="rect1832-1-8-4" /><rect
           style="opacity:1;fill:#d0c08c;fill-opacity:1;fill-rule:nonzero;stroke:none;stroke-width:2.16393209;stroke-miterlimit:4;stroke-dasharray:none;stroke-opacity:1"
           id="rect1840-5-5-4"
           width="2.6418481"
           height="161.23798"
           x="545.07227"
           y="760.36554" /><rect
           style="opacity:1;fill:#fffde5;fill-opacity:1;fill-rule:nonzero;stroke:none;stroke-width:1.37328279;stroke-miterlimit:4;stroke-dasharray:none;stroke-opacity:1"
           id="rect1842-9-6-4"
           width="20.623463"
           height="11.07872"
           x="529.47754"
           y="749.2868" /><rect
           style="opacity:1;fill:#fffde5;fill-opacity:1;fill-rule:nonzero;stroke:none;stroke-width:2.37115526;stroke-miterlimit:4;stroke-dasharray:none;stroke-opacity:1"
           id="rect1844-8-1-7"
           width="2.386893"
           height="161.15324"
           x="547.71411"
           y="760.36554" /><rect
           style="opacity:1;fill:#fffde5;fill-opacity:1;fill-rule:nonzero;stroke:none;stroke-width:3.32300305;stroke-miterlimit:4;stroke-dasharray:none;stroke-opacity:1"
           id="rect1844-9-4-1-6"
           width="4.6878581"
           height="161.15324"
           x="529.47754"
           y="760.36554" /><rect
           style="opacity:1;fill:#fffde5;fill-opacity:1;fill-rule:nonzero;stroke:none;stroke-width:1.255;stroke-miterlimit:4;stroke-dasharray:none;stroke-opacity:1"
           id="rect1861-8-5-3"
           width="20.623459"
           height="3.6645141"
           x="529.47754"
           y="921.5188" /><rect
           style="opacity:1;fill:#fffde5;fill-opacity:1;fill-rule:nonzero;stroke:none;stroke-width:1.255;stroke-miterlimit:4;stroke-dasharray:none;stroke-opacity:1"
           id="rect1863-1-9-1"
           width="11.078719"
           height="5.6245804"
           x="533.909"
           y="923.90503" /><rect
           style="opacity:1;fill:#d0c08c;fill-opacity:1;fill-rule:nonzero;stroke:none;stroke-width:1.255;stroke-miterlimit:4;stroke-dasharray:none;stroke-opacity:1"
           id="rect1865-0-8-7"
           width="3.2384093"
           height="8.8629999"
           x="529.47754"
           y="925.18329" /><rect
           style="opacity:1;fill:#d0c08c;fill-opacity:1;fill-rule:nonzero;stroke:none;stroke-width:0.71283984;stroke-miterlimit:4;stroke-dasharray:none;stroke-opacity:1"
           id="rect1865-6-3-4-5"
           width="1.2783282"
           height="7.2438025"
           x="532.71594"
           y="925.18329" /><rect
           style="opacity:1;fill:#d0c08c;fill-opacity:1;fill-rule:nonzero;stroke:none;stroke-width:1.4449743;stroke-miterlimit:4;stroke-dasharray:none;stroke-opacity:1"
           id="rect1865-3-0-8-9"
           width="14.402349"
           height="2.6418731"
           x="533.909"
           y="929.5296" /><rect
           style="opacity:1;fill:#d0c08c;fill-opacity:1;fill-rule:nonzero;stroke:none;stroke-width:0.60486609;stroke-miterlimit:4;stroke-dasharray:none;stroke-opacity:1"
           id="rect1865-8-4-1-6"
           width="4.3462811"
           height="1.5340011"
           x="543.11285"
           y="932.17145" /><rect
           style="opacity:1;fill:#d0c08c;fill-opacity:1;fill-rule:nonzero;stroke:none;stroke-width:1.39729738;stroke-miterlimit:4;stroke-dasharray:none;stroke-opacity:1"
           id="rect1865-5-4-0-2"
           width="6.0506988"
           height="5.8802676"
           x="544.98773"
           y="923.90503" /><rect
           style="opacity:0.7;fill:#dee0db;fill-opacity:1;fill-rule:nonzero;stroke:none;stroke-width:2.01497221;stroke-miterlimit:4;stroke-dasharray:none;stroke-opacity:1"
           id="rect1902-4-3-1"
           width="4.9735513"
           height="155.61339"
           x="550.0636"
           y="763.60449" /><rect
           style="opacity:0.7;fill:#dee0db;fill-opacity:1;fill-rule:nonzero;stroke:none;stroke-width:2.02320266;stroke-miterlimit:4;stroke-dasharray:none;stroke-opacity:1"
           id="rect1902-6-4-0-7"
           width="5.0280333"
           height="155.18729"
           x="524.44958"
           y="764.11578" /></g><g
         inkscape:label="composants"
         id="g4184"><g
           id="g4100"><rect
             transform="scale(1,-1)"
             y="-410.69907"
             x="191.44748"
             height="1.8261142"
             width="3.8878565"
             id="rect4065"
             style="opacity:1;fill:#85746a;fill-opacity:1;fill-rule:nonzero;stroke:none;stroke-width:1.01687825;stroke-linejoin:round;stroke-miterlimit:4;stroke-dasharray:none;stroke-opacity:1" /><rect
             transform="scale(1,-1)"
             y="-410.69907"
             x="195.33534"
             height="1.8261141"
             width="1.8261143"
             id="rect4065-8"
             style="opacity:1;fill:#bcc5c4;fill-opacity:1;fill-rule:nonzero;stroke:none;stroke-width:0.69691181;stroke-linejoin:round;stroke-miterlimit:4;stroke-dasharray:none;stroke-opacity:1" /><rect
             transform="scale(1,-1)"
             y="-410.69907"
             x="189.56245"
             height="1.8261141"
             width="1.8850212"
             id="rect4065-8-5"
             style="opacity:1;fill:#bcc5c4;fill-opacity:1;fill-rule:nonzero;stroke:none;stroke-width:0.70806307;stroke-linejoin:round;stroke-miterlimit:4;stroke-dasharray:none;stroke-opacity:1" /></g><g
           transform="translate(-11.869744,0.02944791)"
           id="g4100-7"><rect
             transform="scale(1,-1)"
             y="-410.69907"
             x="191.44748"
             height="1.8261142"
             width="3.8878565"
             id="rect4065-4"
             style="opacity:1;fill:#85746a;fill-opacity:1;fill-rule:nonzero;stroke:none;stroke-width:1.01687825;stroke-linejoin:round;stroke-miterlimit:4;stroke-dasharray:none;stroke-opacity:1" /><rect
             transform="scale(1,-1)"
             y="-410.69907"
             x="195.33534"
             height="1.8261141"
             width="1.8261143"
             id="rect4065-8-1"
             style="opacity:1;fill:#bcc5c4;fill-opacity:1;fill-rule:nonzero;stroke:none;stroke-width:0.69691181;stroke-linejoin:round;stroke-miterlimit:4;stroke-dasharray:none;stroke-opacity:1" /><rect
             transform="scale(1,-1)"
             y="-410.69907"
             x="189.56245"
             height="1.8261141"
             width="1.8850212"
             id="rect4065-8-5-8"
             style="opacity:1;fill:#bcc5c4;fill-opacity:1;fill-rule:nonzero;stroke:none;stroke-width:0.70806307;stroke-linejoin:round;stroke-miterlimit:4;stroke-dasharray:none;stroke-opacity:1" /></g><g
           transform="rotate(-90,193.45031,415.6767)"
           id="g4100-5"><rect
             transform="scale(1,-1)"
             y="-410.69907"
             x="191.44748"
             height="1.8261142"
             width="3.8878565"
             id="rect4065-9"
             style="opacity:1;fill:#85746a;fill-opacity:1;fill-rule:nonzero;stroke:none;stroke-width:1.01687825;stroke-linejoin:round;stroke-miterlimit:4;stroke-dasharray:none;stroke-opacity:1" /><rect
             transform="scale(1,-1)"
             y="-410.69907"
             x="195.33534"
             height="1.8261141"
             width="1.8261143"
             id="rect4065-8-7"
             style="opacity:1;fill:#bcc5c4;fill-opacity:1;fill-rule:nonzero;stroke:none;stroke-width:0.69691181;stroke-linejoin:round;stroke-miterlimit:4;stroke-dasharray:none;stroke-opacity:1" /><rect
             transform="scale(1,-1)"
             y="-410.69907"
             x="189.56245"
             height="1.8261141"
             width="1.8850212"
             id="rect4065-8-5-5"
             style="opacity:1;fill:#bcc5c4;fill-opacity:1;fill-rule:nonzero;stroke:none;stroke-width:0.70806307;stroke-linejoin:round;stroke-miterlimit:4;stroke-dasharray:none;stroke-opacity:1" /></g><g
           transform="rotate(-90,187.32399,409.66819)"
           id="g4100-3"><rect
             transform="scale(1,-1)"
             y="-410.69907"
             x="191.44748"
             height="1.8261142"
             width="3.8878565"
             id="rect4065-88"
             style="opacity:1;fill:#85746a;fill-opacity:1;fill-rule:nonzero;stroke:none;stroke-width:1.01687825;stroke-linejoin:round;stroke-miterlimit:4;stroke-dasharray:none;stroke-opacity:1" /><rect
             transform="scale(1,-1)"
             y="-410.69907"
             x="195.33534"
             height="1.8261141"
             width="1.8261143"
             id="rect4065-8-3"
             style="opacity:1;fill:#bcc5c4;fill-opacity:1;fill-rule:nonzero;stroke:none;stroke-width:0.69691181;stroke-linejoin:round;stroke-miterlimit:4;stroke-dasharray:none;stroke-opacity:1" /><rect
             transform="scale(1,-1)"
             y="-410.69907"
             x="189.56245"
             height="1.8261141"
             width="1.8850212"
             id="rect4065-8-5-1"
             style="opacity:1;fill:#bcc5c4;fill-opacity:1;fill-rule:nonzero;stroke:none;stroke-width:0.70806307;stroke-linejoin:round;stroke-miterlimit:4;stroke-dasharray:none;stroke-opacity:1" /></g><g
           transform="translate(22.355174,57.934947)"
           id="g4100-8"><rect
             transform="scale(1,-1)"
             y="-410.69907"
             x="191.44748"
             height="1.8261142"
             width="3.8878565"
             id="rect4065-96"
             style="opacity:1;fill:#85746a;fill-opacity:1;fill-rule:nonzero;stroke:none;stroke-width:1.01687825;stroke-linejoin:round;stroke-miterlimit:4;stroke-dasharray:none;stroke-opacity:1" /><rect
             transform="scale(1,-1)"
             y="-410.69907"
             x="195.33534"
             height="1.8261141"
             width="1.8261143"
             id="rect4065-8-4"
             style="opacity:1;fill:#bcc5c4;fill-opacity:1;fill-rule:nonzero;stroke:none;stroke-width:0.69691181;stroke-linejoin:round;stroke-miterlimit:4;stroke-dasharray:none;stroke-opacity:1" /><rect
             transform="scale(1,-1)"
             y="-410.69907"
             x="189.56245"
             height="1.8261141"
             width="1.8850212"
             id="rect4065-8-5-3"
             style="opacity:1;fill:#bcc5c4;fill-opacity:1;fill-rule:nonzero;stroke:none;stroke-width:0.70806307;stroke-linejoin:round;stroke-miterlimit:4;stroke-dasharray:none;stroke-opacity:1" /></g></g></g></g></svg>