<?xml version="1.0" encoding="UTF-8" standalone="no"?>
<!-- Created with Inkscape (http://www.inkscape.org/) -->

<svg
   xmlns:dc="http://purl.org/dc/elements/1.1/"
   xmlns:cc="http://creativecommons.org/ns#"
   xmlns:rdf="http://www.w3.org/1999/02/22-rdf-syntax-ns#"
   xmlns:svg="http://www.w3.org/2000/svg"
   xmlns="http://www.w3.org/2000/svg"
   xmlns:sodipodi="http://sodipodi.sourceforge.net/DTD/sodipodi-0.dtd"
   xmlns:inkscape="http://www.inkscape.org/namespaces/inkscape"
   version="1.1"
   id="svg96"
   width="2904"
   height="3761.3333"
   viewBox="0 0 2904 3761.3333"
   sodipodi:docname="OPOS8MM.svg"
   inkscape:version="0.92.3 (2405546, 2018-03-11)">
  <metadata
     id="metadata102">
    <rdf:RDF>
      <cc:Work
         rdf:about="">
        <dc:format>image/svg+xml</dc:format>
        <dc:type
           rdf:resource="http://purl.org/dc/dcmitype/StillImage" />
        <dc:title />
      </cc:Work>
    </rdf:RDF>
  </metadata>
  <defs
     id="defs100">
    <meshgradient
       inkscape:collect="always"
       id="meshgradient1029"
       gradientUnits="userSpaceOnUse"
       x="1671.249"
       y="1553.7074">
      <meshrow
         id="meshrow1031">
        <meshpatch
           id="meshpatch1033">
          <stop
             path="c 11.159,0  22.318,0  33.4771,0"
             style="stop-color:#ffffff;stop-opacity:1"
             id="stop1035" />
          <stop
             path="c 0,26.6577  0,53.3153  0,79.973"
             style="stop-color:#727574;stop-opacity:1"
             id="stop1037" />
          <stop
             path="c -11.159,0  -22.318,0  -33.4771,0"
             style="stop-color:#ffffff;stop-opacity:1"
             id="stop1039" />
          <stop
             path="c 0,-26.6577  0,-53.3153  0,-79.973"
             style="stop-color:#727574;stop-opacity:1"
             id="stop1041" />
        </meshpatch>
      </meshrow>
    </meshgradient>
    <meshgradient
       inkscape:collect="always"
       id="meshgradient1247"
       gradientUnits="userSpaceOnUse"
       x="2199.012"
       y="2388.2625"
       gradientTransform="translate(-0.78906178,-2.3671853)">
      <meshrow
         id="meshrow1249">
        <meshpatch
           id="meshpatch1251">
          <stop
             path="c 10.7338,-10.7338  28.1368,-10.7338  38.8706,0"
             style="stop-color:#ffffff;stop-opacity:1"
             id="stop1253" />
          <stop
             path="c 10.7338,10.7338  10.7338,28.1368  0,38.8706"
             style="stop-color:#d8dad9;stop-opacity:1"
             id="stop1255" />
          <stop
             path="c -10.7338,10.7338  -28.1368,10.7338  -38.8706,0"
             style="stop-color:#ffffff;stop-opacity:1"
             id="stop1257" />
          <stop
             path="c -10.7338,-10.7338  -10.7338,-28.1368  0,-38.8706"
             style="stop-color:#d8dad9;stop-opacity:1"
             id="stop1259" />
        </meshpatch>
      </meshrow>
    </meshgradient>
    <meshgradient
       inkscape:collect="always"
       id="meshgradient1263"
       gradientUnits="userSpaceOnUse"
       x="2213.7751"
       y="2400.6584">
      <meshrow
         id="meshrow1265">
        <meshpatch
           id="meshpatch1267">
          <stop
             path="c 2.36247,-2.36247  6.19278,-2.36247  8.55525,0"
             style="stop-color:#ffffff;stop-opacity:1"
             id="stop1269" />
          <stop
             path="c 2.36247,2.36247  2.36247,6.19278  0,8.55525"
             style="stop-color:#dddfde;stop-opacity:1"
             id="stop1271" />
          <stop
             path="c -2.36247,2.36247  -6.19278,2.36247  -8.55525,0"
             style="stop-color:#ffffff;stop-opacity:1"
             id="stop1273" />
          <stop
             path="c -2.36247,-2.36247  -2.36247,-6.19278  0,-8.55525"
             style="stop-color:#dddfde;stop-opacity:1"
             id="stop1275" />
        </meshpatch>
      </meshrow>
    </meshgradient>
    <meshgradient
       inkscape:collect="always"
       id="meshgradient4599"
       gradientUnits="userSpaceOnUse"
       x="1671.249"
       y="1553.7074">
      <meshrow
         id="meshrow4611">
        <meshpatch
           id="meshpatch4609">
          <stop
             id="stop4601"
             style="stop-color:#ffffff;stop-opacity:1"
             path="c 11.159,0  22.318,0  33.4771,0" />
          <stop
             id="stop4603"
             style="stop-color:#727574;stop-opacity:1"
             path="c 0,26.6577  0,53.3153  0,79.973" />
          <stop
             id="stop4605"
             style="stop-color:#ffffff;stop-opacity:1"
             path="c -11.159,0  -22.318,0  -33.4771,0" />
          <stop
             id="stop4607"
             style="stop-color:#727574;stop-opacity:1"
             path="c 0,-26.6577  0,-53.3153  0,-79.973" />
        </meshpatch>
      </meshrow>
    </meshgradient>
  </defs>
  <sodipodi:namedview
     pagecolor="#ffffff"
     bordercolor="#666666"
     borderopacity="1"
     objecttolerance="10"
     gridtolerance="10"
     guidetolerance="10"
     inkscape:pageopacity="0"
     inkscape:pageshadow="2"
     inkscape:window-width="1373"
     inkscape:window-height="845"
     id="namedview98"
     showgrid="false"
     inkscape:zoom="0.85588004"
     inkscape:cx="833.24592"
     inkscape:cy="1731.639"
     inkscape:window-x="67"
     inkscape:window-y="27"
     inkscape:window-maximized="1"
     inkscape:current-layer="svg96"
     showguides="false" />
  <g
     id="g1773"
     inkscape:label="recto">
    <path
       inkscape:connector-curvature="0"
       id="rect112"
       d="m 1653.874,1321.3744 v 1145.5078 h 908.4648 V 1321.3744 Z m 850.4531,80.791 a 43.13538,47.080685 0 0 1 36.789,22.5781 42.609337,42.609337 0 0 1 6.8731,23.1875 42.609337,42.609337 0 0 1 -1.3574,10.4531 43.13538,47.080685 0 0 1 -42.3047,37.9434 43.13538,47.080685 0 0 1 -43.1348,-47.0801 43.13538,47.080685 0 0 1 43.1348,-47.082 z m -787.3516,888.2207 a 44.055946,47.343708 0 0 1 44.0567,47.3437 44.055946,47.343708 0 0 1 -44.0567,47.3438 44.055946,47.343708 0 0 1 -44.0547,-47.3438 44.055946,47.343708 0 0 1 0.4532,-6.3886 43.361255,42.952939 0 0 1 10.7812,-25.1211 44.055946,47.343708 0 0 1 32.8203,-15.834 z"
       style="opacity:1;fill:#00524e;fill-opacity:1;fill-rule:nonzero;stroke:none;stroke-width:62.18340683;stroke-linejoin:round;stroke-miterlimit:4;stroke-dasharray:none;stroke-opacity:1"
       inkscape:label="carte" />
    <g
       id="g205"
       inkscape:label="gros composant">
      <rect
         style="opacity:1;fill:#232833;fill-opacity:1;fill-rule:nonzero;stroke:none;stroke-width:11.3039875;stroke-linejoin:round;stroke-miterlimit:4;stroke-dasharray:none;stroke-opacity:1"
         id="rect150"
         width="364.02051"
         height="366.12466"
         x="1948.4565"
         y="1787.6267" />
      <rect
         style="opacity:1;fill:#30363a;fill-opacity:1;fill-rule:nonzero;stroke:none;stroke-width:9.19804287;stroke-linejoin:round;stroke-miterlimit:4;stroke-dasharray:none;stroke-opacity:1"
         id="rect154"
         width="381.90591"
         height="263.0206"
         x="2030.519"
         y="1368.8979" />
      <rect
         style="opacity:1;fill:#81786c;fill-opacity:1;fill-rule:nonzero;stroke:none;stroke-width:4.47826767;stroke-linejoin:round;stroke-miterlimit:4;stroke-dasharray:none;stroke-opacity:1"
         id="rect158"
         width="208.30168"
         height="194.91086"
         x="2331.491"
         y="2245.1943" />
      <g
         id="g194">
        <rect
           y="1456.2207"
           x="1739.0922"
           height="183.06232"
           width="180.95818"
           id="rect156"
           style="opacity:1;fill:#232b33;fill-opacity:1;fill-rule:nonzero;stroke:none;stroke-width:1.99187076;stroke-linejoin:round;stroke-miterlimit:4;stroke-dasharray:none;stroke-opacity:1" />
        <rect
           y="1472.002"
           x="1730.6755"
           height="147.29153"
           width="8.4166584"
           id="rect160"
           style="opacity:1;fill:#c9cfcb;fill-opacity:1;fill-rule:nonzero;stroke:none;stroke-width:4.20794773;stroke-linejoin:round;stroke-miterlimit:4;stroke-dasharray:none;stroke-opacity:1" />
        <rect
           y="1473.0541"
           x="1920.5764"
           height="147.29153"
           width="8.9426994"
           id="rect160-3"
           style="opacity:1;fill:#c9cfcb;fill-opacity:1;fill-rule:nonzero;stroke:none;stroke-width:4.33745337;stroke-linejoin:round;stroke-miterlimit:4;stroke-dasharray:none;stroke-opacity:1" />
        <rect
           transform="rotate(90)"
           y="-1904.7952"
           x="1447.9082"
           height="147.29153"
           width="8.4166584"
           id="rect160-6"
           style="opacity:1;fill:#c9cfcb;fill-opacity:1;fill-rule:nonzero;stroke:none;stroke-width:4.20794773;stroke-linejoin:round;stroke-miterlimit:4;stroke-dasharray:none;stroke-opacity:1" />
        <rect
           transform="rotate(90)"
           y="-1905.3213"
           x="1639.2831"
           height="147.29153"
           width="8.4166584"
           id="rect160-7"
           style="opacity:1;fill:#c9cfcb;fill-opacity:1;fill-rule:nonzero;stroke:none;stroke-width:4.20794773;stroke-linejoin:round;stroke-miterlimit:4;stroke-dasharray:none;stroke-opacity:1" />
      </g>
    </g>
    <g
       id="g1002"
       inkscape:label="rondelles">
      <path
         style="opacity:1;fill:#eeb204;fill-opacity:1;fill-rule:nonzero;stroke:none;stroke-width:3.36233854;stroke-linejoin:round;stroke-miterlimit:4;stroke-dasharray:none;stroke-opacity:1"
         d="m 2503.3752,1387.4375 a 59.550814,61.374603 0 0 0 -59.551,61.375 59.550814,61.374603 0 0 0 59.551,61.375 59.550814,61.374603 0 0 0 56.4874,-42.1855 v -38.4688 a 59.550814,61.374603 0 0 0 -56.4874,-42.0957 z m 0,13.3906 a 42.745061,46.495911 0 0 1 42.7464,46.4961 42.745061,46.495911 0 0 1 -42.7464,46.4961 42.745061,46.495911 0 0 1 -42.7445,-46.4961 42.745061,46.495911 0 0 1 42.7445,-46.4961 z"
         id="path18"
         inkscape:connector-curvature="0" />
      <path
         style="opacity:1;fill:#eeb204;fill-opacity:1;fill-rule:nonzero;stroke:none;stroke-width:3.91859937;stroke-linejoin:round;stroke-miterlimit:4;stroke-dasharray:none;stroke-opacity:1"
         d="m 1715.9297,2275.3067 a 59.442654,60.757755 0 0 0 -59.4414,60.7578 59.442654,60.757755 0 0 0 59.4414,60.7578 59.442654,60.757755 0 0 0 59.4434,-60.7578 59.442654,60.757755 0 0 0 -59.4434,-60.7578 z m 0.2637,14.2031 a 42.872353,46.291622 0 0 1 42.8731,46.293 42.872353,46.291622 0 0 1 -42.8731,46.291 42.872353,46.291622 0 0 1 -42.8711,-46.291 42.872353,46.291622 0 0 1 42.8711,-46.293 z"
         id="path842"
         inkscape:connector-curvature="0" />
    </g>
    <g
       id="g1538"
       inkscape:label="texte">
      <text
         xml:space="preserve"
         style="font-style:normal;font-weight:normal;font-size:24.46824837px;line-height:1.25;font-family:sans-serif;letter-spacing:0px;word-spacing:0px;fill:#e6e6e6;fill-opacity:1;stroke:none;stroke-width:0.61170626"
         x="2383.4507"
         y="1179.9099"
         id="text1197"
         transform="scale(0.8703418,1.1489739)"><tspan
           sodipodi:role="line"
           id="tspan1195"
           x="2383.4507"
           y="1179.9099"
           style="fill:#e6e6e6;stroke-width:0.61170626">Armadeus  Systems</tspan></text>
      <text
         xml:space="preserve"
         style="font-style:normal;font-weight:normal;font-size:24.26478767px;line-height:1.25;font-family:sans-serif;letter-spacing:0px;word-spacing:0px;fill:#e6e6e6;fill-opacity:1;stroke:none;stroke-width:0.60661966"
         x="2222.1597"
         y="-1412.603"
         id="text1201"
         transform="matrix(0,0.84042711,-1.1898712,0,0,0)"><tspan
           sodipodi:role="line"
           id="tspan1199"
           x="2222.1597"
           y="-1412.603"
           style="fill:#e6e6e6;stroke-width:0.60661966">OPOS8MM    V1.0</tspan></text>
    </g>
    <g
       id="g1446"
       inkscape:label="prise">
      <rect
         style="display:inline;opacity:1;fill:#edeee1;fill-opacity:1;fill-rule:nonzero;stroke:none;stroke-width:9.31666565;stroke-linejoin:round;stroke-miterlimit:4;stroke-dasharray:none;stroke-opacity:1"
         id="rect1241"
         width="66.807228"
         height="69.700455"
         x="2184.9121"
         y="2368.3762" />
      <circle
         style="opacity:1;fill:url(#meshgradient1247);fill-opacity:1;fill-rule:nonzero;stroke:none;stroke-width:3.51162434;stroke-linejoin:round;stroke-miterlimit:4;stroke-dasharray:none;stroke-opacity:1"
         id="path1245"
         cx="2217.6582"
         cy="2405.3306"
         r="27.485651" />
      <circle
         style="display:inline;opacity:1;fill:#d5c7a8;fill-opacity:1;fill-rule:nonzero;stroke:none;stroke-width:3.30999994;stroke-linejoin:round;stroke-miterlimit:4;stroke-dasharray:none;stroke-opacity:1"
         id="path1243"
         cx="2218.3154"
         cy="2405.988"
         r="23.671854" />
      <circle
         style="opacity:1;fill:url(#meshgradient1263);fill-opacity:1;fill-rule:nonzero;stroke:none;stroke-width:3.30999994;stroke-linejoin:round;stroke-miterlimit:4;stroke-dasharray:none;stroke-opacity:1"
         id="path1261"
         cx="2218.0527"
         cy="2404.936"
         r="6.0494738" />
    </g>
    <g
       id="g998"
       inkscape:label="points">
      <circle
         style="opacity:1;fill:#eeb204;fill-opacity:1;fill-rule:nonzero;stroke:none;stroke-width:3.30999994;stroke-linejoin:round;stroke-miterlimit:4;stroke-dasharray:none;stroke-opacity:1"
         id="path972"
         cx="1797.7458"
         cy="2427.8188"
         r="13.41405" />
      <circle
         style="opacity:1;fill:#eeb204;fill-opacity:1;fill-rule:nonzero;stroke:none;stroke-width:3.30999994;stroke-linejoin:round;stroke-miterlimit:4;stroke-dasharray:none;stroke-opacity:1"
         id="path972-8"
         cx="1702.7953"
         cy="1353.6427"
         r="13.41405" />
      <circle
         style="opacity:1;fill:#eeb204;fill-opacity:1;fill-rule:nonzero;stroke:none;stroke-width:3.30999994;stroke-linejoin:round;stroke-miterlimit:4;stroke-dasharray:none;stroke-opacity:1"
         id="path972-9"
         cx="2463.1877"
         cy="1360.4812"
         r="13.41405" />
    </g>
    <g
       id="g2432"
       inkscape:label="composant">
      <g
         id="g886">
        <rect
           y="1604.6669"
           x="1943.5291"
           height="30.129351"
           width="42.776237"
           id="rect851"
           style="opacity:1;fill:#4f4d4e;fill-opacity:1;fill-rule:nonzero;stroke:none;stroke-width:3.30999994;stroke-linejoin:round;stroke-miterlimit:4;stroke-dasharray:none;stroke-opacity:1" />
        <rect
           y="1589.0442"
           x="1943.5291"
           height="15.622626"
           width="42.776237"
           id="rect851-3"
           style="opacity:1;fill:#9ea8b2;fill-opacity:1;fill-rule:nonzero;stroke:none;stroke-width:2.38347244;stroke-linejoin:round;stroke-miterlimit:4;stroke-dasharray:none;stroke-opacity:1" />
        <rect
           y="1634.7963"
           x="1943.5291"
           height="15.622626"
           width="42.776237"
           id="rect851-3-6"
           style="opacity:1;fill:#9ea8b2;fill-opacity:1;fill-rule:nonzero;stroke:none;stroke-width:2.38347244;stroke-linejoin:round;stroke-miterlimit:4;stroke-dasharray:none;stroke-opacity:1" />
      </g>
      <g
         transform="translate(-1.3018501,-95.409567)"
         id="g886-7">
        <rect
           y="1604.6669"
           x="1943.5291"
           height="30.129351"
           width="42.776237"
           id="rect851-5"
           style="opacity:1;fill:#4f4d4e;fill-opacity:1;fill-rule:nonzero;stroke:none;stroke-width:3.30999994;stroke-linejoin:round;stroke-miterlimit:4;stroke-dasharray:none;stroke-opacity:1" />
        <rect
           y="1589.0442"
           x="1943.5291"
           height="15.622626"
           width="42.776237"
           id="rect851-3-3"
           style="opacity:1;fill:#9ea8b2;fill-opacity:1;fill-rule:nonzero;stroke:none;stroke-width:2.38347244;stroke-linejoin:round;stroke-miterlimit:4;stroke-dasharray:none;stroke-opacity:1" />
        <rect
           y="1634.7963"
           x="1943.5291"
           height="15.622626"
           width="42.776237"
           id="rect851-3-6-5"
           style="opacity:1;fill:#9ea8b2;fill-opacity:1;fill-rule:nonzero;stroke:none;stroke-width:2.38347244;stroke-linejoin:round;stroke-miterlimit:4;stroke-dasharray:none;stroke-opacity:1" />
      </g>
      <g
         transform="rotate(90,2060.3267,1498.4703)"
         id="g886-6">
        <rect
           y="1604.6669"
           x="1943.5291"
           height="30.129351"
           width="42.776237"
           id="rect851-2"
           style="opacity:1;fill:#4f4d4e;fill-opacity:1;fill-rule:nonzero;stroke:none;stroke-width:3.30999994;stroke-linejoin:round;stroke-miterlimit:4;stroke-dasharray:none;stroke-opacity:1" />
        <rect
           y="1589.0442"
           x="1943.5291"
           height="15.622626"
           width="42.776237"
           id="rect851-3-9"
           style="opacity:1;fill:#9ea8b2;fill-opacity:1;fill-rule:nonzero;stroke:none;stroke-width:2.38347244;stroke-linejoin:round;stroke-miterlimit:4;stroke-dasharray:none;stroke-opacity:1" />
        <rect
           y="1634.7963"
           x="1943.5291"
           height="15.622626"
           width="42.776237"
           id="rect851-3-6-1"
           style="opacity:1;fill:#9ea8b2;fill-opacity:1;fill-rule:nonzero;stroke:none;stroke-width:2.38347244;stroke-linejoin:round;stroke-miterlimit:4;stroke-dasharray:none;stroke-opacity:1" />
      </g>
      <g
         transform="rotate(90,2003.4158,1433.748)"
         id="g886-2">
        <rect
           y="1604.6669"
           x="1943.5291"
           height="30.129351"
           width="42.776237"
           id="rect851-7"
           style="opacity:1;fill:#4f4d4e;fill-opacity:1;fill-rule:nonzero;stroke:none;stroke-width:3.30999994;stroke-linejoin:round;stroke-miterlimit:4;stroke-dasharray:none;stroke-opacity:1" />
        <rect
           y="1589.0442"
           x="1943.5291"
           height="15.622626"
           width="42.776237"
           id="rect851-3-0"
           style="opacity:1;fill:#9ea8b2;fill-opacity:1;fill-rule:nonzero;stroke:none;stroke-width:2.38347244;stroke-linejoin:round;stroke-miterlimit:4;stroke-dasharray:none;stroke-opacity:1" />
        <rect
           y="1634.7963"
           x="1943.5291"
           height="15.622626"
           width="42.776237"
           id="rect851-3-6-9"
           style="opacity:1;fill:#9ea8b2;fill-opacity:1;fill-rule:nonzero;stroke:none;stroke-width:2.38347244;stroke-linejoin:round;stroke-miterlimit:4;stroke-dasharray:none;stroke-opacity:1" />
      </g>
      <g
         transform="rotate(90,1818.734,1529.1575)"
         id="g886-3">
        <rect
           y="1604.6669"
           x="1943.5291"
           height="30.129351"
           width="42.776237"
           id="rect851-6"
           style="opacity:1;fill:#4f4d4e;fill-opacity:1;fill-rule:nonzero;stroke:none;stroke-width:3.30999994;stroke-linejoin:round;stroke-miterlimit:4;stroke-dasharray:none;stroke-opacity:1" />
        <rect
           y="1589.0442"
           x="1943.5291"
           height="15.622626"
           width="42.776237"
           id="rect851-3-06"
           style="opacity:1;fill:#9ea8b2;fill-opacity:1;fill-rule:nonzero;stroke:none;stroke-width:2.38347244;stroke-linejoin:round;stroke-miterlimit:4;stroke-dasharray:none;stroke-opacity:1" />
        <rect
           y="1634.7963"
           x="1943.5291"
           height="15.622626"
           width="42.776237"
           id="rect851-3-6-2"
           style="opacity:1;fill:#9ea8b2;fill-opacity:1;fill-rule:nonzero;stroke:none;stroke-width:2.38347244;stroke-linejoin:round;stroke-miterlimit:4;stroke-dasharray:none;stroke-opacity:1" />
      </g>
      <g
         transform="rotate(90,1870.8094,1585.6966)"
         id="g886-61">
        <rect
           y="1604.6669"
           x="1943.5291"
           height="30.129351"
           width="42.776237"
           id="rect851-8"
           style="opacity:1;fill:#4f4d4e;fill-opacity:1;fill-rule:nonzero;stroke:none;stroke-width:3.30999994;stroke-linejoin:round;stroke-miterlimit:4;stroke-dasharray:none;stroke-opacity:1" />
        <rect
           y="1589.0442"
           x="1943.5291"
           height="15.622626"
           width="42.776237"
           id="rect851-3-7"
           style="opacity:1;fill:#9ea8b2;fill-opacity:1;fill-rule:nonzero;stroke:none;stroke-width:2.38347244;stroke-linejoin:round;stroke-miterlimit:4;stroke-dasharray:none;stroke-opacity:1" />
        <rect
           y="1634.7963"
           x="1943.5291"
           height="15.622626"
           width="42.776237"
           id="rect851-3-6-92"
           style="opacity:1;fill:#9ea8b2;fill-opacity:1;fill-rule:nonzero;stroke:none;stroke-width:2.38347244;stroke-linejoin:round;stroke-miterlimit:4;stroke-dasharray:none;stroke-opacity:1" />
      </g>
      <g
         transform="matrix(0,0.53269464,-0.80286752,0,3818.8522,1178.5921)"
         id="g886-0">
        <rect
           y="1604.6669"
           x="1943.5291"
           height="30.129351"
           width="42.776237"
           id="rect851-23"
           style="opacity:1;fill:#14191d;fill-opacity:1;fill-rule:nonzero;stroke:none;stroke-width:3.30999994;stroke-linejoin:round;stroke-miterlimit:4;stroke-dasharray:none;stroke-opacity:1" />
        <rect
           y="1589.0442"
           x="1943.5291"
           height="15.622626"
           width="42.776237"
           id="rect851-3-75"
           style="opacity:1;fill:#9ea8b2;fill-opacity:1;fill-rule:nonzero;stroke:none;stroke-width:2.38347244;stroke-linejoin:round;stroke-miterlimit:4;stroke-dasharray:none;stroke-opacity:1" />
        <rect
           y="1634.7963"
           x="1943.5291"
           height="15.622626"
           width="42.776237"
           id="rect851-3-6-922"
           style="opacity:1;fill:#9ea8b2;fill-opacity:1;fill-rule:nonzero;stroke:none;stroke-width:2.38347244;stroke-linejoin:round;stroke-miterlimit:4;stroke-dasharray:none;stroke-opacity:1" />
      </g>
      <g
         id="g1440">
        <rect
           transform="rotate(90)"
           y="-1718.303"
           x="1546.8259"
           height="50.587551"
           width="26.03771"
           id="rect1004"
           style="opacity:1;fill:#dae0e6;fill-opacity:1;fill-rule:nonzero;stroke:none;stroke-width:3.42219782;stroke-linejoin:round;stroke-miterlimit:4;stroke-dasharray:none;stroke-opacity:1" />
        <rect
           transform="rotate(90)"
           y="-1716.629"
           x="1613.5941"
           height="49.099682"
           width="27.897547"
           id="rect1004-7"
           style="opacity:1;fill:#dae0e6;fill-opacity:1;fill-rule:nonzero;stroke:none;stroke-width:3.48982954;stroke-linejoin:round;stroke-miterlimit:4;stroke-dasharray:none;stroke-opacity:1" />
        <rect
           transform="scale(-1)"
           y="-1636.6561"
           x="-1707.7018"
           height="85.924446"
           width="39.056564"
           id="rect1004-3"
           style="display:inline;opacity:1;fill:#9ea08a;fill-opacity:1;fill-rule:nonzero;stroke:none;stroke-width:5.46244764;stroke-linejoin:round;stroke-miterlimit:4;stroke-dasharray:none;stroke-opacity:1" />
        <rect
           y="1553.7074"
           x="1671.249"
           height="79.972969"
           width="33.477055"
           id="rect1027"
           style="display:inline;opacity:1;fill:url(#meshgradient1029);fill-opacity:1;fill-rule:nonzero;stroke:none;stroke-width:7.19781446;stroke-linejoin:round;stroke-miterlimit:4;stroke-dasharray:none;stroke-opacity:1" />
      </g>
      <g
         id="g1078">
        <rect
           y="2230.8164"
           x="2288.4106"
           height="16.570297"
           width="16.175766"
           id="rect1043"
           style="opacity:1;fill:#827462;fill-opacity:1;fill-rule:nonzero;stroke:none;stroke-width:3.30999994;stroke-linejoin:round;stroke-miterlimit:4;stroke-dasharray:none;stroke-opacity:1" />
        <rect
           y="2230.8164"
           x="2282.3611"
           height="16.570297"
           width="6.0494733"
           id="rect1043-6"
           style="opacity:1;fill:#808e8e;fill-opacity:1;fill-rule:nonzero;stroke:none;stroke-width:2.02420425;stroke-linejoin:round;stroke-miterlimit:4;stroke-dasharray:none;stroke-opacity:1" />
        <rect
           y="2230.8164"
           x="2304.5864"
           height="16.570297"
           width="6.0494733"
           id="rect1043-6-1"
           style="opacity:1;fill:#808e8e;fill-opacity:1;fill-rule:nonzero;stroke:none;stroke-width:2.02420425;stroke-linejoin:round;stroke-miterlimit:4;stroke-dasharray:none;stroke-opacity:1" />
      </g>
      <g
         transform="rotate(-90,2273.9774,2295.4208)"
         id="g1078-2">
        <rect
           y="2230.8164"
           x="2288.4106"
           height="16.570297"
           width="16.175766"
           id="rect1043-9"
           style="opacity:1;fill:#827462;fill-opacity:1;fill-rule:nonzero;stroke:none;stroke-width:3.30999994;stroke-linejoin:round;stroke-miterlimit:4;stroke-dasharray:none;stroke-opacity:1" />
        <rect
           y="2230.8164"
           x="2282.3611"
           height="16.570297"
           width="6.0494733"
           id="rect1043-6-3"
           style="opacity:1;fill:#808e8e;fill-opacity:1;fill-rule:nonzero;stroke:none;stroke-width:2.02420425;stroke-linejoin:round;stroke-miterlimit:4;stroke-dasharray:none;stroke-opacity:1" />
        <rect
           y="2230.8164"
           x="2304.5864"
           height="16.570297"
           width="6.0494733"
           id="rect1043-6-1-1"
           style="opacity:1;fill:#808e8e;fill-opacity:1;fill-rule:nonzero;stroke:none;stroke-width:2.02420425;stroke-linejoin:round;stroke-miterlimit:4;stroke-dasharray:none;stroke-opacity:1" />
      </g>
      <g
         transform="translate(-221.66496,98.340912)"
         id="g1078-9">
        <rect
           y="2230.8164"
           x="2288.4106"
           height="16.570297"
           width="16.175766"
           id="rect1043-4"
           style="opacity:1;fill:#827462;fill-opacity:1;fill-rule:nonzero;stroke:none;stroke-width:3.30999994;stroke-linejoin:round;stroke-miterlimit:4;stroke-dasharray:none;stroke-opacity:1" />
        <rect
           y="2230.8164"
           x="2282.3611"
           height="16.570297"
           width="6.0494733"
           id="rect1043-6-7"
           style="opacity:1;fill:#808e8e;fill-opacity:1;fill-rule:nonzero;stroke:none;stroke-width:2.02420425;stroke-linejoin:round;stroke-miterlimit:4;stroke-dasharray:none;stroke-opacity:1" />
        <rect
           y="2230.8164"
           x="2304.5864"
           height="16.570297"
           width="6.0494733"
           id="rect1043-6-1-8"
           style="opacity:1;fill:#808e8e;fill-opacity:1;fill-rule:nonzero;stroke:none;stroke-width:2.02420425;stroke-linejoin:round;stroke-miterlimit:4;stroke-dasharray:none;stroke-opacity:1" />
      </g>
      <g
         transform="rotate(90,2031.6008,2156.6094)"
         id="g1078-4">
        <rect
           y="2230.8164"
           x="2288.4106"
           height="16.570297"
           width="16.175766"
           id="rect1043-5"
           style="opacity:1;fill:#827462;fill-opacity:1;fill-rule:nonzero;stroke:none;stroke-width:3.30999994;stroke-linejoin:round;stroke-miterlimit:4;stroke-dasharray:none;stroke-opacity:1" />
        <rect
           y="2230.8164"
           x="2282.3611"
           height="16.570297"
           width="6.0494733"
           id="rect1043-6-0"
           style="opacity:1;fill:#808e8e;fill-opacity:1;fill-rule:nonzero;stroke:none;stroke-width:2.02420425;stroke-linejoin:round;stroke-miterlimit:4;stroke-dasharray:none;stroke-opacity:1" />
        <rect
           y="2230.8164"
           x="2304.5864"
           height="16.570297"
           width="6.0494733"
           id="rect1043-6-1-3"
           style="opacity:1;fill:#808e8e;fill-opacity:1;fill-rule:nonzero;stroke:none;stroke-width:2.02420425;stroke-linejoin:round;stroke-miterlimit:4;stroke-dasharray:none;stroke-opacity:1" />
      </g>
      <g
         transform="rotate(90,2497.1179,1606.6557)"
         id="g1078-6">
        <rect
           y="2230.8164"
           x="2288.4106"
           height="16.570297"
           width="16.175766"
           id="rect1043-1"
           style="opacity:1;fill:#827462;fill-opacity:1;fill-rule:nonzero;stroke:none;stroke-width:3.30999994;stroke-linejoin:round;stroke-miterlimit:4;stroke-dasharray:none;stroke-opacity:1" />
        <rect
           y="2230.8164"
           x="2282.3611"
           height="16.570297"
           width="6.0494733"
           id="rect1043-6-06"
           style="opacity:1;fill:#808e8e;fill-opacity:1;fill-rule:nonzero;stroke:none;stroke-width:2.02420425;stroke-linejoin:round;stroke-miterlimit:4;stroke-dasharray:none;stroke-opacity:1" />
        <rect
           y="2230.8164"
           x="2304.5864"
           height="16.570297"
           width="6.0494733"
           id="rect1043-6-1-32"
           style="opacity:1;fill:#808e8e;fill-opacity:1;fill-rule:nonzero;stroke:none;stroke-width:2.02420425;stroke-linejoin:round;stroke-miterlimit:4;stroke-dasharray:none;stroke-opacity:1" />
      </g>
      <g
         transform="rotate(90,2509.3464,1619.4535)"
         id="g1078-0">
        <rect
           y="2230.8164"
           x="2288.4106"
           height="16.570297"
           width="16.175766"
           id="rect1043-61"
           style="opacity:1;fill:#827462;fill-opacity:1;fill-rule:nonzero;stroke:none;stroke-width:3.30999994;stroke-linejoin:round;stroke-miterlimit:4;stroke-dasharray:none;stroke-opacity:1" />
        <rect
           y="2230.8164"
           x="2282.3611"
           height="16.570297"
           width="6.0494733"
           id="rect1043-6-5"
           style="opacity:1;fill:#808e8e;fill-opacity:1;fill-rule:nonzero;stroke:none;stroke-width:2.02420425;stroke-linejoin:round;stroke-miterlimit:4;stroke-dasharray:none;stroke-opacity:1" />
        <rect
           y="2230.8164"
           x="2304.5864"
           height="16.570297"
           width="6.0494733"
           id="rect1043-6-1-5"
           style="opacity:1;fill:#808e8e;fill-opacity:1;fill-rule:nonzero;stroke:none;stroke-width:2.02420425;stroke-linejoin:round;stroke-miterlimit:4;stroke-dasharray:none;stroke-opacity:1" />
      </g>
      <g
         transform="translate(-597.72388,-828.22961)"
         id="g1078-47">
        <rect
           y="2230.8164"
           x="2288.4106"
           height="16.570297"
           width="16.175766"
           id="rect1043-65"
           style="opacity:1;fill:#827462;fill-opacity:1;fill-rule:nonzero;stroke:none;stroke-width:3.30999994;stroke-linejoin:round;stroke-miterlimit:4;stroke-dasharray:none;stroke-opacity:1" />
        <rect
           y="2230.8164"
           x="2282.3611"
           height="16.570297"
           width="6.0494733"
           id="rect1043-6-6"
           style="opacity:1;fill:#808e8e;fill-opacity:1;fill-rule:nonzero;stroke:none;stroke-width:2.02420425;stroke-linejoin:round;stroke-miterlimit:4;stroke-dasharray:none;stroke-opacity:1" />
        <rect
           y="2230.8164"
           x="2304.5864"
           height="16.570297"
           width="6.0494733"
           id="rect1043-6-1-9"
           style="opacity:1;fill:#808e8e;fill-opacity:1;fill-rule:nonzero;stroke:none;stroke-width:2.02420425;stroke-linejoin:round;stroke-miterlimit:4;stroke-dasharray:none;stroke-opacity:1" />
      </g>
      <g
         id="g1193">
        <rect
           y="1604.5643"
           x="2436.0967"
           height="89.953041"
           width="13.15103"
           id="rect1164"
           style="opacity:1;fill:#bfc0c2;fill-opacity:1;fill-rule:nonzero;stroke:none;stroke-width:3.30999994;stroke-linejoin:round;stroke-miterlimit:4;stroke-dasharray:none;stroke-opacity:1" />
        <rect
           y="1604.3013"
           x="2487.9119"
           height="89.953041"
           width="13.15103"
           id="rect1164-3"
           style="opacity:1;fill:#bfc0c2;fill-opacity:1;fill-rule:nonzero;stroke:none;stroke-width:3.30999994;stroke-linejoin:round;stroke-miterlimit:4;stroke-dasharray:none;stroke-opacity:1" />
        <rect
           y="1604.3014"
           x="2461.0837"
           height="54.18224"
           width="13.15103"
           id="rect1164-7"
           style="opacity:1;fill:#bfc0c2;fill-opacity:1;fill-rule:nonzero;stroke:none;stroke-width:2.56890798;stroke-linejoin:round;stroke-miterlimit:4;stroke-dasharray:none;stroke-opacity:1" />
        <rect
           y="1630.3405"
           x="2432.4146"
           height="39.979126"
           width="75.749924"
           id="rect1187"
           style="opacity:1;fill:#040b0d;fill-opacity:1;fill-rule:nonzero;stroke:none;stroke-width:1.12706351;stroke-linejoin:round;stroke-miterlimit:4;stroke-dasharray:none;stroke-opacity:1" />
      </g>
      <g
         id="g1239">
        <rect
           transform="rotate(45.000001)"
           y="-146.35147"
           x="3192.9578"
           height="22.318037"
           width="22.318037"
           id="rect1205"
           style="opacity:1;fill:#c9cfcb;fill-opacity:1;fill-rule:nonzero;stroke:none;stroke-width:3.30999994;stroke-linejoin:round;stroke-miterlimit:4;stroke-dasharray:none;stroke-opacity:1" />
        <rect
           transform="rotate(45.000001)"
           y="-145.56258"
           x="3227.4136"
           height="22.318037"
           width="22.318037"
           id="rect1205-4"
           style="opacity:1;fill:#c9cfcb;fill-opacity:1;fill-rule:nonzero;stroke:none;stroke-width:3.30999994;stroke-linejoin:round;stroke-miterlimit:4;stroke-dasharray:none;stroke-opacity:1" />
        <rect
           inkscape:transform-center-y="5.5795094"
           inkscape:transform-center-x="-2.2318038"
           transform="rotate(45.000001)"
           y="-120.31261"
           x="3230.0437"
           height="22.318037"
           width="22.318037"
           id="rect1205-5"
           style="opacity:1;fill:#c9cfcb;fill-opacity:1;fill-rule:nonzero;stroke:none;stroke-width:3.30999994;stroke-linejoin:round;stroke-miterlimit:4;stroke-dasharray:none;stroke-opacity:1" />
        <rect
           inkscape:transform-center-y="5.5117931"
           inkscape:transform-center-x="2.8354988"
           transform="matrix(0.75670547,0.65375595,-0.75670549,0.65375592,0,0)"
           y="115.29555"
           x="3210.6584"
           height="19.872065"
           width="19.872065"
           id="rect1205-2"
           style="opacity:1;fill:#c9cfcb;fill-opacity:1;fill-rule:nonzero;stroke:none;stroke-width:2.94723654;stroke-linejoin:round;stroke-miterlimit:4;stroke-dasharray:none;stroke-opacity:1" />
        <rect
           transform="matrix(0.69538087,0.71864139,-0.73169167,0.68163576,0,0)"
           y="-192.70773"
           x="3188.2239"
           height="35.546703"
           width="57.885208"
           id="rect1203"
           style="opacity:1;fill:#5e585a;fill-opacity:1;fill-rule:nonzero;stroke:none;stroke-width:5.22069979;stroke-linejoin:round;stroke-miterlimit:4;stroke-dasharray:none;stroke-opacity:1" />
      </g>
      <g
         transform="matrix(-0.29289321,0,0,-0.51145428,2435.987,3220.7297)"
         id="g886-0-5"
         style="opacity:1">
        <rect
           y="1604.6669"
           x="1943.5291"
           height="30.129351"
           width="42.776237"
           id="rect851-23-4"
           style="opacity:1;fill:#14191d;fill-opacity:1;fill-rule:nonzero;stroke:none;stroke-width:3.30999994;stroke-linejoin:round;stroke-miterlimit:4;stroke-dasharray:none;stroke-opacity:1" />
        <rect
           y="1589.0442"
           x="1943.5291"
           height="15.622626"
           width="42.776237"
           id="rect851-3-75-7"
           style="opacity:1;fill:#9ea8b2;fill-opacity:1;fill-rule:nonzero;stroke:none;stroke-width:2.38347244;stroke-linejoin:round;stroke-miterlimit:4;stroke-dasharray:none;stroke-opacity:1" />
        <rect
           y="1634.7963"
           x="1943.5291"
           height="15.622626"
           width="42.776237"
           id="rect851-3-6-922-4"
           style="opacity:1;fill:#9ea8b2;fill-opacity:1;fill-rule:nonzero;stroke:none;stroke-width:2.38347244;stroke-linejoin:round;stroke-miterlimit:4;stroke-dasharray:none;stroke-opacity:1" />
      </g>
      <g
         transform="matrix(-0.29289321,0,0,-0.51145428,2439.0118,3019.256)"
         id="g886-0-5-8"
         style="opacity:1">
        <rect
           y="1604.6669"
           x="1943.5291"
           height="30.129351"
           width="42.776237"
           id="rect851-23-4-6"
           style="opacity:1;fill:#14191d;fill-opacity:1;fill-rule:nonzero;stroke:none;stroke-width:3.30999994;stroke-linejoin:round;stroke-miterlimit:4;stroke-dasharray:none;stroke-opacity:1" />
        <rect
           y="1589.0442"
           x="1943.5291"
           height="15.622626"
           width="42.776237"
           id="rect851-3-75-7-8"
           style="opacity:1;fill:#9ea8b2;fill-opacity:1;fill-rule:nonzero;stroke:none;stroke-width:2.38347244;stroke-linejoin:round;stroke-miterlimit:4;stroke-dasharray:none;stroke-opacity:1" />
        <rect
           y="1634.7963"
           x="1943.5291"
           height="15.622626"
           width="42.776237"
           id="rect851-3-6-922-4-8"
           style="opacity:1;fill:#9ea8b2;fill-opacity:1;fill-rule:nonzero;stroke:none;stroke-width:2.38347244;stroke-linejoin:round;stroke-miterlimit:4;stroke-dasharray:none;stroke-opacity:1" />
      </g>
    </g>
  </g>
  <g
     id="g6053"
     inkscape:label="verso">
    <path
       inkscape:connector-curvature="0"
       id="rect112-1"
       d="M 1221.9878,1309.4192 V 2449.7194 H 307.57149 V 1309.4192 Z m -856.02457,80.4237 a 43.417965,46.866654 0 0 0 -37.03001,22.4755 42.888476,42.415633 0 0 0 -6.91813,23.082 42.888476,42.415633 0 0 0 1.36629,10.4056 43.417965,46.866654 0 0 0 42.58185,37.7709 43.417965,46.866654 0 0 0 43.41739,-46.8661 43.417965,46.866654 0 0 0 -43.41739,-46.8679 z m 792.50967,884.1827 a 44.344563,47.128481 0 0 0 -44.3453,47.1285 44.344563,47.128481 0 0 0 44.3453,47.1286 44.344563,47.128481 0 0 0 44.3433,-47.1286 44.344563,47.128481 0 0 0 -0.4561,-6.3595 43.645321,42.757672 0 0 0 -10.8519,-25.0069 44.344563,47.128481 0 0 0 -33.0353,-15.7621 z"
       style="display:inline;opacity:1;fill:#00524e;fill-opacity:1;fill-rule:nonzero;stroke:none;stroke-width:62.24478912;stroke-linejoin:round;stroke-miterlimit:4;stroke-dasharray:none;stroke-opacity:1"
       inkscape:label="carte" />
    <g
       transform="translate(9.474,12)"
       inkscape:label="rondelle"
       id="g2996">
      <path
         style="opacity:1;fill:#eeb204;fill-opacity:1;fill-rule:nonzero;stroke:none;stroke-width:3.36233854;stroke-linejoin:round;stroke-miterlimit:4;stroke-dasharray:none;stroke-opacity:1"
         d="m 356.48927,1364.4523 a 59.550814,61.374603 0 0 1 59.551,61.375 59.550814,61.374603 0 0 1 -59.551,61.375 59.550814,61.374603 0 0 1 -56.4874,-42.1855 v -38.4688 a 59.550814,61.374603 0 0 1 56.4874,-42.0957 z m 0,13.3906 a 42.745061,46.495911 0 0 0 -42.7464,46.4961 42.745061,46.495911 0 0 0 42.7464,46.4961 42.745061,46.495911 0 0 0 42.7445,-46.4961 42.745061,46.495911 0 0 0 -42.7445,-46.4961 z"
         id="path18-9"
         inkscape:connector-curvature="0" />
      <path
         style="opacity:1;fill:#eeb204;fill-opacity:1;fill-rule:nonzero;stroke:none;stroke-width:3.91859937;stroke-linejoin:round;stroke-miterlimit:4;stroke-dasharray:none;stroke-opacity:1"
         d="m 1149.2626,2247.8225 a 59.442654,60.757755 0 0 1 59.4414,60.7578 59.442654,60.757755 0 0 1 -59.4414,60.7578 59.442654,60.757755 0 0 1 -59.4434,-60.7578 59.442654,60.757755 0 0 1 59.4434,-60.7578 z m -0.2637,14.2031 a 42.872353,46.291622 0 0 0 -42.8731,46.293 42.872353,46.291622 0 0 0 42.8731,46.291 42.872353,46.291622 0 0 0 42.8711,-46.291 42.872353,46.291622 0 0 0 -42.8711,-46.293 z"
         id="path842-5"
         inkscape:connector-curvature="0" />
    </g>
    <g
       inkscape:label="points"
       id="g2992">
      <circle
         style="opacity:1;fill:#eeb204;fill-opacity:1;fill-rule:nonzero;stroke:none;stroke-width:3.30999994;stroke-linejoin:round;stroke-miterlimit:4;stroke-dasharray:none;stroke-opacity:1"
         id="path972-3"
         cx="-1072.3236"
         cy="2403.9961"
         r="13.41405"
         transform="scale(-1,1)" />
      <circle
         style="opacity:1;fill:#eeb204;fill-opacity:1;fill-rule:nonzero;stroke:none;stroke-width:3.30999994;stroke-linejoin:round;stroke-miterlimit:4;stroke-dasharray:none;stroke-opacity:1"
         id="path972-8-9"
         cx="-1154.6273"
         cy="1329.0759"
         r="13.41405"
         transform="scale(-1,1)" />
      <circle
         style="opacity:1;fill:#eeb204;fill-opacity:1;fill-rule:nonzero;stroke:none;stroke-width:3.30999994;stroke-linejoin:round;stroke-miterlimit:4;stroke-dasharray:none;stroke-opacity:1"
         id="path972-9-0"
         cx="-396.88687"
         cy="1343.4968"
         r="13.41405"
         transform="scale(-1,1)" />
    </g>
    <g
       inkscape:label="lamelle"
       id="g5342">
      <g
         transform="matrix(4.4203389,0,0,4.0672968,-1871.1933,-1940.962)"
         id="g1971-5"
         inkscape:label="barette gauche">
        <rect
           y="905.73944"
           x="507.33914"
           height="95.5"
           width="5.5"
           id="rect1633-8-9"
           style="opacity:1;fill:#09131e;fill-opacity:1;fill-rule:nonzero;stroke:none;stroke-width:3.92261076;stroke-linejoin:round;stroke-miterlimit:4;stroke-dasharray:none;stroke-opacity:1" />
        <rect
           y="902.92694"
           x="505.91089"
           height="2.8125002"
           width="8.3565063"
           id="rect1633-4-85-4"
           style="opacity:1;fill:#263a49;fill-opacity:1;fill-rule:nonzero;stroke:none;stroke-width:0.8297568;stroke-linejoin:round;stroke-miterlimit:4;stroke-dasharray:none;stroke-opacity:1" />
        <rect
           y="1001.2606"
           x="505.7674"
           height="2.8125002"
           width="8.5"
           id="rect1633-4-8-0-6"
           style="opacity:1;fill:#152a38;fill-opacity:1;fill-rule:nonzero;stroke:none;stroke-width:0.83685058;stroke-linejoin:round;stroke-miterlimit:4;stroke-dasharray:none;stroke-opacity:1" />
        <rect
           y="905.73944"
           x="512.83911"
           height="95.521187"
           width="1.4282506"
           id="rect1633-4-1-96-9"
           style="opacity:1;fill:#a8ae8d;fill-opacity:1;fill-rule:nonzero;stroke:none;stroke-width:1.99914479;stroke-linejoin:round;stroke-miterlimit:4;stroke-dasharray:none;stroke-opacity:1" />
        <rect
           y="905.73944"
           x="505.91089"
           height="95.521187"
           width="1.4282506"
           id="rect1633-4-1-2-3-2"
           style="opacity:1;fill:#a8ae8d;fill-opacity:1;fill-rule:nonzero;stroke:none;stroke-width:1.99914479;stroke-linejoin:round;stroke-miterlimit:4;stroke-dasharray:none;stroke-opacity:1" />
        <rect
           y="905.73944"
           x="514.2674"
           height="95.521149"
           width="5.2499971"
           id="rect1633-4-1-9-8-2"
           style="opacity:1;fill:#95a4b6;fill-opacity:1;fill-rule:nonzero;stroke:none;stroke-width:3.83284712;stroke-linejoin:round;stroke-miterlimit:4;stroke-dasharray:none;stroke-opacity:1" />
        <rect
           y="905.73944"
           x="500.79514"
           height="95.521187"
           width="5.1157503"
           id="rect1633-4-1-9-9-5-4"
           style="opacity:1;fill:#95a4b6;fill-opacity:1;fill-rule:nonzero;stroke:none;stroke-width:3.78352618;stroke-linejoin:round;stroke-miterlimit:4;stroke-dasharray:none;stroke-opacity:1" />
      </g>
      <g
         transform="matrix(4.4203389,0,0,4.0672968,-1134.6981,-1943.9377)"
         id="g1971-5-7"
         inkscape:label="barette gauche">
        <rect
           y="905.73944"
           x="507.33914"
           height="95.5"
           width="5.5"
           id="rect1633-8-9-7"
           style="opacity:1;fill:#09131e;fill-opacity:1;fill-rule:nonzero;stroke:none;stroke-width:3.92261076;stroke-linejoin:round;stroke-miterlimit:4;stroke-dasharray:none;stroke-opacity:1" />
        <rect
           y="902.92694"
           x="505.91089"
           height="2.8125002"
           width="8.3565063"
           id="rect1633-4-85-4-5"
           style="opacity:1;fill:#263a49;fill-opacity:1;fill-rule:nonzero;stroke:none;stroke-width:0.8297568;stroke-linejoin:round;stroke-miterlimit:4;stroke-dasharray:none;stroke-opacity:1" />
        <rect
           y="1001.2606"
           x="505.7674"
           height="2.8125002"
           width="8.5"
           id="rect1633-4-8-0-6-4"
           style="opacity:1;fill:#152a38;fill-opacity:1;fill-rule:nonzero;stroke:none;stroke-width:0.83685058;stroke-linejoin:round;stroke-miterlimit:4;stroke-dasharray:none;stroke-opacity:1" />
        <rect
           y="905.73944"
           x="512.83911"
           height="95.521187"
           width="1.4282506"
           id="rect1633-4-1-96-9-8"
           style="opacity:1;fill:#a8ae8d;fill-opacity:1;fill-rule:nonzero;stroke:none;stroke-width:1.99914479;stroke-linejoin:round;stroke-miterlimit:4;stroke-dasharray:none;stroke-opacity:1" />
        <rect
           y="905.73944"
           x="505.91089"
           height="95.521187"
           width="1.4282506"
           id="rect1633-4-1-2-3-2-1"
           style="opacity:1;fill:#a8ae8d;fill-opacity:1;fill-rule:nonzero;stroke:none;stroke-width:1.99914479;stroke-linejoin:round;stroke-miterlimit:4;stroke-dasharray:none;stroke-opacity:1" />
        <rect
           y="905.73944"
           x="514.2674"
           height="95.521149"
           width="5.2499971"
           id="rect1633-4-1-9-8-2-2"
           style="opacity:1;fill:#95a4b6;fill-opacity:1;fill-rule:nonzero;stroke:none;stroke-width:3.83284712;stroke-linejoin:round;stroke-miterlimit:4;stroke-dasharray:none;stroke-opacity:1" />
        <rect
           y="905.73944"
           x="500.79514"
           height="95.521187"
           width="5.1157503"
           id="rect1633-4-1-9-9-5-4-8"
           style="opacity:1;fill:#95a4b6;fill-opacity:1;fill-rule:nonzero;stroke:none;stroke-width:3.78352618;stroke-linejoin:round;stroke-miterlimit:4;stroke-dasharray:none;stroke-opacity:1" />
      </g>
    </g>
    <g
       inkscape:label="gros composants"
       id="g5351">
      <rect
         style="opacity:1;fill:#07121b;fill-opacity:1;fill-rule:nonzero;stroke:none;stroke-width:5.10657167;stroke-linejoin:round;stroke-miterlimit:4;stroke-dasharray:none;stroke-opacity:1"
         id="rect4637"
         width="345.18564"
         height="305.01315"
         x="458.2637"
         y="2135.0925" />
      <g
         id="g5324">
        <rect
           y="2210.9736"
           x="874.86707"
           height="131.67642"
           width="133.90822"
           id="rect4675"
           style="opacity:1;fill:#16222a;fill-opacity:1;fill-rule:nonzero;stroke:none;stroke-width:2.80110526;stroke-linejoin:round;stroke-miterlimit:4;stroke-dasharray:none;stroke-opacity:1" />
        <rect
           y="2222.1328"
           x="1008.7753"
           height="107.12657"
           width="14.134754"
           id="rect4677"
           style="opacity:1;fill:#95a4b6;fill-opacity:1;fill-rule:nonzero;stroke:none;stroke-width:1.02191496;stroke-linejoin:round;stroke-miterlimit:4;stroke-dasharray:none;stroke-opacity:1" />
        <rect
           y="2224.2498"
           x="861.21295"
           height="107.12657"
           width="14.134754"
           id="rect4677-2"
           style="opacity:1;fill:#95a4b6;fill-opacity:1;fill-rule:nonzero;stroke:none;stroke-width:1.02191496;stroke-linejoin:round;stroke-miterlimit:4;stroke-dasharray:none;stroke-opacity:1" />
        <rect
           transform="rotate(-90)"
           y="889.6286"
           x="-2357.032"
           height="107.12657"
           width="14.134754"
           id="rect4677-9"
           style="opacity:1;fill:#95a4b6;fill-opacity:1;fill-rule:nonzero;stroke:none;stroke-width:1.02191496;stroke-linejoin:round;stroke-miterlimit:4;stroke-dasharray:none;stroke-opacity:1" />
        <rect
           transform="rotate(90)"
           y="-994.91406"
           x="2196.9209"
           height="107.12657"
           width="14.134754"
           id="rect4677-90"
           style="opacity:1;fill:#95a4b6;fill-opacity:1;fill-rule:nonzero;stroke:none;stroke-width:1.02191496;stroke-linejoin:round;stroke-miterlimit:4;stroke-dasharray:none;stroke-opacity:1" />
      </g>
    </g>
    <g
       inkscape:label="composant"
       id="g5852">
      <g
         transform="rotate(-46.531213,1881.0057,3966.3097)"
         id="g1239-0">
        <rect
           transform="rotate(45.000001)"
           y="-146.35147"
           x="3192.9578"
           height="22.318037"
           width="22.318037"
           id="rect1205-51"
           style="opacity:1;fill:#c9cfcb;fill-opacity:1;fill-rule:nonzero;stroke:none;stroke-width:3.30999994;stroke-linejoin:round;stroke-miterlimit:4;stroke-dasharray:none;stroke-opacity:1" />
        <rect
           transform="rotate(45.000001)"
           y="-145.56258"
           x="3227.4136"
           height="22.318037"
           width="22.318037"
           id="rect1205-4-1"
           style="opacity:1;fill:#c9cfcb;fill-opacity:1;fill-rule:nonzero;stroke:none;stroke-width:3.30999994;stroke-linejoin:round;stroke-miterlimit:4;stroke-dasharray:none;stroke-opacity:1" />
        <rect
           inkscape:transform-center-y="5.5795094"
           inkscape:transform-center-x="-2.2318038"
           transform="rotate(45.000001)"
           y="-120.31261"
           x="3230.0437"
           height="22.318037"
           width="22.318037"
           id="rect1205-5-0"
           style="opacity:1;fill:#c9cfcb;fill-opacity:1;fill-rule:nonzero;stroke:none;stroke-width:3.30999994;stroke-linejoin:round;stroke-miterlimit:4;stroke-dasharray:none;stroke-opacity:1" />
        <rect
           inkscape:transform-center-y="5.9103016"
           inkscape:transform-center-x="2.6193139"
           transform="matrix(0.76699485,0.64165326,-0.75251567,0.65857434,0,0)"
           y="167.30319"
           x="3220.616"
           height="21.303022"
           width="18.38784"
           id="rect1205-2-8"
           style="opacity:1;fill:#c9cfcb;fill-opacity:1;fill-rule:nonzero;stroke:none;stroke-width:2.93533707;stroke-linejoin:round;stroke-miterlimit:4;stroke-dasharray:none;stroke-opacity:1" />
        <rect
           transform="matrix(0.69581068,0.71822524,-0.73136616,0.68198499,0,0)"
           y="-190.76358"
           x="3188.3521"
           height="37.616161"
           width="57.885574"
           id="rect1203-5"
           style="opacity:1;fill:#5e585a;fill-opacity:1;fill-rule:nonzero;stroke:none;stroke-width:5.37053633;stroke-linejoin:round;stroke-miterlimit:4;stroke-dasharray:none;stroke-opacity:1" />
      </g>
      <g
         id="g5312">
        <g
           inkscape:label="g886-61-8"
           id="g886-61-8"
           transform="matrix(0,0.81553736,-1.1628486,0,2812.7065,-0.29119017)">
          <rect
             style="opacity:1;fill:#7f8073;fill-opacity:1;fill-rule:nonzero;stroke:none;stroke-width:3.30999994;stroke-linejoin:round;stroke-miterlimit:4;stroke-dasharray:none;stroke-opacity:1"
             id="rect851-8-6"
             width="42.776237"
             height="30.129351"
             x="1943.5291"
             y="1604.6669" />
          <rect
             style="opacity:1;fill:#9ea8b2;fill-opacity:1;fill-rule:nonzero;stroke:none;stroke-width:2.38347244;stroke-linejoin:round;stroke-miterlimit:4;stroke-dasharray:none;stroke-opacity:1"
             id="rect851-3-7-0"
             width="42.776237"
             height="15.622626"
             x="1943.5291"
             y="1589.0442" />
          <rect
             style="opacity:1;fill:#9ea8b2;fill-opacity:1;fill-rule:nonzero;stroke:none;stroke-width:2.38347244;stroke-linejoin:round;stroke-miterlimit:4;stroke-dasharray:none;stroke-opacity:1"
             id="rect851-3-6-92-4"
             width="42.776237"
             height="15.622626"
             x="1943.5291"
             y="1634.7963" />
        </g>
        <g
           inkscape:label="g886-61-8"
           id="g886-61-8-8"
           transform="matrix(-0.81553736,0,0,-1.1628486,2609.3062,3507.5305)">
          <rect
             style="opacity:1;fill:#7f8073;fill-opacity:1;fill-rule:nonzero;stroke:none;stroke-width:3.30999994;stroke-linejoin:round;stroke-miterlimit:4;stroke-dasharray:none;stroke-opacity:1"
             id="rect851-8-6-8"
             width="42.776237"
             height="30.129351"
             x="1943.5291"
             y="1604.6669" />
          <rect
             style="opacity:1;fill:#9ea8b2;fill-opacity:1;fill-rule:nonzero;stroke:none;stroke-width:2.38347244;stroke-linejoin:round;stroke-miterlimit:4;stroke-dasharray:none;stroke-opacity:1"
             id="rect851-3-7-0-8"
             width="42.776237"
             height="15.622626"
             x="1943.5291"
             y="1589.0442" />
          <rect
             style="opacity:1;fill:#9ea8b2;fill-opacity:1;fill-rule:nonzero;stroke:none;stroke-width:2.38347244;stroke-linejoin:round;stroke-miterlimit:4;stroke-dasharray:none;stroke-opacity:1"
             id="rect851-3-6-92-4-9"
             width="42.776237"
             height="15.622626"
             x="1943.5291"
             y="1634.7963" />
        </g>
        <g
           inkscape:label="g886-61-8"
           id="g886-61-8-7"
           transform="matrix(0,0.81553736,-1.1628486,0,2810.9131,-139.93009)">
          <rect
             style="opacity:1;fill:#7f8073;fill-opacity:1;fill-rule:nonzero;stroke:none;stroke-width:3.30999994;stroke-linejoin:round;stroke-miterlimit:4;stroke-dasharray:none;stroke-opacity:1"
             id="rect851-8-6-7"
             width="42.776237"
             height="30.129351"
             x="1943.5291"
             y="1604.6669" />
          <rect
             style="opacity:1;fill:#9ea8b2;fill-opacity:1;fill-rule:nonzero;stroke:none;stroke-width:2.38347244;stroke-linejoin:round;stroke-miterlimit:4;stroke-dasharray:none;stroke-opacity:1"
             id="rect851-3-7-0-6"
             width="42.776237"
             height="15.622626"
             x="1943.5291"
             y="1589.0442" />
          <rect
             style="opacity:1;fill:#9ea8b2;fill-opacity:1;fill-rule:nonzero;stroke:none;stroke-width:2.38347244;stroke-linejoin:round;stroke-miterlimit:4;stroke-dasharray:none;stroke-opacity:1"
             id="rect851-3-6-92-4-4"
             width="42.776237"
             height="15.622626"
             x="1943.5291"
             y="1634.7963" />
        </g>
        <g
           inkscape:label="g886-61-8"
           id="g886-61-8-3"
           transform="matrix(0,0.81553736,-1.1628486,0,2810.3871,-221.46647)">
          <rect
             style="opacity:1;fill:#7f8073;fill-opacity:1;fill-rule:nonzero;stroke:none;stroke-width:3.30999994;stroke-linejoin:round;stroke-miterlimit:4;stroke-dasharray:none;stroke-opacity:1"
             id="rect851-8-6-0"
             width="42.776237"
             height="30.129351"
             x="1943.5291"
             y="1604.6669" />
          <rect
             style="opacity:1;fill:#9ea8b2;fill-opacity:1;fill-rule:nonzero;stroke:none;stroke-width:2.38347244;stroke-linejoin:round;stroke-miterlimit:4;stroke-dasharray:none;stroke-opacity:1"
             id="rect851-3-7-0-3"
             width="42.776237"
             height="15.622626"
             x="1943.5291"
             y="1589.0442" />
          <rect
             style="opacity:1;fill:#9ea8b2;fill-opacity:1;fill-rule:nonzero;stroke:none;stroke-width:2.38347244;stroke-linejoin:round;stroke-miterlimit:4;stroke-dasharray:none;stroke-opacity:1"
             id="rect851-3-6-92-4-0"
             width="42.776237"
             height="15.622626"
             x="1943.5291"
             y="1634.7963" />
        </g>
      </g>
      <g
         transform="matrix(-0.81553736,0,0,-1.1628486,2442.0252,4249.7745)"
         id="g886-61-8-9"
         inkscape:label="g886-61-8">
        <rect
           y="1604.6669"
           x="1943.5291"
           height="30.129351"
           width="42.776237"
           id="rect851-8-6-2"
           style="opacity:1;fill:#242e38;fill-opacity:1;fill-rule:nonzero;stroke:none;stroke-width:3.30999994;stroke-linejoin:round;stroke-miterlimit:4;stroke-dasharray:none;stroke-opacity:1" />
        <rect
           y="1589.0442"
           x="1943.5291"
           height="15.622626"
           width="42.776237"
           id="rect851-3-7-0-5"
           style="opacity:1;fill:#9ea8b2;fill-opacity:1;fill-rule:nonzero;stroke:none;stroke-width:2.38347244;stroke-linejoin:round;stroke-miterlimit:4;stroke-dasharray:none;stroke-opacity:1" />
        <rect
           y="1634.7963"
           x="1943.5291"
           height="15.622626"
           width="42.776237"
           id="rect851-3-6-92-4-40"
           style="opacity:1;fill:#9ea8b2;fill-opacity:1;fill-rule:nonzero;stroke:none;stroke-width:2.38347244;stroke-linejoin:round;stroke-miterlimit:4;stroke-dasharray:none;stroke-opacity:1" />
      </g>
      <g
         transform="rotate(90,1055.8291,901.36969)"
         id="g1440-9">
        <rect
           transform="rotate(90)"
           y="-1718.303"
           x="1546.8259"
           height="50.587551"
           width="26.03771"
           id="rect1004-36"
           style="opacity:1;fill:#dae0e6;fill-opacity:1;fill-rule:nonzero;stroke:none;stroke-width:3.42219782;stroke-linejoin:round;stroke-miterlimit:4;stroke-dasharray:none;stroke-opacity:1" />
        <rect
           transform="rotate(90)"
           y="-1716.629"
           x="1613.5941"
           height="49.099682"
           width="27.897547"
           id="rect1004-7-8"
           style="opacity:1;fill:#dae0e6;fill-opacity:1;fill-rule:nonzero;stroke:none;stroke-width:3.48982954;stroke-linejoin:round;stroke-miterlimit:4;stroke-dasharray:none;stroke-opacity:1" />
        <rect
           transform="scale(-1)"
           y="-1636.6561"
           x="-1707.7018"
           height="85.924446"
           width="39.056564"
           id="rect1004-3-0"
           style="display:inline;opacity:1;fill:#9ea08a;fill-opacity:1;fill-rule:nonzero;stroke:none;stroke-width:5.46244764;stroke-linejoin:round;stroke-miterlimit:4;stroke-dasharray:none;stroke-opacity:1" />
        <rect
           y="1553.7074"
           x="1671.249"
           height="79.972969"
           width="33.477055"
           id="rect1027-2"
           style="display:inline;opacity:1;fill:url(#meshgradient4599);fill-opacity:1;fill-rule:nonzero;stroke:none;stroke-width:7.19781446;stroke-linejoin:round;stroke-miterlimit:4;stroke-dasharray:none;stroke-opacity:1" />
      </g>
      <g
         id="g5317">
        <rect
           y="1582.4707"
           x="316.15076"
           height="64.703064"
           width="69.963478"
           id="rect4618"
           style="opacity:1;fill:#162730;fill-opacity:1;fill-rule:nonzero;stroke:none;stroke-width:4.58494043;stroke-linejoin:round;stroke-miterlimit:4;stroke-dasharray:none;stroke-opacity:1" />
        <rect
           transform="matrix(0,-1,-1,0,0,0)"
           y="-380.29587"
           x="-1582.5026"
           height="59.442654"
           width="8.9427013"
           id="rect4620"
           style="opacity:1;fill:#98a4b1;fill-opacity:1;fill-rule:nonzero;stroke:none;stroke-width:1.99425995;stroke-linejoin:round;stroke-miterlimit:4;stroke-dasharray:none;stroke-opacity:1" />
        <rect
           transform="matrix(0,-1,-1,0,0,0)"
           y="-382.39456"
           x="-1656.1166"
           height="59.442654"
           width="8.9427013"
           id="rect4620-1"
           style="opacity:1;fill:#98a4b1;fill-opacity:1;fill-rule:nonzero;stroke:none;stroke-width:1.99425995;stroke-linejoin:round;stroke-miterlimit:4;stroke-dasharray:none;stroke-opacity:1" />
      </g>
      <g
         id="g5294">
        <g
           id="g1078-47-8"
           transform="translate(-1350.9576,-719.57204)">
          <rect
             style="opacity:1;fill:#827462;fill-opacity:1;fill-rule:nonzero;stroke:none;stroke-width:3.30999994;stroke-linejoin:round;stroke-miterlimit:4;stroke-dasharray:none;stroke-opacity:1"
             id="rect1043-65-1"
             width="16.175766"
             height="16.570297"
             x="2288.4106"
             y="2230.8164" />
          <rect
             style="opacity:1;fill:#808e8e;fill-opacity:1;fill-rule:nonzero;stroke:none;stroke-width:2.02420425;stroke-linejoin:round;stroke-miterlimit:4;stroke-dasharray:none;stroke-opacity:1"
             id="rect1043-6-6-3"
             width="6.0494733"
             height="16.570297"
             x="2282.3611"
             y="2230.8164" />
          <rect
             style="opacity:1;fill:#808e8e;fill-opacity:1;fill-rule:nonzero;stroke:none;stroke-width:2.02420425;stroke-linejoin:round;stroke-miterlimit:4;stroke-dasharray:none;stroke-opacity:1"
             id="rect1043-6-1-9-1"
             width="6.0494733"
             height="16.570297"
             x="2304.5864"
             y="2230.8164" />
        </g>
        <g
           id="g1078-47-8-1"
           transform="translate(-1350.5857,-688.3699)">
          <rect
             style="opacity:1;fill:#827462;fill-opacity:1;fill-rule:nonzero;stroke:none;stroke-width:3.30999994;stroke-linejoin:round;stroke-miterlimit:4;stroke-dasharray:none;stroke-opacity:1"
             id="rect1043-65-1-0"
             width="16.175766"
             height="16.570297"
             x="2288.4106"
             y="2230.8164" />
          <rect
             style="opacity:1;fill:#808e8e;fill-opacity:1;fill-rule:nonzero;stroke:none;stroke-width:2.02420425;stroke-linejoin:round;stroke-miterlimit:4;stroke-dasharray:none;stroke-opacity:1"
             id="rect1043-6-6-3-3"
             width="6.0494733"
             height="16.570297"
             x="2282.3611"
             y="2230.8164" />
          <rect
             style="opacity:1;fill:#808e8e;fill-opacity:1;fill-rule:nonzero;stroke:none;stroke-width:2.02420425;stroke-linejoin:round;stroke-miterlimit:4;stroke-dasharray:none;stroke-opacity:1"
             id="rect1043-6-1-9-1-4"
             width="6.0494733"
             height="16.570297"
             x="2304.5864"
             y="2230.8164" />
        </g>
        <g
           id="g1078-47-8-0"
           transform="translate(-1578.9783,-875.46402)">
          <rect
             style="opacity:1;fill:#827462;fill-opacity:1;fill-rule:nonzero;stroke:none;stroke-width:3.30999994;stroke-linejoin:round;stroke-miterlimit:4;stroke-dasharray:none;stroke-opacity:1"
             id="rect1043-65-1-3"
             width="16.175766"
             height="16.570297"
             x="2288.4106"
             y="2230.8164" />
          <rect
             style="opacity:1;fill:#808e8e;fill-opacity:1;fill-rule:nonzero;stroke:none;stroke-width:2.02420425;stroke-linejoin:round;stroke-miterlimit:4;stroke-dasharray:none;stroke-opacity:1"
             id="rect1043-6-6-3-9"
             width="6.0494733"
             height="16.570297"
             x="2282.3611"
             y="2230.8164" />
          <rect
             style="opacity:1;fill:#808e8e;fill-opacity:1;fill-rule:nonzero;stroke:none;stroke-width:2.02420425;stroke-linejoin:round;stroke-miterlimit:4;stroke-dasharray:none;stroke-opacity:1"
             id="rect1043-6-1-9-1-1"
             width="6.0494733"
             height="16.570297"
             x="2304.5864"
             y="2230.8164" />
        </g>
        <g
           id="g1078-47-8-9"
           transform="translate(-1697.8636,-876.5161)">
          <rect
             style="opacity:1;fill:#827462;fill-opacity:1;fill-rule:nonzero;stroke:none;stroke-width:3.30999994;stroke-linejoin:round;stroke-miterlimit:4;stroke-dasharray:none;stroke-opacity:1"
             id="rect1043-65-1-6"
             width="16.175766"
             height="16.570297"
             x="2288.4106"
             y="2230.8164" />
          <rect
             style="opacity:1;fill:#808e8e;fill-opacity:1;fill-rule:nonzero;stroke:none;stroke-width:2.02420425;stroke-linejoin:round;stroke-miterlimit:4;stroke-dasharray:none;stroke-opacity:1"
             id="rect1043-6-6-3-93"
             width="6.0494733"
             height="16.570297"
             x="2282.3611"
             y="2230.8164" />
          <rect
             style="opacity:1;fill:#808e8e;fill-opacity:1;fill-rule:nonzero;stroke:none;stroke-width:2.02420425;stroke-linejoin:round;stroke-miterlimit:4;stroke-dasharray:none;stroke-opacity:1"
             id="rect1043-6-1-9-1-3"
             width="6.0494733"
             height="16.570297"
             x="2304.5864"
             y="2230.8164" />
        </g>
        <g
           id="g1078-47-8-8"
           transform="translate(-1753.624,-887.03693)">
          <rect
             style="opacity:1;fill:#827462;fill-opacity:1;fill-rule:nonzero;stroke:none;stroke-width:3.30999994;stroke-linejoin:round;stroke-miterlimit:4;stroke-dasharray:none;stroke-opacity:1"
             id="rect1043-65-1-05"
             width="16.175766"
             height="16.570297"
             x="2288.4106"
             y="2230.8164" />
          <rect
             style="opacity:1;fill:#808e8e;fill-opacity:1;fill-rule:nonzero;stroke:none;stroke-width:2.02420425;stroke-linejoin:round;stroke-miterlimit:4;stroke-dasharray:none;stroke-opacity:1"
             id="rect1043-6-6-3-6"
             width="6.0494733"
             height="16.570297"
             x="2282.3611"
             y="2230.8164" />
          <rect
             style="opacity:1;fill:#808e8e;fill-opacity:1;fill-rule:nonzero;stroke:none;stroke-width:2.02420425;stroke-linejoin:round;stroke-miterlimit:4;stroke-dasharray:none;stroke-opacity:1"
             id="rect1043-6-1-9-1-6"
             width="6.0494733"
             height="16.570297"
             x="2304.5864"
             y="2230.8164" />
        </g>
        <g
           id="g1078-47-8-4"
           transform="translate(-1558.9888,-613.49551)">
          <rect
             style="opacity:1;fill:#827462;fill-opacity:1;fill-rule:nonzero;stroke:none;stroke-width:3.30999994;stroke-linejoin:round;stroke-miterlimit:4;stroke-dasharray:none;stroke-opacity:1"
             id="rect1043-65-1-00"
             width="16.175766"
             height="16.570297"
             x="2288.4106"
             y="2230.8164" />
          <rect
             style="opacity:1;fill:#808e8e;fill-opacity:1;fill-rule:nonzero;stroke:none;stroke-width:2.02420425;stroke-linejoin:round;stroke-miterlimit:4;stroke-dasharray:none;stroke-opacity:1"
             id="rect1043-6-6-3-4"
             width="6.0494733"
             height="16.570297"
             x="2282.3611"
             y="2230.8164" />
          <rect
             style="opacity:1;fill:#808e8e;fill-opacity:1;fill-rule:nonzero;stroke:none;stroke-width:2.02420425;stroke-linejoin:round;stroke-miterlimit:4;stroke-dasharray:none;stroke-opacity:1"
             id="rect1043-6-1-9-1-62"
             width="6.0494733"
             height="16.570297"
             x="2304.5864"
             y="2230.8164" />
        </g>
        <g
           id="g1078-47-8-6"
           transform="translate(-1622.1136,-619.80801)">
          <rect
             style="opacity:1;fill:#827462;fill-opacity:1;fill-rule:nonzero;stroke:none;stroke-width:3.30999994;stroke-linejoin:round;stroke-miterlimit:4;stroke-dasharray:none;stroke-opacity:1"
             id="rect1043-65-1-7"
             width="16.175766"
             height="16.570297"
             x="2288.4106"
             y="2230.8164" />
          <rect
             style="opacity:1;fill:#808e8e;fill-opacity:1;fill-rule:nonzero;stroke:none;stroke-width:2.02420425;stroke-linejoin:round;stroke-miterlimit:4;stroke-dasharray:none;stroke-opacity:1"
             id="rect1043-6-6-3-5"
             width="6.0494733"
             height="16.570297"
             x="2282.3611"
             y="2230.8164" />
          <rect
             style="opacity:1;fill:#808e8e;fill-opacity:1;fill-rule:nonzero;stroke:none;stroke-width:2.02420425;stroke-linejoin:round;stroke-miterlimit:4;stroke-dasharray:none;stroke-opacity:1"
             id="rect1043-6-1-9-1-69"
             width="6.0494733"
             height="16.570297"
             x="2304.5864"
             y="2230.8164" />
        </g>
        <g
           id="g1078-47-8-87"
           transform="translate(-1690.4991,-626.12051)">
          <rect
             style="opacity:1;fill:#827462;fill-opacity:1;fill-rule:nonzero;stroke:none;stroke-width:3.30999994;stroke-linejoin:round;stroke-miterlimit:4;stroke-dasharray:none;stroke-opacity:1"
             id="rect1043-65-1-2"
             width="16.175766"
             height="16.570297"
             x="2288.4106"
             y="2230.8164" />
          <rect
             style="opacity:1;fill:#808e8e;fill-opacity:1;fill-rule:nonzero;stroke:none;stroke-width:2.02420425;stroke-linejoin:round;stroke-miterlimit:4;stroke-dasharray:none;stroke-opacity:1"
             id="rect1043-6-6-3-8"
             width="6.0494733"
             height="16.570297"
             x="2282.3611"
             y="2230.8164" />
          <rect
             style="opacity:1;fill:#808e8e;fill-opacity:1;fill-rule:nonzero;stroke:none;stroke-width:2.02420425;stroke-linejoin:round;stroke-miterlimit:4;stroke-dasharray:none;stroke-opacity:1"
             id="rect1043-6-1-9-1-2"
             width="6.0494733"
             height="16.570297"
             x="2304.5864"
             y="2230.8164" />
        </g>
        <g
           id="g1078-47-8-99"
           transform="translate(-1611.5929,-317.86037)">
          <rect
             style="opacity:1;fill:#827462;fill-opacity:1;fill-rule:nonzero;stroke:none;stroke-width:3.30999994;stroke-linejoin:round;stroke-miterlimit:4;stroke-dasharray:none;stroke-opacity:1"
             id="rect1043-65-1-60"
             width="16.175766"
             height="16.570297"
             x="2288.4106"
             y="2230.8164" />
          <rect
             style="opacity:1;fill:#808e8e;fill-opacity:1;fill-rule:nonzero;stroke:none;stroke-width:2.02420425;stroke-linejoin:round;stroke-miterlimit:4;stroke-dasharray:none;stroke-opacity:1"
             id="rect1043-6-6-3-2"
             width="6.0494733"
             height="16.570297"
             x="2282.3611"
             y="2230.8164" />
          <rect
             style="opacity:1;fill:#808e8e;fill-opacity:1;fill-rule:nonzero;stroke:none;stroke-width:2.02420425;stroke-linejoin:round;stroke-miterlimit:4;stroke-dasharray:none;stroke-opacity:1"
             id="rect1043-6-1-9-1-7"
             width="6.0494733"
             height="16.570297"
             x="2304.5864"
             y="2230.8164" />
        </g>
        <g
           id="g1078-47-8-61"
           transform="translate(-1529.5305,-326.27703)">
          <rect
             style="opacity:1;fill:#827462;fill-opacity:1;fill-rule:nonzero;stroke:none;stroke-width:3.30999994;stroke-linejoin:round;stroke-miterlimit:4;stroke-dasharray:none;stroke-opacity:1"
             id="rect1043-65-1-32"
             width="16.175766"
             height="16.570297"
             x="2288.4106"
             y="2230.8164" />
          <rect
             style="opacity:1;fill:#808e8e;fill-opacity:1;fill-rule:nonzero;stroke:none;stroke-width:2.02420425;stroke-linejoin:round;stroke-miterlimit:4;stroke-dasharray:none;stroke-opacity:1"
             id="rect1043-6-6-3-1"
             width="6.0494733"
             height="16.570297"
             x="2282.3611"
             y="2230.8164" />
          <rect
             style="opacity:1;fill:#808e8e;fill-opacity:1;fill-rule:nonzero;stroke:none;stroke-width:2.02420425;stroke-linejoin:round;stroke-miterlimit:4;stroke-dasharray:none;stroke-opacity:1"
             id="rect1043-6-1-9-1-5"
             width="6.0494733"
             height="16.570297"
             x="2304.5864"
             y="2230.8164" />
        </g>
        <g
           id="g1078-47-8-991"
           transform="translate(-1628.4261,-245.26668)">
          <rect
             style="opacity:1;fill:#827462;fill-opacity:1;fill-rule:nonzero;stroke:none;stroke-width:3.30999994;stroke-linejoin:round;stroke-miterlimit:4;stroke-dasharray:none;stroke-opacity:1"
             id="rect1043-65-1-4"
             width="16.175766"
             height="16.570297"
             x="2288.4106"
             y="2230.8164" />
          <rect
             style="opacity:1;fill:#808e8e;fill-opacity:1;fill-rule:nonzero;stroke:none;stroke-width:2.02420425;stroke-linejoin:round;stroke-miterlimit:4;stroke-dasharray:none;stroke-opacity:1"
             id="rect1043-6-6-3-91"
             width="6.0494733"
             height="16.570297"
             x="2282.3611"
             y="2230.8164" />
          <rect
             style="opacity:1;fill:#808e8e;fill-opacity:1;fill-rule:nonzero;stroke:none;stroke-width:2.02420425;stroke-linejoin:round;stroke-miterlimit:4;stroke-dasharray:none;stroke-opacity:1"
             id="rect1043-6-1-9-1-0"
             width="6.0494733"
             height="16.570297"
             x="2304.5864"
             y="2230.8164" />
        </g>
        <g
           id="g1078-47-8-7"
           transform="translate(-1463.2492,-241.05836)">
          <rect
             style="opacity:1;fill:#827462;fill-opacity:1;fill-rule:nonzero;stroke:none;stroke-width:3.30999994;stroke-linejoin:round;stroke-miterlimit:4;stroke-dasharray:none;stroke-opacity:1"
             id="rect1043-65-1-5"
             width="16.175766"
             height="16.570297"
             x="2288.4106"
             y="2230.8164" />
          <rect
             style="opacity:1;fill:#808e8e;fill-opacity:1;fill-rule:nonzero;stroke:none;stroke-width:2.02420425;stroke-linejoin:round;stroke-miterlimit:4;stroke-dasharray:none;stroke-opacity:1"
             id="rect1043-6-6-3-87"
             width="6.0494733"
             height="16.570297"
             x="2282.3611"
             y="2230.8164" />
          <rect
             style="opacity:1;fill:#808e8e;fill-opacity:1;fill-rule:nonzero;stroke:none;stroke-width:2.02420425;stroke-linejoin:round;stroke-miterlimit:4;stroke-dasharray:none;stroke-opacity:1"
             id="rect1043-6-1-9-1-04"
             width="6.0494733"
             height="16.570297"
             x="2304.5864"
             y="2230.8164" />
        </g>
        <g
           id="g1078-47-8-80"
           transform="translate(-1954.5717,56.680955)">
          <rect
             style="opacity:1;fill:#827462;fill-opacity:1;fill-rule:nonzero;stroke:none;stroke-width:3.30999994;stroke-linejoin:round;stroke-miterlimit:4;stroke-dasharray:none;stroke-opacity:1"
             id="rect1043-65-1-42"
             width="16.175766"
             height="16.570297"
             x="2288.4106"
             y="2230.8164" />
          <rect
             style="opacity:1;fill:#808e8e;fill-opacity:1;fill-rule:nonzero;stroke:none;stroke-width:2.02420425;stroke-linejoin:round;stroke-miterlimit:4;stroke-dasharray:none;stroke-opacity:1"
             id="rect1043-6-6-3-96"
             width="6.0494733"
             height="16.570297"
             x="2282.3611"
             y="2230.8164" />
          <rect
             style="opacity:1;fill:#808e8e;fill-opacity:1;fill-rule:nonzero;stroke:none;stroke-width:2.02420425;stroke-linejoin:round;stroke-miterlimit:4;stroke-dasharray:none;stroke-opacity:1"
             id="rect1043-6-1-9-1-10"
             width="6.0494733"
             height="16.570297"
             x="2304.5864"
             y="2230.8164" />
        </g>
        <g
           id="g1078-47-8-42"
           transform="translate(-1954.5718,25.118484)">
          <rect
             style="opacity:1;fill:#827462;fill-opacity:1;fill-rule:nonzero;stroke:none;stroke-width:3.30999994;stroke-linejoin:round;stroke-miterlimit:4;stroke-dasharray:none;stroke-opacity:1"
             id="rect1043-65-1-22"
             width="16.175766"
             height="16.570297"
             x="2288.4106"
             y="2230.8164" />
          <rect
             style="opacity:1;fill:#808e8e;fill-opacity:1;fill-rule:nonzero;stroke:none;stroke-width:2.02420425;stroke-linejoin:round;stroke-miterlimit:4;stroke-dasharray:none;stroke-opacity:1"
             id="rect1043-6-6-3-0"
             width="6.0494733"
             height="16.570297"
             x="2282.3611"
             y="2230.8164" />
          <rect
             style="opacity:1;fill:#808e8e;fill-opacity:1;fill-rule:nonzero;stroke:none;stroke-width:2.02420425;stroke-linejoin:round;stroke-miterlimit:4;stroke-dasharray:none;stroke-opacity:1"
             id="rect1043-6-1-9-1-55"
             width="6.0494733"
             height="16.570297"
             x="2304.5864"
             y="2230.8164" />
        </g>
        <g
           id="g1078-47-8-2"
           transform="translate(-1968.2488,-3.2877401)">
          <rect
             style="opacity:1;fill:#827462;fill-opacity:1;fill-rule:nonzero;stroke:none;stroke-width:3.30999994;stroke-linejoin:round;stroke-miterlimit:4;stroke-dasharray:none;stroke-opacity:1"
             id="rect1043-65-1-9"
             width="16.175766"
             height="16.570297"
             x="2288.4106"
             y="2230.8164" />
          <rect
             style="opacity:1;fill:#808e8e;fill-opacity:1;fill-rule:nonzero;stroke:none;stroke-width:2.02420425;stroke-linejoin:round;stroke-miterlimit:4;stroke-dasharray:none;stroke-opacity:1"
             id="rect1043-6-6-3-02"
             width="6.0494733"
             height="16.570297"
             x="2282.3611"
             y="2230.8164" />
          <rect
             style="opacity:1;fill:#808e8e;fill-opacity:1;fill-rule:nonzero;stroke:none;stroke-width:2.02420425;stroke-linejoin:round;stroke-miterlimit:4;stroke-dasharray:none;stroke-opacity:1"
             id="rect1043-6-1-9-1-8"
             width="6.0494733"
             height="16.570297"
             x="2304.5864"
             y="2230.8164" />
        </g>
        <g
           id="g1078-47-8-3"
           transform="rotate(90,1614.9135,1329.0832)">
          <rect
             style="opacity:1;fill:#827462;fill-opacity:1;fill-rule:nonzero;stroke:none;stroke-width:3.30999994;stroke-linejoin:round;stroke-miterlimit:4;stroke-dasharray:none;stroke-opacity:1"
             id="rect1043-65-1-8"
             width="16.175766"
             height="16.570297"
             x="2288.4106"
             y="2230.8164" />
          <rect
             style="opacity:1;fill:#808e8e;fill-opacity:1;fill-rule:nonzero;stroke:none;stroke-width:2.02420425;stroke-linejoin:round;stroke-miterlimit:4;stroke-dasharray:none;stroke-opacity:1"
             id="rect1043-6-6-3-04"
             width="6.0494733"
             height="16.570297"
             x="2282.3611"
             y="2230.8164" />
          <rect
             style="opacity:1;fill:#808e8e;fill-opacity:1;fill-rule:nonzero;stroke:none;stroke-width:2.02420425;stroke-linejoin:round;stroke-miterlimit:4;stroke-dasharray:none;stroke-opacity:1"
             id="rect1043-6-1-9-1-09"
             width="6.0494733"
             height="16.570297"
             x="2304.5864"
             y="2230.8164" />
        </g>
        <g
           id="g1078-47-8-3-1"
           transform="rotate(90,1667.5176,1326.9791)">
          <rect
             style="opacity:1;fill:#827462;fill-opacity:1;fill-rule:nonzero;stroke:none;stroke-width:3.30999994;stroke-linejoin:round;stroke-miterlimit:4;stroke-dasharray:none;stroke-opacity:1"
             id="rect1043-65-1-8-9"
             width="16.175766"
             height="16.570297"
             x="2288.4106"
             y="2230.8164" />
          <rect
             style="opacity:1;fill:#808e8e;fill-opacity:1;fill-rule:nonzero;stroke:none;stroke-width:2.02420425;stroke-linejoin:round;stroke-miterlimit:4;stroke-dasharray:none;stroke-opacity:1"
             id="rect1043-6-6-3-04-6"
             width="6.0494733"
             height="16.570297"
             x="2282.3611"
             y="2230.8164" />
          <rect
             style="opacity:1;fill:#808e8e;fill-opacity:1;fill-rule:nonzero;stroke:none;stroke-width:2.02420425;stroke-linejoin:round;stroke-miterlimit:4;stroke-dasharray:none;stroke-opacity:1"
             id="rect1043-6-1-9-1-09-2"
             width="6.0494733"
             height="16.570297"
             x="2304.5864"
             y="2230.8164" />
        </g>
        <g
           id="g1078-47-8-3-5"
           transform="rotate(90,1759.0488,1269.1145)">
          <rect
             style="opacity:1;fill:#827462;fill-opacity:1;fill-rule:nonzero;stroke:none;stroke-width:3.30999994;stroke-linejoin:round;stroke-miterlimit:4;stroke-dasharray:none;stroke-opacity:1"
             id="rect1043-65-1-8-4"
             width="16.175766"
             height="16.570297"
             x="2288.4106"
             y="2230.8164" />
          <rect
             style="opacity:1;fill:#808e8e;fill-opacity:1;fill-rule:nonzero;stroke:none;stroke-width:2.02420425;stroke-linejoin:round;stroke-miterlimit:4;stroke-dasharray:none;stroke-opacity:1"
             id="rect1043-6-6-3-04-4"
             width="6.0494733"
             height="16.570297"
             x="2282.3611"
             y="2230.8164" />
          <rect
             style="opacity:1;fill:#808e8e;fill-opacity:1;fill-rule:nonzero;stroke:none;stroke-width:2.02420425;stroke-linejoin:round;stroke-miterlimit:4;stroke-dasharray:none;stroke-opacity:1"
             id="rect1043-6-1-9-1-09-9"
             width="6.0494733"
             height="16.570297"
             x="2304.5864"
             y="2230.8164" />
        </g>
        <g
           id="g1078-47-8-3-9"
           transform="rotate(90,1739.0592,1403.7811)">
          <rect
             style="opacity:1;fill:#827462;fill-opacity:1;fill-rule:nonzero;stroke:none;stroke-width:3.30999994;stroke-linejoin:round;stroke-miterlimit:4;stroke-dasharray:none;stroke-opacity:1"
             id="rect1043-65-1-8-3"
             width="16.175766"
             height="16.570297"
             x="2288.4106"
             y="2230.8164" />
          <rect
             style="opacity:1;fill:#808e8e;fill-opacity:1;fill-rule:nonzero;stroke:none;stroke-width:2.02420425;stroke-linejoin:round;stroke-miterlimit:4;stroke-dasharray:none;stroke-opacity:1"
             id="rect1043-6-6-3-04-60"
             width="6.0494733"
             height="16.570297"
             x="2282.3611"
             y="2230.8164" />
          <rect
             style="opacity:1;fill:#808e8e;fill-opacity:1;fill-rule:nonzero;stroke:none;stroke-width:2.02420425;stroke-linejoin:round;stroke-miterlimit:4;stroke-dasharray:none;stroke-opacity:1"
             id="rect1043-6-1-9-1-09-5"
             width="6.0494733"
             height="16.570297"
             x="2304.5864"
             y="2230.8164" />
        </g>
        <g
           id="g1078-47-8-3-0"
           transform="rotate(90,1695.9239,1210.1979)">
          <rect
             style="opacity:1;fill:#827462;fill-opacity:1;fill-rule:nonzero;stroke:none;stroke-width:3.30999994;stroke-linejoin:round;stroke-miterlimit:4;stroke-dasharray:none;stroke-opacity:1"
             id="rect1043-65-1-8-2"
             width="16.175766"
             height="16.570297"
             x="2288.4106"
             y="2230.8164" />
          <rect
             style="opacity:1;fill:#808e8e;fill-opacity:1;fill-rule:nonzero;stroke:none;stroke-width:2.02420425;stroke-linejoin:round;stroke-miterlimit:4;stroke-dasharray:none;stroke-opacity:1"
             id="rect1043-6-6-3-04-9"
             width="6.0494733"
             height="16.570297"
             x="2282.3611"
             y="2230.8164" />
          <rect
             style="opacity:1;fill:#808e8e;fill-opacity:1;fill-rule:nonzero;stroke:none;stroke-width:2.02420425;stroke-linejoin:round;stroke-miterlimit:4;stroke-dasharray:none;stroke-opacity:1"
             id="rect1043-6-1-9-1-09-4"
             width="6.0494733"
             height="16.570297"
             x="2304.5864"
             y="2230.8164" />
        </g>
        <g
           id="g1078-47-8-3-3"
           transform="rotate(90,1732.2207,1049.7553)">
          <rect
             style="opacity:1;fill:#827462;fill-opacity:1;fill-rule:nonzero;stroke:none;stroke-width:3.30999994;stroke-linejoin:round;stroke-miterlimit:4;stroke-dasharray:none;stroke-opacity:1"
             id="rect1043-65-1-8-5"
             width="16.175766"
             height="16.570297"
             x="2288.4106"
             y="2230.8164" />
          <rect
             style="opacity:1;fill:#808e8e;fill-opacity:1;fill-rule:nonzero;stroke:none;stroke-width:2.02420425;stroke-linejoin:round;stroke-miterlimit:4;stroke-dasharray:none;stroke-opacity:1"
             id="rect1043-6-6-3-04-1"
             width="6.0494733"
             height="16.570297"
             x="2282.3611"
             y="2230.8164" />
          <rect
             style="opacity:1;fill:#808e8e;fill-opacity:1;fill-rule:nonzero;stroke:none;stroke-width:2.02420425;stroke-linejoin:round;stroke-miterlimit:4;stroke-dasharray:none;stroke-opacity:1"
             id="rect1043-6-1-9-1-09-7"
             width="6.0494733"
             height="16.570297"
             x="2304.5864"
             y="2230.8164" />
        </g>
        <g
           id="g1078-47-8-3-4"
           transform="rotate(90,1858.9966,1156.5417)">
          <rect
             style="opacity:1;fill:#827462;fill-opacity:1;fill-rule:nonzero;stroke:none;stroke-width:3.30999994;stroke-linejoin:round;stroke-miterlimit:4;stroke-dasharray:none;stroke-opacity:1"
             id="rect1043-65-1-8-31"
             width="16.175766"
             height="16.570297"
             x="2288.4106"
             y="2230.8164" />
          <rect
             style="opacity:1;fill:#808e8e;fill-opacity:1;fill-rule:nonzero;stroke:none;stroke-width:2.02420425;stroke-linejoin:round;stroke-miterlimit:4;stroke-dasharray:none;stroke-opacity:1"
             id="rect1043-6-6-3-04-46"
             width="6.0494733"
             height="16.570297"
             x="2282.3611"
             y="2230.8164" />
          <rect
             style="opacity:1;fill:#808e8e;fill-opacity:1;fill-rule:nonzero;stroke:none;stroke-width:2.02420425;stroke-linejoin:round;stroke-miterlimit:4;stroke-dasharray:none;stroke-opacity:1"
             id="rect1043-6-1-9-1-09-94"
             width="6.0494733"
             height="16.570297"
             x="2304.5864"
             y="2230.8164" />
        </g>
        <g
           id="g1078-47-8-3-2"
           transform="rotate(90,1720.1217,973.47938)">
          <rect
             style="opacity:1;fill:#827462;fill-opacity:1;fill-rule:nonzero;stroke:none;stroke-width:3.30999994;stroke-linejoin:round;stroke-miterlimit:4;stroke-dasharray:none;stroke-opacity:1"
             id="rect1043-65-1-8-26"
             width="16.175766"
             height="16.570297"
             x="2288.4106"
             y="2230.8164" />
          <rect
             style="opacity:1;fill:#808e8e;fill-opacity:1;fill-rule:nonzero;stroke:none;stroke-width:2.02420425;stroke-linejoin:round;stroke-miterlimit:4;stroke-dasharray:none;stroke-opacity:1"
             id="rect1043-6-6-3-04-41"
             width="6.0494733"
             height="16.570297"
             x="2282.3611"
             y="2230.8164" />
          <rect
             style="opacity:1;fill:#808e8e;fill-opacity:1;fill-rule:nonzero;stroke:none;stroke-width:2.02420425;stroke-linejoin:round;stroke-miterlimit:4;stroke-dasharray:none;stroke-opacity:1"
             id="rect1043-6-1-9-1-09-28"
             width="6.0494733"
             height="16.570297"
             x="2304.5864"
             y="2230.8164" />
        </g>
        <g
           id="g1078-47-8-3-8"
           transform="rotate(90,1968.4132,1030.2918)">
          <rect
             style="opacity:1;fill:#827462;fill-opacity:1;fill-rule:nonzero;stroke:none;stroke-width:3.30999994;stroke-linejoin:round;stroke-miterlimit:4;stroke-dasharray:none;stroke-opacity:1"
             id="rect1043-65-1-8-92"
             width="16.175766"
             height="16.570297"
             x="2288.4106"
             y="2230.8164" />
          <rect
             style="opacity:1;fill:#808e8e;fill-opacity:1;fill-rule:nonzero;stroke:none;stroke-width:2.02420425;stroke-linejoin:round;stroke-miterlimit:4;stroke-dasharray:none;stroke-opacity:1"
             id="rect1043-6-6-3-04-8"
             width="6.0494733"
             height="16.570297"
             x="2282.3611"
             y="2230.8164" />
          <rect
             style="opacity:1;fill:#808e8e;fill-opacity:1;fill-rule:nonzero;stroke:none;stroke-width:2.02420425;stroke-linejoin:round;stroke-miterlimit:4;stroke-dasharray:none;stroke-opacity:1"
             id="rect1043-6-1-9-1-09-8"
             width="6.0494733"
             height="16.570297"
             x="2304.5864"
             y="2230.8164" />
        </g>
        <g
           id="g1078-47-8-3-86"
           transform="rotate(90,1914.2309,978.21375)">
          <rect
             style="opacity:1;fill:#827462;fill-opacity:1;fill-rule:nonzero;stroke:none;stroke-width:3.30999994;stroke-linejoin:round;stroke-miterlimit:4;stroke-dasharray:none;stroke-opacity:1"
             id="rect1043-65-1-8-8"
             width="16.175766"
             height="16.570297"
             x="2288.4106"
             y="2230.8164" />
          <rect
             style="opacity:1;fill:#808e8e;fill-opacity:1;fill-rule:nonzero;stroke:none;stroke-width:2.02420425;stroke-linejoin:round;stroke-miterlimit:4;stroke-dasharray:none;stroke-opacity:1"
             id="rect1043-6-6-3-04-3"
             width="6.0494733"
             height="16.570297"
             x="2282.3611"
             y="2230.8164" />
          <rect
             style="opacity:1;fill:#808e8e;fill-opacity:1;fill-rule:nonzero;stroke:none;stroke-width:2.02420425;stroke-linejoin:round;stroke-miterlimit:4;stroke-dasharray:none;stroke-opacity:1"
             id="rect1043-6-1-9-1-09-83"
             width="6.0494733"
             height="16.570297"
             x="2304.5864"
             y="2230.8164" />
        </g>
        <g
           id="g1078-47-8-3-33"
           transform="rotate(90,1825.33,886.15654)">
          <rect
             style="opacity:1;fill:#827462;fill-opacity:1;fill-rule:nonzero;stroke:none;stroke-width:3.30999994;stroke-linejoin:round;stroke-miterlimit:4;stroke-dasharray:none;stroke-opacity:1"
             id="rect1043-65-1-8-80"
             width="16.175766"
             height="16.570297"
             x="2288.4106"
             y="2230.8164" />
          <rect
             style="opacity:1;fill:#808e8e;fill-opacity:1;fill-rule:nonzero;stroke:none;stroke-width:2.02420425;stroke-linejoin:round;stroke-miterlimit:4;stroke-dasharray:none;stroke-opacity:1"
             id="rect1043-6-6-3-04-47"
             width="6.0494733"
             height="16.570297"
             x="2282.3611"
             y="2230.8164" />
          <rect
             style="opacity:1;fill:#808e8e;fill-opacity:1;fill-rule:nonzero;stroke:none;stroke-width:2.02420425;stroke-linejoin:round;stroke-miterlimit:4;stroke-dasharray:none;stroke-opacity:1"
             id="rect1043-6-1-9-1-09-6"
             width="6.0494733"
             height="16.570297"
             x="2304.5864"
             y="2230.8164" />
        </g>
        <g
           id="g1078-47-8-3-89"
           transform="rotate(90,2032.0642,1370.6405)">
          <rect
             style="opacity:1;fill:#827462;fill-opacity:1;fill-rule:nonzero;stroke:none;stroke-width:3.30999994;stroke-linejoin:round;stroke-miterlimit:4;stroke-dasharray:none;stroke-opacity:1"
             id="rect1043-65-1-8-0"
             width="16.175766"
             height="16.570297"
             x="2288.4106"
             y="2230.8164" />
          <rect
             style="opacity:1;fill:#808e8e;fill-opacity:1;fill-rule:nonzero;stroke:none;stroke-width:2.02420425;stroke-linejoin:round;stroke-miterlimit:4;stroke-dasharray:none;stroke-opacity:1"
             id="rect1043-6-6-3-04-68"
             width="6.0494733"
             height="16.570297"
             x="2282.3611"
             y="2230.8164" />
          <rect
             style="opacity:1;fill:#808e8e;fill-opacity:1;fill-rule:nonzero;stroke:none;stroke-width:2.02420425;stroke-linejoin:round;stroke-miterlimit:4;stroke-dasharray:none;stroke-opacity:1"
             id="rect1043-6-1-9-1-09-79"
             width="6.0494733"
             height="16.570297"
             x="2304.5864"
             y="2230.8164" />
        </g>
        <g
           id="g1078-47-8-3-03"
           transform="rotate(90,2016.8089,1355.3852)">
          <rect
             style="opacity:1;fill:#827462;fill-opacity:1;fill-rule:nonzero;stroke:none;stroke-width:3.30999994;stroke-linejoin:round;stroke-miterlimit:4;stroke-dasharray:none;stroke-opacity:1"
             id="rect1043-65-1-8-33"
             width="16.175766"
             height="16.570297"
             x="2288.4106"
             y="2230.8164" />
          <rect
             style="opacity:1;fill:#808e8e;fill-opacity:1;fill-rule:nonzero;stroke:none;stroke-width:2.02420425;stroke-linejoin:round;stroke-miterlimit:4;stroke-dasharray:none;stroke-opacity:1"
             id="rect1043-6-6-3-04-7"
             width="6.0494733"
             height="16.570297"
             x="2282.3611"
             y="2230.8164" />
          <rect
             style="opacity:1;fill:#808e8e;fill-opacity:1;fill-rule:nonzero;stroke:none;stroke-width:2.02420425;stroke-linejoin:round;stroke-miterlimit:4;stroke-dasharray:none;stroke-opacity:1"
             id="rect1043-6-1-9-1-09-3"
             width="6.0494733"
             height="16.570297"
             x="2304.5864"
             y="2230.8164" />
        </g>
        <g
           id="g1078-47-8-3-26"
           transform="rotate(90,2014.7048,1312.2499)">
          <rect
             style="opacity:1;fill:#827462;fill-opacity:1;fill-rule:nonzero;stroke:none;stroke-width:3.30999994;stroke-linejoin:round;stroke-miterlimit:4;stroke-dasharray:none;stroke-opacity:1"
             id="rect1043-65-1-8-52"
             width="16.175766"
             height="16.570297"
             x="2288.4106"
             y="2230.8164" />
          <rect
             style="opacity:1;fill:#808e8e;fill-opacity:1;fill-rule:nonzero;stroke:none;stroke-width:2.02420425;stroke-linejoin:round;stroke-miterlimit:4;stroke-dasharray:none;stroke-opacity:1"
             id="rect1043-6-6-3-04-65"
             width="6.0494733"
             height="16.570297"
             x="2282.3611"
             y="2230.8164" />
          <rect
             style="opacity:1;fill:#808e8e;fill-opacity:1;fill-rule:nonzero;stroke:none;stroke-width:2.02420425;stroke-linejoin:round;stroke-miterlimit:4;stroke-dasharray:none;stroke-opacity:1"
             id="rect1043-6-1-9-1-09-87"
             width="6.0494733"
             height="16.570297"
             x="2304.5864"
             y="2230.8164" />
        </g>
        <g
           id="g1078-47-8-3-96"
           transform="rotate(90,1997.8715,1296.4687)">
          <rect
             style="opacity:1;fill:#827462;fill-opacity:1;fill-rule:nonzero;stroke:none;stroke-width:3.30999994;stroke-linejoin:round;stroke-miterlimit:4;stroke-dasharray:none;stroke-opacity:1"
             id="rect1043-65-1-8-04"
             width="16.175766"
             height="16.570297"
             x="2288.4106"
             y="2230.8164" />
          <rect
             style="opacity:1;fill:#808e8e;fill-opacity:1;fill-rule:nonzero;stroke:none;stroke-width:2.02420425;stroke-linejoin:round;stroke-miterlimit:4;stroke-dasharray:none;stroke-opacity:1"
             id="rect1043-6-6-3-04-10"
             width="6.0494733"
             height="16.570297"
             x="2282.3611"
             y="2230.8164" />
          <rect
             style="opacity:1;fill:#808e8e;fill-opacity:1;fill-rule:nonzero;stroke:none;stroke-width:2.02420425;stroke-linejoin:round;stroke-miterlimit:4;stroke-dasharray:none;stroke-opacity:1"
             id="rect1043-6-1-9-1-09-48"
             width="6.0494733"
             height="16.570297"
             x="2304.5864"
             y="2230.8164" />
        </g>
        <g
           id="g1078-47-8-3-7"
           transform="rotate(90,2114.6526,1184.9479)">
          <rect
             style="opacity:1;fill:#827462;fill-opacity:1;fill-rule:nonzero;stroke:none;stroke-width:3.30999994;stroke-linejoin:round;stroke-miterlimit:4;stroke-dasharray:none;stroke-opacity:1"
             id="rect1043-65-1-8-08"
             width="16.175766"
             height="16.570297"
             x="2288.4106"
             y="2230.8164" />
          <rect
             style="opacity:1;fill:#808e8e;fill-opacity:1;fill-rule:nonzero;stroke:none;stroke-width:2.02420425;stroke-linejoin:round;stroke-miterlimit:4;stroke-dasharray:none;stroke-opacity:1"
             id="rect1043-6-6-3-04-62"
             width="6.0494733"
             height="16.570297"
             x="2282.3611"
             y="2230.8164" />
          <rect
             style="opacity:1;fill:#808e8e;fill-opacity:1;fill-rule:nonzero;stroke:none;stroke-width:2.02420425;stroke-linejoin:round;stroke-miterlimit:4;stroke-dasharray:none;stroke-opacity:1"
             id="rect1043-6-1-9-1-09-47"
             width="6.0494733"
             height="16.570297"
             x="2304.5864"
             y="2230.8164" />
        </g>
        <g
           id="g1078-47-8-3-93"
           transform="rotate(90,2097.2933,1169.6927)">
          <rect
             style="opacity:1;fill:#827462;fill-opacity:1;fill-rule:nonzero;stroke:none;stroke-width:3.30999994;stroke-linejoin:round;stroke-miterlimit:4;stroke-dasharray:none;stroke-opacity:1"
             id="rect1043-65-1-8-928"
             width="16.175766"
             height="16.570297"
             x="2288.4106"
             y="2230.8164" />
          <rect
             style="opacity:1;fill:#808e8e;fill-opacity:1;fill-rule:nonzero;stroke:none;stroke-width:2.02420425;stroke-linejoin:round;stroke-miterlimit:4;stroke-dasharray:none;stroke-opacity:1"
             id="rect1043-6-6-3-04-30"
             width="6.0494733"
             height="16.570297"
             x="2282.3611"
             y="2230.8164" />
          <rect
             style="opacity:1;fill:#808e8e;fill-opacity:1;fill-rule:nonzero;stroke:none;stroke-width:2.02420425;stroke-linejoin:round;stroke-miterlimit:4;stroke-dasharray:none;stroke-opacity:1"
             id="rect1043-6-1-9-1-09-1"
             width="6.0494733"
             height="16.570297"
             x="2304.5864"
             y="2230.8164" />
        </g>
      </g>
    </g>
  </g>
</svg>
