*PADS-LOGIC-V2005.0* DESIGN EXPORT FILE FROM PADS LOGIC V9.2 
*SHT*   1 $$$NONE -1 $$$NONE
*TEXT*       FREE TEXT


*LINES*      LINES ITEMS


*CAEDECAL*  ITEMS

PIN              34000 34000 100 10 100 10 4 1 0 0 0 1
"Default Font"
"Default Font"
140 20 0 1 100 10 "Default Font"
REF-DES
230 0 0 8 100 10 "Default Font"
PART-TYPE
-520 0 0 1 100 10 "Default Font"
*
-80 0 0 1 100 10 "Default Font"
*
OPEN   2   10  255
0     0    
200   0    

PINB             34000 34000 100 10 100 10 4 2 0 0 0 1
"Default Font"
"Default Font"
130 14 0 1 100 10 "Default Font"
REF-DES
230 0 0 8 100 10 "Default Font"
PART-TYPE
-500 10 0 1 100 10 "Default Font"
*
-30 14 0 1 100 10 "Default Font"
*
OPEN   2   10  255
0     0    
140   0    
CIRCLE 2   10  255
140   0    
190   0    

PINSHORT         32000 32000 100 10 100 10 4 1 0 0 0 1
"Default Font"
"Default Font"
60 10 0 1 100 10 "Default Font"
REF-DES
140 10 0 8 100 10 "Default Font"
PART-TYPE
-530 10 0 1 100 10 "Default Font"
*
-70 10 0 1 100 10 "Default Font"
*
OPEN   2   10  255
0     0    
100   0    

PINVRTS          32000 32000 100 10 100 10 4 1 0 0 3 1
"Default Font"
"Default Font"
20 -80 0 0 100 10 "Default Font"
REF-DES
-20 -40 0 9 100 10 "Default Font"
PART-TYPE
-500 10 0 1 100 10 "Default Font"
*
-30 14 0 1 100 10 "Default Font"
*
OPEN   2   10  255
0     -100 
0     0    

J1               32000 32000 97 10 97 10 4 2 1 120 0 0
"Default Font"
"Default Font"
1010 7840 0 4 97 10 "Default Font"
REF-DES
1000 -40 0 6 97 10 "Default Font"
PART-TYPE
1000 -140 0 6 97 10 "Default Font"
*
1000 -240 0 6 97 10 "Default Font"
*
CLOSED 5   10  255
0     0    
2000  0    
2000  7800 
0     7800 
0     0    
OPEN   2   10  255
0     3900 
2000  3900 
900    4580   0   0 167 10
+2V5
T2200  3700  0 1 140 20 0 1 230 0 0 8 PIN
P-520 0 0 1 -80 0 0 1 0
T2200  3600  0 1 140 20 0 1 230 0 0 8 PIN
P-520 0 0 1 -80 0 0 1 0
T-200  7700  0 0 140 20 0 1 230 0 0 8 PIN
P-520 0 0 1 -80 0 0 1 0
T-200  7600  0 0 140 20 0 1 230 0 0 8 PIN
P-520 0 0 1 -80 0 0 1 0
T-200  7500  0 0 140 20 0 1 230 0 0 8 PIN
P-520 0 0 1 -80 0 0 1 0
T-200  7400  0 0 140 20 0 1 230 0 0 8 PIN
P-520 0 0 1 -80 0 0 1 0
T-200  7300  0 0 140 20 0 1 230 0 0 8 PIN
P-520 0 0 1 -80 0 0 1 0
T-200  6100  0 0 140 20 0 1 230 0 0 8 PIN
P-520 0 0 1 -80 0 0 1 0
T-200  6200  0 0 140 20 0 1 230 0 0 8 PIN
P-520 0 0 1 -80 0 0 1 0
T-200  6300  0 0 140 20 0 1 230 0 0 8 PIN
P-520 0 0 1 -80 0 0 1 0
T-200  1200  0 0 140 20 0 1 230 0 0 8 PIN
P-520 0 0 1 -80 0 0 1 0
T-200  6000  0 0 140 20 0 1 230 0 0 8 PIN
P-520 0 0 1 -80 0 0 1 0
T2200  4100  0 1 140 20 0 1 230 0 0 8 PIN
P-520 0 0 1 -80 0 0 1 0
T-200  900   0 0 140 20 0 1 230 0 0 8 PIN
P-520 0 0 1 -80 0 0 1 0
T-200  700   0 0 140 20 0 1 230 0 0 8 PIN
P-520 0 0 1 -80 0 0 1 0
T-200  2200  0 0 140 20 0 1 230 0 0 8 PIN
P-520 0 0 1 -80 0 0 1 0
T-200  2100  0 0 140 20 0 1 230 0 0 8 PIN
P-520 0 0 1 -80 0 0 1 0
T-200  2000  0 0 140 20 0 1 230 0 0 8 PIN
P-520 0 0 1 -80 0 0 1 0
T-200  1900  0 0 140 20 0 1 230 0 0 8 PIN
P-520 0 0 1 -80 0 0 1 0
T-200  1800  0 0 140 20 0 1 230 0 0 8 PIN
P-520 0 0 1 -80 0 0 1 0
T-200  1700  0 0 140 20 0 1 230 0 0 8 PIN
P-520 0 0 1 -80 0 0 1 0
T2200  1500  0 1 140 20 0 1 230 0 0 8 PIN
P-520 0 0 1 -80 0 0 1 0
T2200  1400  0 1 140 20 0 1 230 0 0 8 PIN
P-520 0 0 1 -80 0 0 1 0
T2200  1200  0 1 140 20 0 1 230 0 0 8 PIN
P-520 0 0 1 -80 0 0 1 0
T2200  1100  0 1 140 20 0 1 230 0 0 8 PIN
P-520 0 0 1 -80 0 0 1 0
T-200  600   0 0 140 20 0 1 230 0 0 8 PIN
P-520 0 0 1 -80 0 0 1 0
T2200  2200  0 1 140 20 0 1 230 0 0 8 PIN
P-520 0 0 1 -80 0 0 1 0
T2200  2100  0 1 140 20 0 1 230 0 0 8 PIN
P-520 0 0 1 -80 0 0 1 0
T2200  2000  0 1 140 20 0 1 230 0 0 8 PIN
P-520 0 0 1 -80 0 0 1 0
T2200  1900  0 1 140 20 0 1 230 0 0 8 PIN
P-520 0 0 1 -80 0 0 1 0
T2200  1800  0 1 140 20 0 1 230 0 0 8 PIN
P-520 0 0 1 -80 0 0 1 0
T2200  1700  0 1 140 20 0 1 230 0 0 8 PIN
P-520 0 0 1 -80 0 0 1 0
T-200  2400  0 0 140 20 0 1 230 0 0 8 PIN
P-520 0 0 1 -80 0 0 1 0
T-200  2500  0 0 140 20 0 1 230 0 0 8 PIN
P-520 0 0 1 -80 0 0 1 0
T-200  2600  0 0 140 20 0 1 230 0 0 8 PIN
P-520 0 0 1 -80 0 0 1 0
T-200  2700  0 0 140 20 0 1 230 0 0 8 PIN
P-520 0 0 1 -80 0 0 1 0
T-200  500   0 0 140 20 0 1 230 0 0 8 PIN
P-520 0 0 1 -80 0 0 1 0
T-200  5300  0 0 140 20 0 1 230 0 0 8 PIN
P-520 0 0 1 -80 0 0 1 0
T-200  5200  0 0 140 20 0 1 230 0 0 8 PIN
P-520 0 0 1 -80 0 0 1 0
T-200  5100  0 0 140 20 0 1 230 0 0 8 PIN
P-520 0 0 1 -80 0 0 1 0
T-200  5000  0 0 140 20 0 1 230 0 0 8 PIN
P-520 0 0 1 -80 0 0 1 0
T-200  4900  0 0 140 20 0 1 230 0 0 8 PIN
P-520 0 0 1 -80 0 0 1 0
T-200  4800  0 0 140 20 0 1 230 0 0 8 PIN
P-520 0 0 1 -80 0 0 1 0
T-200  4600  0 0 140 20 0 1 230 0 0 8 PIN
P-520 0 0 1 -80 0 0 1 0
T-200  4500  0 0 140 20 0 1 230 0 0 8 PIN
P-520 0 0 1 -80 0 0 1 0
T-200  4400  0 0 140 20 0 1 230 0 0 8 PIN
P-520 0 0 1 -80 0 0 1 0
T-200  4300  0 0 140 20 0 1 230 0 0 8 PIN
P-520 0 0 1 -80 0 0 1 0
T-200  4200  0 0 140 20 0 1 230 0 0 8 PIN
P-520 0 0 1 -80 0 0 1 0
T-200  4100  0 0 140 20 0 1 230 0 0 8 PIN
P-520 0 0 1 -80 0 0 1 0
T-200  400   0 0 140 20 0 1 230 0 0 8 PIN
P-520 0 0 1 -80 0 0 1 0
T2200  5900  0 1 140 20 0 1 230 0 0 8 PIN
P-520 0 0 1 -80 0 0 1 0
T2200  5800  0 1 140 20 0 1 230 0 0 8 PIN
P-520 0 0 1 -80 0 0 1 0
T2200  5700  0 1 140 20 0 1 230 0 0 8 PIN
P-520 0 0 1 -80 0 0 1 0
T2200  5600  0 1 140 20 0 1 230 0 0 8 PIN
P-520 0 0 1 -80 0 0 1 0
T2200  5500  0 1 140 20 0 1 230 0 0 8 PIN
P-520 0 0 1 -80 0 0 1 0
T2200  5400  0 1 140 20 0 1 230 0 0 8 PIN
P-520 0 0 1 -80 0 0 1 0
T2200  5300  0 1 140 20 0 1 230 0 0 8 PIN
P-520 0 0 1 -80 0 0 1 0
T2200  5200  0 1 140 20 0 1 230 0 0 8 PIN
P-520 0 0 1 -80 0 0 1 0
T2200  5100  0 1 140 20 0 1 230 0 0 8 PIN
P-520 0 0 1 -80 0 0 1 0
T-200  300   0 0 140 20 0 1 230 0 0 8 PIN
P-520 0 0 1 -80 0 0 1 0
T2200  6000  0 1 140 20 0 1 230 0 0 8 PIN
P-520 0 0 1 -80 0 0 1 0
T2200  6100  0 1 140 20 0 1 230 0 0 8 PIN
P-520 0 0 1 -80 0 0 1 0
T2200  6200  0 1 140 20 0 1 230 0 0 8 PIN
P-520 0 0 1 -80 0 0 1 0
T2200  6300  0 1 140 20 0 1 230 0 0 8 PIN
P-520 0 0 1 -80 0 0 1 0
T2200  6400  0 1 140 20 0 1 230 0 0 8 PIN
P-520 0 0 1 -80 0 0 1 0
T2200  6500  0 1 140 20 0 1 230 0 0 8 PIN
P-520 0 0 1 -80 0 0 1 0
T2200  6600  0 1 140 20 0 1 230 0 0 8 PIN
P-520 0 0 1 -80 0 0 1 0
T2200  6700  0 1 140 20 0 1 230 0 0 8 PIN
P-520 0 0 1 -80 0 0 1 0
T2200  6800  0 1 140 20 0 1 230 0 0 8 PIN
P-520 0 0 1 -80 0 0 1 0
T2200  6900  0 1 140 20 0 1 230 0 0 8 PIN
P-520 0 0 1 -80 0 0 1 0
T2200  7000  0 1 140 20 0 1 230 0 0 8 PIN
P-520 0 0 1 -80 0 0 1 0
T2200  7100  0 1 140 20 0 1 230 0 0 8 PIN
P-520 0 0 1 -80 0 0 1 0
T2200  7200  0 1 140 20 0 1 230 0 0 8 PIN
P-520 0 0 1 -80 0 0 1 0
T2200  7300  0 1 140 20 0 1 230 0 0 8 PIN
P-520 0 0 1 -80 0 0 1 0
T2200  7400  0 1 140 20 0 1 230 0 0 8 PIN
P-520 0 0 1 -80 0 0 1 0
T2200  7500  0 1 140 20 0 1 230 0 0 8 PIN
P-520 0 0 1 -80 0 0 1 0
T2200  7600  0 1 140 20 0 1 230 0 0 8 PIN
P-520 0 0 1 -80 0 0 1 0
T2200  7700  0 1 140 20 0 1 230 0 0 8 PIN
P-520 0 0 1 -80 0 0 1 0
T-200  200   0 0 140 20 0 1 230 0 0 8 PIN
P-520 0 0 1 -80 0 0 1 0
T-200  5400  0 0 140 20 0 1 230 0 0 8 PIN
P-520 0 0 1 -80 0 0 1 0
T-200  5500  0 0 140 20 0 1 230 0 0 8 PIN
P-520 0 0 1 -80 0 0 1 0
T-200  5600  0 0 140 20 0 1 230 0 0 8 PIN
P-520 0 0 1 -80 0 0 1 0
T-200  5700  0 0 140 20 0 1 230 0 0 8 PIN
P-520 0 0 1 -80 0 0 1 0
T-200  5800  0 0 140 20 0 1 230 0 0 8 PIN
P-520 0 0 1 -80 0 0 1 0
T-200  5900  0 0 140 20 0 1 230 0 0 8 PIN
P-520 0 0 1 -80 0 0 1 0
T-200  3700  0 0 140 20 0 1 230 0 0 8 PIN
P-520 0 0 1 -80 0 0 1 0
T-200  3600  0 0 140 20 0 1 230 0 0 8 PIN
P-520 0 0 1 -80 0 0 1 0
T-200  3500  0 0 140 20 0 1 230 0 0 8 PIN
P-520 0 0 1 -80 0 0 1 0
T-200  3400  0 0 140 20 0 1 230 0 0 8 PIN
P-520 0 0 1 -80 0 0 1 0
T-200  3200  0 0 140 20 0 1 230 0 0 8 PIN
P-520 0 0 1 -80 0 0 1 0
T-200  3100  0 0 140 20 0 1 230 0 0 8 PIN
P-520 0 0 1 -80 0 0 1 0
T-200  3000  0 0 140 20 0 1 230 0 0 8 PIN
P-520 0 0 1 -80 0 0 1 0
T-200  2900  0 0 140 20 0 1 230 0 0 8 PIN
P-520 0 0 1 -80 0 0 1 0
T2200  2400  0 1 140 20 0 1 230 0 0 8 PIN
P-520 0 0 1 -80 0 0 1 0
T2200  2500  0 1 140 20 0 1 230 0 0 8 PIN
P-520 0 0 1 -80 0 0 1 0
T2200  2600  0 1 140 20 0 1 230 0 0 8 PIN
P-520 0 0 1 -80 0 0 1 0
T2200  2700  0 1 140 20 0 1 230 0 0 8 PIN
P-520 0 0 1 -80 0 0 1 0
T2200  2800  0 1 140 20 0 1 230 0 0 8 PIN
P-520 0 0 1 -80 0 0 1 0
T2200  2900  0 1 140 20 0 1 230 0 0 8 PIN
P-520 0 0 1 -80 0 0 1 0
T2200  800   0 1 140 20 0 1 230 0 0 8 PIN
P-520 0 0 1 -80 0 0 1 0
T2200  900   0 1 140 20 0 1 230 0 0 8 PIN
P-520 0 0 1 -80 0 0 1 0
T2200  600   0 1 140 20 0 1 230 0 0 8 PIN
P-520 0 0 1 -80 0 0 1 0
T2200  700   0 1 140 20 0 1 230 0 0 8 PIN
P-520 0 0 1 -80 0 0 1 0
T2200  400   0 1 140 20 0 1 230 0 0 8 PIN
P-520 0 0 1 -80 0 0 1 0
T2200  300   0 1 140 20 0 1 230 0 0 8 PIN
P-520 0 0 1 -80 0 0 1 0
T2200  100   0 1 140 20 0 1 230 0 0 8 PIN
P-520 0 0 1 -80 0 0 1 0
T2200  4600  0 1 140 20 0 1 230 0 0 8 PIN
P-520 0 0 1 -80 0 0 1 0
T2200  4500  0 1 140 20 0 1 230 0 0 8 PIN
P-520 0 0 1 -80 0 0 1 0
T-200  1500  0 0 140 20 0 1 230 0 0 8 PIN
P-520 0 0 1 -80 0 0 1 0
T-200  1300  0 0 140 20 0 1 230 0 0 8 PIN
P-520 0 0 1 -80 0 0 1 0
T-200  1400  0 0 140 20 0 1 230 0 0 8 PIN
P-520 0 0 1 -80 0 0 1 0
T-200  6500  0 0 140 20 0 1 230 0 0 8 PIN
P-520 0 0 1 -80 0 0 1 0
T-200  6400  0 0 140 20 0 1 230 0 0 8 PIN
P-520 0 0 1 -80 0 0 1 0
T-200  6600  0 0 140 20 0 1 230 0 0 8 PIN
P-520 0 0 1 -80 0 0 1 0
T-200  100   0 0 140 20 0 1 230 0 0 8 PIN
P-520 0 0 1 -80 0 0 1 0
T-200  7200  0 0 140 20 0 1 230 0 0 8 PIN
P-520 0 0 1 -80 0 0 1 0
T-200  7100  0 0 140 20 0 1 230 0 0 8 PIN
P-520 0 0 1 -80 0 0 1 0
T-200  7000  0 0 140 20 0 1 230 0 0 8 PIN
P-520 0 0 1 -80 0 0 1 0
T-200  6900  0 0 140 20 0 1 230 0 0 8 PIN
P-520 0 0 1 -80 0 0 1 0
T-200  6800  0 0 140 20 0 1 230 0 0 8 PIN
P-520 0 0 1 -80 0 0 1 0

J1_2             32000 32000 97 10 97 10 4 1 0 120 0 0
"Default Font"
"Default Font"
1000 6140 0 4 97 10 "Default Font"
REF-DES
1000 -40 0 6 97 10 "Default Font"
PART-TYPE
1000 -140 0 6 97 10 "Default Font"
*
1000 -240 0 6 97 10 "Default Font"
*
CLOSED 5   10  255
0     0    
2000  0    
2000  6100 
0     6100 
0     0    
T-200  6000  0 0 140 20 0 1 230 0 0 8 PIN
P-520 0 0 1 -80 0 0 1 0
T-200  5900  0 0 140 20 0 1 230 0 0 8 PIN
P-520 0 0 1 -80 0 0 1 0
T-200  5800  0 0 140 20 0 1 230 0 0 8 PIN
P-520 0 0 1 -80 0 0 1 0
T-200  5700  0 0 140 20 0 1 230 0 0 8 PIN
P-520 0 0 1 -80 0 0 1 0
T-200  5600  0 0 140 20 0 1 230 0 0 8 PIN
P-520 0 0 1 -80 0 0 1 0
T-200  5500  0 0 140 20 0 1 230 0 0 8 PIN
P-520 0 0 1 -80 0 0 1 0
T-200  5400  0 0 140 20 0 1 230 0 0 8 PIN
P-520 0 0 1 -80 0 0 1 0
T-200  5300  0 0 140 20 0 1 230 0 0 8 PIN
P-520 0 0 1 -80 0 0 1 0
T-200  5200  0 0 140 20 0 1 230 0 0 8 PIN
P-520 0 0 1 -80 0 0 1 0
T-200  5100  0 0 140 20 0 1 230 0 0 8 PIN
P-520 0 0 1 -80 0 0 1 0
T-200  5000  0 0 140 20 0 1 230 0 0 8 PIN
P-520 0 0 1 -80 0 0 1 0
T-200  4900  0 0 140 20 0 1 230 0 0 8 PIN
P-520 0 0 1 -80 0 0 1 0
T-200  4800  0 0 140 20 0 1 230 0 0 8 PIN
P-520 0 0 1 -80 0 0 1 0
T-200  4700  0 0 140 20 0 1 230 0 0 8 PIN
P-520 0 0 1 -80 0 0 1 0
T-200  4600  0 0 140 20 0 1 230 0 0 8 PIN
P-520 0 0 1 -80 0 0 1 0
T-200  4500  0 0 140 20 0 1 230 0 0 8 PIN
P-520 0 0 1 -80 0 0 1 0
T-200  4400  0 0 140 20 0 1 230 0 0 8 PIN
P-520 0 0 1 -80 0 0 1 0
T-200  4300  0 0 140 20 0 1 230 0 0 8 PIN
P-520 0 0 1 -80 0 0 1 0
T-200  4200  0 0 140 20 0 1 230 0 0 8 PIN
P-520 0 0 1 -80 0 0 1 0
T-200  4100  0 0 140 20 0 1 230 0 0 8 PIN
P-520 0 0 1 -80 0 0 1 0
T-200  4000  0 0 140 20 0 1 230 0 0 8 PIN
P-520 0 0 1 -80 0 0 1 0
T-200  3900  0 0 140 20 0 1 230 0 0 8 PIN
P-520 0 0 1 -80 0 0 1 0
T-200  3800  0 0 140 20 0 1 230 0 0 8 PIN
P-520 0 0 1 -80 0 0 1 0
T-200  3700  0 0 140 20 0 1 230 0 0 8 PIN
P-520 0 0 1 -80 0 0 1 0
T-200  3600  0 0 140 20 0 1 230 0 0 8 PIN
P-520 0 0 1 -80 0 0 1 0
T-200  3500  0 0 140 20 0 1 230 0 0 8 PIN
P-520 0 0 1 -80 0 0 1 0
T-200  3400  0 0 140 20 0 1 230 0 0 8 PIN
P-520 0 0 1 -80 0 0 1 0
T-200  3300  0 0 140 20 0 1 230 0 0 8 PIN
P-520 0 0 1 -80 0 0 1 0
T-200  3200  0 0 140 20 0 1 230 0 0 8 PIN
P-520 0 0 1 -80 0 0 1 0
T-200  3100  0 0 140 20 0 1 230 0 0 8 PIN
P-520 0 0 1 -80 0 0 1 0
T-200  3000  0 0 140 20 0 1 230 0 0 8 PIN
P-520 0 0 1 -80 0 0 1 0
T-200  2900  0 0 140 20 0 1 230 0 0 8 PIN
P-520 0 0 1 -80 0 0 1 0
T-200  2800  0 0 140 20 0 1 230 0 0 8 PIN
P-520 0 0 1 -80 0 0 1 0
T-200  2700  0 0 140 20 0 1 230 0 0 8 PIN
P-520 0 0 1 -80 0 0 1 0
T-200  2600  0 0 140 20 0 1 230 0 0 8 PIN
P-520 0 0 1 -80 0 0 1 0
T-200  2500  0 0 140 20 0 1 230 0 0 8 PIN
P-520 0 0 1 -80 0 0 1 0
T-200  2400  0 0 140 20 0 1 230 0 0 8 PIN
P-520 0 0 1 -80 0 0 1 0
T-200  2300  0 0 140 20 0 1 230 0 0 8 PIN
P-520 0 0 1 -80 0 0 1 0
T-200  2200  0 0 140 20 0 1 230 0 0 8 PIN
P-520 0 0 1 -80 0 0 1 0
T-200  2100  0 0 140 20 0 1 230 0 0 8 PIN
P-520 0 0 1 -80 0 0 1 0
T-200  2000  0 0 140 20 0 1 230 0 0 8 PIN
P-520 0 0 1 -80 0 0 1 0
T-200  1900  0 0 140 20 0 1 230 0 0 8 PIN
P-520 0 0 1 -80 0 0 1 0
T-200  1800  0 0 140 20 0 1 230 0 0 8 PIN
P-520 0 0 1 -80 0 0 1 0
T-200  1700  0 0 140 20 0 1 230 0 0 8 PIN
P-520 0 0 1 -80 0 0 1 0
T-200  1600  0 0 140 20 0 1 230 0 0 8 PIN
P-520 0 0 1 -80 0 0 1 0
T-200  1500  0 0 140 20 0 1 230 0 0 8 PIN
P-520 0 0 1 -80 0 0 1 0
T-200  1400  0 0 140 20 0 1 230 0 0 8 PIN
P-520 0 0 1 -80 0 0 1 0
T-200  1300  0 0 140 20 0 1 230 0 0 8 PIN
P-520 0 0 1 -80 0 0 1 0
T-200  1200  0 0 140 20 0 1 230 0 0 8 PIN
P-520 0 0 1 -80 0 0 1 0
T-200  1100  0 0 140 20 0 1 230 0 0 8 PIN
P-520 0 0 1 -80 0 0 1 0
T-200  1000  0 0 140 20 0 1 230 0 0 8 PIN
P-520 0 0 1 -80 0 0 1 0
T-200  900   0 0 140 20 0 1 230 0 0 8 PIN
P-520 0 0 1 -80 0 0 1 0
T-200  800   0 0 140 20 0 1 230 0 0 8 PIN
P-520 0 0 1 -80 0 0 1 0
T-200  700   0 0 140 20 0 1 230 0 0 8 PIN
P-520 0 0 1 -80 0 0 1 0
T-200  600   0 0 140 20 0 1 230 0 0 8 PIN
P-520 0 0 1 -80 0 0 1 0
T-200  500   0 0 140 20 0 1 230 0 0 8 PIN
P-520 0 0 1 -80 0 0 1 0
T-200  400   0 0 140 20 0 1 230 0 0 8 PIN
P-520 0 0 1 -80 0 0 1 0
T-200  300   0 0 140 20 0 1 230 0 0 8 PIN
P-520 0 0 1 -80 0 0 1 0
T-200  200   0 0 140 20 0 1 230 0 0 8 PIN
P-520 0 0 1 -80 0 0 1 0
T-200  100   0 0 140 20 0 1 230 0 0 8 PIN
P-520 0 0 1 -80 0 0 1 0
T2200  100   0 1 140 20 0 1 230 0 0 8 PIN
P-520 0 0 1 -80 0 0 1 0
T2200  200   0 1 140 20 0 1 230 0 0 8 PIN
P-520 0 0 1 -80 0 0 1 0
T2200  300   0 1 140 20 0 1 230 0 0 8 PIN
P-520 0 0 1 -80 0 0 1 0
T2200  400   0 1 140 20 0 1 230 0 0 8 PIN
P-520 0 0 1 -80 0 0 1 0
T2200  500   0 1 140 20 0 1 230 0 0 8 PIN
P-520 0 0 1 -80 0 0 1 0
T2200  600   0 1 140 20 0 1 230 0 0 8 PIN
P-520 0 0 1 -80 0 0 1 0
T2200  700   0 1 140 20 0 1 230 0 0 8 PIN
P-520 0 0 1 -80 0 0 1 0
T2200  800   0 1 140 20 0 1 230 0 0 8 PIN
P-520 0 0 1 -80 0 0 1 0
T2200  900   0 1 140 20 0 1 230 0 0 8 PIN
P-520 0 0 1 -80 0 0 1 0
T2200  1000  0 1 140 20 0 1 230 0 0 8 PIN
P-520 0 0 1 -80 0 0 1 0
T2200  1100  0 1 140 20 0 1 230 0 0 8 PIN
P-520 0 0 1 -80 0 0 1 0
T2200  1200  0 1 140 20 0 1 230 0 0 8 PIN
P-520 0 0 1 -80 0 0 1 0
T2200  1300  0 1 140 20 0 1 230 0 0 8 PIN
P-520 0 0 1 -80 0 0 1 0
T2200  1400  0 1 140 20 0 1 230 0 0 8 PIN
P-520 0 0 1 -80 0 0 1 0
T2200  1500  0 1 140 20 0 1 230 0 0 8 PIN
P-520 0 0 1 -80 0 0 1 0
T2200  1600  0 1 140 20 0 1 230 0 0 8 PIN
P-520 0 0 1 -80 0 0 1 0
T2200  1700  0 1 140 20 0 1 230 0 0 8 PIN
P-520 0 0 1 -80 0 0 1 0
T2200  1800  0 1 140 20 0 1 230 0 0 8 PIN
P-520 0 0 1 -80 0 0 1 0
T2200  1900  0 1 140 20 0 1 230 0 0 8 PIN
P-520 0 0 1 -80 0 0 1 0
T2200  2000  0 1 140 20 0 1 230 0 0 8 PIN
P-520 0 0 1 -80 0 0 1 0
T2200  2100  0 1 140 20 0 1 230 0 0 8 PIN
P-520 0 0 1 -80 0 0 1 0
T2200  2200  0 1 140 20 0 1 230 0 0 8 PIN
P-520 0 0 1 -80 0 0 1 0
T2200  2300  0 1 140 20 0 1 230 0 0 8 PIN
P-520 0 0 1 -80 0 0 1 0
T2200  2400  0 1 140 20 0 1 230 0 0 8 PIN
P-520 0 0 1 -80 0 0 1 0
T2200  2500  0 1 140 20 0 1 230 0 0 8 PIN
P-520 0 0 1 -80 0 0 1 0
T2200  2600  0 1 140 20 0 1 230 0 0 8 PIN
P-520 0 0 1 -80 0 0 1 0
T2200  2700  0 1 140 20 0 1 230 0 0 8 PIN
P-520 0 0 1 -80 0 0 1 0
T2200  2800  0 1 140 20 0 1 230 0 0 8 PIN
P-520 0 0 1 -80 0 0 1 0
T2200  2900  0 1 140 20 0 1 230 0 0 8 PIN
P-520 0 0 1 -80 0 0 1 0
T2200  3000  0 1 140 20 0 1 230 0 0 8 PIN
P-520 0 0 1 -80 0 0 1 0
T2200  3100  0 1 140 20 0 1 230 0 0 8 PIN
P-520 0 0 1 -80 0 0 1 0
T2200  3200  0 1 140 20 0 1 230 0 0 8 PIN
P-520 0 0 1 -80 0 0 1 0
T2200  3300  0 1 140 20 0 1 230 0 0 8 PIN
P-520 0 0 1 -80 0 0 1 0
T2200  3400  0 1 140 20 0 1 230 0 0 8 PIN
P-520 0 0 1 -80 0 0 1 0
T2200  3500  0 1 140 20 0 1 230 0 0 8 PIN
P-520 0 0 1 -80 0 0 1 0
T2200  3600  0 1 140 20 0 1 230 0 0 8 PIN
P-520 0 0 1 -80 0 0 1 0
T2200  3700  0 1 140 20 0 1 230 0 0 8 PIN
P-520 0 0 1 -80 0 0 1 0
T2200  3800  0 1 140 20 0 1 230 0 0 8 PIN
P-520 0 0 1 -80 0 0 1 0
T2200  3900  0 1 140 20 0 1 230 0 0 8 PIN
P-520 0 0 1 -80 0 0 1 0
T2200  4000  0 1 140 20 0 1 230 0 0 8 PIN
P-520 0 0 1 -80 0 0 1 0
T2200  4100  0 1 140 20 0 1 230 0 0 8 PIN
P-520 0 0 1 -80 0 0 1 0
T2200  4200  0 1 140 20 0 1 230 0 0 8 PIN
P-520 0 0 1 -80 0 0 1 0
T2200  4300  0 1 140 20 0 1 230 0 0 8 PIN
P-520 0 0 1 -80 0 0 1 0
T2200  4400  0 1 140 20 0 1 230 0 0 8 PIN
P-520 0 0 1 -80 0 0 1 0
T2200  4500  0 1 140 20 0 1 230 0 0 8 PIN
P-520 0 0 1 -80 0 0 1 0
T2200  4600  0 1 140 20 0 1 230 0 0 8 PIN
P-520 0 0 1 -80 0 0 1 0
T2200  4700  0 1 140 20 0 1 230 0 0 8 PIN
P-520 0 0 1 -80 0 0 1 0
T2200  4800  0 1 140 20 0 1 230 0 0 8 PIN
P-520 0 0 1 -80 0 0 1 0
T2200  4900  0 1 140 20 0 1 230 0 0 8 PIN
P-520 0 0 1 -80 0 0 1 0
T2200  5000  0 1 140 20 0 1 230 0 0 8 PIN
P-520 0 0 1 -80 0 0 1 0
T2200  5100  0 1 140 20 0 1 230 0 0 8 PIN
P-520 0 0 1 -80 0 0 1 0
T2200  5200  0 1 140 20 0 1 230 0 0 8 PIN
P-520 0 0 1 -80 0 0 1 0
T2200  5300  0 1 140 20 0 1 230 0 0 8 PIN
P-520 0 0 1 -80 0 0 1 0
T2200  5400  0 1 140 20 0 1 230 0 0 8 PIN
P-520 0 0 1 -80 0 0 1 0
T2200  5500  0 1 140 20 0 1 230 0 0 8 PIN
P-520 0 0 1 -80 0 0 1 0
T2200  5600  0 1 140 20 0 1 230 0 0 8 PIN
P-520 0 0 1 -80 0 0 1 0
T2200  5700  0 1 140 20 0 1 230 0 0 8 PIN
P-520 0 0 1 -80 0 0 1 0
T2200  5800  0 1 140 20 0 1 230 0 0 8 PIN
P-520 0 0 1 -80 0 0 1 0
T2200  5900  0 1 140 20 0 1 230 0 0 8 PIN
P-520 0 0 1 -80 0 0 1 0
T2200  6000  0 1 140 20 0 1 230 0 0 8 PIN
P-520 0 0 1 -80 0 0 1 0

J2               32000 32000 97 10 97 10 4 13 4 120 0 0
"Default Font"
"Default Font"
1010 7440 0 4 97 10 "Default Font"
REF-DES
1000 -40 0 6 97 10 "Default Font"
PART-TYPE
1000 -140 0 6 97 10 "Default Font"
*
1000 -240 0 6 97 10 "Default Font"
*
CLOSED 5   10  255
0     0    
2000  0    
2000  7400 
0     7400 
0     0    
OPEN   4   10  255
0     4500 
1000  4500 
1000  4900 
2000  4900 
OPEN   3   10  255
2000  3600 
1000  3600 
1000  4500 
OPEN   3   10  255
1000  3600 
1000  1200 
0     1200 
OPEN   2   10  255
1000  1200 
1000  0    
OPEN   3   10  255
1000  7400 
1000  6800 
0     6800 
OPEN   3   10  255
1000  6800 
2000  6800 
2000  6700 
OPEN   3   10  255
0     6100 
1000  6100 
1000  6800 
OPEN   2   10  255
2000  6500 
1000  6500 
OPEN   3   10  255
0     5400 
1000  5400 
1000  6100 
OPEN   3   10  255
0     5000 
1000  5000 
1000  5400 
OPEN   2   10  255
1000  4900 
1000  5000 
OPEN   2   10  255
1000  6100 
2000  6100 
730    4650   0   0 97  10
+2V8
730    4860   0   0 97  10
+2V8
730    4760   0   0 97  10
+2V5
960    6880   90  0 167 10
+2V5
T2200  7300  0 1 140 20 0 1 230 0 0 8 PIN
P-520 0 0 1 -80 0 0 1 0
T2200  7200  0 1 140 20 0 1 230 0 0 8 PIN
P-520 0 0 1 -80 0 0 1 0
T-200  1100  0 0 140 20 0 1 230 0 0 8 PIN
P-520 0 0 1 -80 0 0 1 0
T-200  1000  0 0 140 20 0 1 230 0 0 8 PIN
P-520 0 0 1 -80 0 0 1 0
T-200  6600  0 0 140 20 0 1 230 0 0 8 PIN
P-520 0 0 1 -80 0 0 1 0
T-200  6700  0 0 140 20 0 1 230 0 0 8 PIN
P-520 0 0 1 -80 0 0 1 0
T-200  6500  0 0 140 20 0 1 230 0 0 8 PIN
P-520 0 0 1 -80 0 0 1 0
T-200  6400  0 0 140 20 0 1 230 0 0 8 PIN
P-520 0 0 1 -80 0 0 1 0
T-200  6300  0 0 140 20 0 1 230 0 0 8 PIN
P-520 0 0 1 -80 0 0 1 0
T-200  6200  0 0 140 20 0 1 230 0 0 8 PIN
P-520 0 0 1 -80 0 0 1 0
T-200  5900  0 0 140 20 0 1 230 0 0 8 PIN
P-520 0 0 1 -80 0 0 1 0
T-200  6000  0 0 140 20 0 1 230 0 0 8 PIN
P-520 0 0 1 -80 0 0 1 0
T-200  5500  0 0 140 20 0 1 230 0 0 8 PIN
P-520 0 0 1 -80 0 0 1 0
T2200  5900  0 1 140 20 0 1 230 0 0 8 PIN
P-520 0 0 1 -80 0 0 1 0
T2200  6000  0 1 140 20 0 1 230 0 0 8 PIN
P-520 0 0 1 -80 0 0 1 0
T2200  5800  0 1 140 20 0 1 230 0 0 8 PIN
P-520 0 0 1 -80 0 0 1 0
T2200  5700  0 1 140 20 0 1 230 0 0 8 PIN
P-520 0 0 1 -80 0 0 1 0
T-200  5300  0 0 140 20 0 1 230 0 0 8 PIN
P-520 0 0 1 -80 0 0 1 0
T-200  5200  0 0 140 20 0 1 230 0 0 8 PIN
P-520 0 0 1 -80 0 0 1 0
T-200  900   0 0 140 20 0 1 230 0 0 8 PIN
P-520 0 0 1 -80 0 0 1 0
T2200  4700  0 1 140 20 0 1 230 0 0 8 PIN
P-520 0 0 1 -80 0 0 1 0
T2200  3900  0 1 140 20 0 1 230 0 0 8 PIN
P-520 0 0 1 -80 0 0 1 0
T2200  3800  0 1 140 20 0 1 230 0 0 8 PIN
P-520 0 0 1 -80 0 0 1 0
T2200  4300  0 1 140 20 0 1 230 0 0 8 PIN
P-520 0 0 1 -80 0 0 1 0
T-200  800   0 0 140 20 0 1 230 0 0 8 PIN
P-520 0 0 1 -80 0 0 1 0
T2200  2800  0 1 140 20 0 1 230 0 0 8 PIN
P-520 0 0 1 -80 0 0 1 0
T2200  2900  0 1 140 20 0 1 230 0 0 8 PIN
P-520 0 0 1 -80 0 0 1 0
T2200  2400  0 1 140 20 0 1 230 0 0 8 PIN
P-520 0 0 1 -80 0 0 1 0
T2200  2500  0 1 140 20 0 1 230 0 0 8 PIN
P-520 0 0 1 -80 0 0 1 0
T2200  2600  0 1 140 20 0 1 230 0 0 8 PIN
P-520 0 0 1 -80 0 0 1 0
T2200  2700  0 1 140 20 0 1 230 0 0 8 PIN
P-520 0 0 1 -80 0 0 1 0
T2200  2000  0 1 140 20 0 1 230 0 0 8 PIN
P-520 0 0 1 -80 0 0 1 0
T2200  2100  0 1 140 20 0 1 230 0 0 8 PIN
P-520 0 0 1 -80 0 0 1 0
T2200  1600  0 1 140 20 0 1 230 0 0 8 PIN
P-520 0 0 1 -80 0 0 1 0
T2200  1700  0 1 140 20 0 1 230 0 0 8 PIN
P-520 0 0 1 -80 0 0 1 0
T2200  1200  0 1 140 20 0 1 230 0 0 8 PIN
P-520 0 0 1 -80 0 0 1 0
T2200  1300  0 1 140 20 0 1 230 0 0 8 PIN
P-520 0 0 1 -80 0 0 1 0
T2200  1000  0 1 140 20 0 1 230 0 0 8 PIN
P-520 0 0 1 -80 0 0 1 0
T2200  1100  0 1 140 20 0 1 230 0 0 8 PIN
P-520 0 0 1 -80 0 0 1 0
T2200  400   0 1 140 20 0 1 230 0 0 8 PIN
P-520 0 0 1 -80 0 0 1 0
T2200  500   0 1 140 20 0 1 230 0 0 8 PIN
P-520 0 0 1 -80 0 0 1 0
T-200  700   0 0 140 20 0 1 230 0 0 8 PIN
P-520 0 0 1 -80 0 0 1 0
T-200  1800  0 0 140 20 0 1 230 0 0 8 PIN
P-520 0 0 1 -80 0 0 1 0
T-200  2000  0 0 140 20 0 1 230 0 0 8 PIN
P-520 0 0 1 -80 0 0 1 0
T-200  2100  0 0 140 20 0 1 230 0 0 8 PIN
P-520 0 0 1 -80 0 0 1 0
T-200  2300  0 0 140 20 0 1 230 0 0 8 PIN
P-520 0 0 1 -80 0 0 1 0
T-200  2400  0 0 140 20 0 1 230 0 0 8 PIN
P-520 0 0 1 -80 0 0 1 0
T-200  3000  0 0 140 20 0 1 230 0 0 8 PIN
P-520 0 0 1 -80 0 0 1 0
T-200  2500  0 0 140 20 0 1 230 0 0 8 PIN
P-520 0 0 1 -80 0 0 1 0
T-200  2700  0 0 140 20 0 1 230 0 0 8 PIN
P-520 0 0 1 -80 0 0 1 0
T-200  3100  0 0 140 20 0 1 230 0 0 8 PIN
P-520 0 0 1 -80 0 0 1 0
T-200  3300  0 0 140 20 0 1 230 0 0 8 PIN
P-520 0 0 1 -80 0 0 1 0
T-200  3400  0 0 140 20 0 1 230 0 0 8 PIN
P-520 0 0 1 -80 0 0 1 0
T-200  3500  0 0 140 20 0 1 230 0 0 8 PIN
P-520 0 0 1 -80 0 0 1 0
T-200  3600  0 0 140 20 0 1 230 0 0 8 PIN
P-520 0 0 1 -80 0 0 1 0
T-200  3900  0 0 140 20 0 1 230 0 0 8 PIN
P-520 0 0 1 -80 0 0 1 0
T-200  600   0 0 140 20 0 1 230 0 0 8 PIN
P-520 0 0 1 -80 0 0 1 0
T2200  5300  0 1 140 20 0 1 230 0 0 8 PIN
P-520 0 0 1 -80 0 0 1 0
T2200  5200  0 1 140 20 0 1 230 0 0 8 PIN
P-520 0 0 1 -80 0 0 1 0
T2200  5100  0 1 140 20 0 1 230 0 0 8 PIN
P-520 0 0 1 -80 0 0 1 0
T2200  5500  0 1 140 20 0 1 230 0 0 8 PIN
P-520 0 0 1 -80 0 0 1 0
T2200  5400  0 1 140 20 0 1 230 0 0 8 PIN
P-520 0 0 1 -80 0 0 1 0
T-200  500   0 0 140 20 0 1 230 0 0 8 PIN
P-520 0 0 1 -80 0 0 1 0
T-200  4000  0 0 140 20 0 1 230 0 0 8 PIN
P-520 0 0 1 -80 0 0 1 0
T-200  3700  0 0 140 20 0 1 230 0 0 8 PIN
P-520 0 0 1 -80 0 0 1 0
T-200  3800  0 0 140 20 0 1 230 0 0 8 PIN
P-520 0 0 1 -80 0 0 1 0
T-200  1500  0 0 140 20 0 1 230 0 0 8 PIN
P-520 0 0 1 -80 0 0 1 0
T-200  3200  0 0 140 20 0 1 230 0 0 8 PIN
P-520 0 0 1 -80 0 0 1 0
T-200  2800  0 0 140 20 0 1 230 0 0 8 PIN
P-520 0 0 1 -80 0 0 1 0
T-200  2600  0 0 140 20 0 1 230 0 0 8 PIN
P-520 0 0 1 -80 0 0 1 0
T-200  2900  0 0 140 20 0 1 230 0 0 8 PIN
P-520 0 0 1 -80 0 0 1 0
T-200  2200  0 0 140 20 0 1 230 0 0 8 PIN
P-520 0 0 1 -80 0 0 1 0
T-200  1900  0 0 140 20 0 1 230 0 0 8 PIN
P-520 0 0 1 -80 0 0 1 0
T-200  1700  0 0 140 20 0 1 230 0 0 8 PIN
P-520 0 0 1 -80 0 0 1 0
T-200  1400  0 0 140 20 0 1 230 0 0 8 PIN
P-520 0 0 1 -80 0 0 1 0
T-200  4300  0 0 140 20 0 1 230 0 0 8 PIN
P-520 0 0 1 -80 0 0 1 0
T-200  4200  0 0 140 20 0 1 230 0 0 8 PIN
P-520 0 0 1 -80 0 0 1 0
T2200  300   0 1 140 20 0 1 230 0 0 8 PIN
P-520 0 0 1 -80 0 0 1 0
T2200  200   0 1 140 20 0 1 230 0 0 8 PIN
P-520 0 0 1 -80 0 0 1 0
T2200  700   0 1 140 20 0 1 230 0 0 8 PIN
P-520 0 0 1 -80 0 0 1 0
T2200  600   0 1 140 20 0 1 230 0 0 8 PIN
P-520 0 0 1 -80 0 0 1 0
T2200  900   0 1 140 20 0 1 230 0 0 8 PIN
P-520 0 0 1 -80 0 0 1 0
T2200  800   0 1 140 20 0 1 230 0 0 8 PIN
P-520 0 0 1 -80 0 0 1 0
T2200  1500  0 1 140 20 0 1 230 0 0 8 PIN
P-520 0 0 1 -80 0 0 1 0
T2200  1400  0 1 140 20 0 1 230 0 0 8 PIN
P-520 0 0 1 -80 0 0 1 0
T2200  1900  0 1 140 20 0 1 230 0 0 8 PIN
P-520 0 0 1 -80 0 0 1 0
T2200  1800  0 1 140 20 0 1 230 0 0 8 PIN
P-520 0 0 1 -80 0 0 1 0
T2200  2300  0 1 140 20 0 1 230 0 0 8 PIN
P-520 0 0 1 -80 0 0 1 0
T2200  2200  0 1 140 20 0 1 230 0 0 8 PIN
P-520 0 0 1 -80 0 0 1 0
T2200  3100  0 1 140 20 0 1 230 0 0 8 PIN
P-520 0 0 1 -80 0 0 1 0
T2200  3000  0 1 140 20 0 1 230 0 0 8 PIN
P-520 0 0 1 -80 0 0 1 0
T2200  3400  0 1 140 20 0 1 230 0 0 8 PIN
P-520 0 0 1 -80 0 0 1 0
T2200  3300  0 1 140 20 0 1 230 0 0 8 PIN
P-520 0 0 1 -80 0 0 1 0
T-200  400   0 0 140 20 0 1 230 0 0 8 PIN
P-520 0 0 1 -80 0 0 1 0
T2200  4200  0 1 140 20 0 1 230 0 0 8 PIN
P-520 0 0 1 -80 0 0 1 0
T2200  4100  0 1 140 20 0 1 230 0 0 8 PIN
P-520 0 0 1 -80 0 0 1 0
T2200  4000  0 1 140 20 0 1 230 0 0 8 PIN
P-520 0 0 1 -80 0 0 1 0
T2200  4500  0 1 140 20 0 1 230 0 0 8 PIN
P-520 0 0 1 -80 0 0 1 0
T2200  4400  0 1 140 20 0 1 230 0 0 8 PIN
P-520 0 0 1 -80 0 0 1 0
T-200  300   0 0 140 20 0 1 230 0 0 8 PIN
P-520 0 0 1 -80 0 0 1 0
T-200  4900  0 0 140 20 0 1 230 0 0 8 PIN
P-520 0 0 1 -80 0 0 1 0
T-200  5100  0 0 140 20 0 1 230 0 0 8 PIN
P-520 0 0 1 -80 0 0 1 0
T-200  4800  0 0 140 20 0 1 230 0 0 8 PIN
P-520 0 0 1 -80 0 0 1 0
T2200  6400  0 1 140 20 0 1 230 0 0 8 PIN
P-520 0 0 1 -80 0 0 1 0
T2200  6300  0 1 140 20 0 1 230 0 0 8 PIN
P-520 0 0 1 -80 0 0 1 0
T2200  6700  0 1 140 20 0 1 230 0 0 8 PIN
P-520 0 0 1 -80 0 0 1 0
T2200  6600  0 1 140 20 0 1 230 0 0 8 PIN
P-520 0 0 1 -80 0 0 1 0
T-200  4700  0 0 140 20 0 1 230 0 0 8 PIN
P-520 0 0 1 -80 0 0 1 0
T-200  5800  0 0 140 20 0 1 230 0 0 8 PIN
P-520 0 0 1 -80 0 0 1 0
T-200  5700  0 0 140 20 0 1 230 0 0 8 PIN
P-520 0 0 1 -80 0 0 1 0
T-200  5600  0 0 140 20 0 1 230 0 0 8 PIN
P-520 0 0 1 -80 0 0 1 0
T-200  7200  0 0 140 20 0 1 230 0 0 8 PIN
P-520 0 0 1 -80 0 0 1 0
T-200  7100  0 0 140 20 0 1 230 0 0 8 PIN
P-520 0 0 1 -80 0 0 1 0
T-200  7300  0 0 140 20 0 1 230 0 0 8 PIN
P-520 0 0 1 -80 0 0 1 0
T-200  7000  0 0 140 20 0 1 230 0 0 8 PIN
P-520 0 0 1 -80 0 0 1 0
T-200  6900  0 0 140 20 0 1 230 0 0 8 PIN
P-520 0 0 1 -80 0 0 1 0
T-200  200   0 0 140 20 0 1 230 0 0 8 PIN
P-520 0 0 1 -80 0 0 1 0
T-200  100   0 0 140 20 0 1 230 0 0 8 PIN
P-520 0 0 1 -80 0 0 1 0
T2200  7100  0 1 140 20 0 1 230 0 0 8 PIN
P-520 0 0 1 -80 0 0 1 0
T2200  7000  0 1 140 20 0 1 230 0 0 8 PIN
P-520 0 0 1 -80 0 0 1 0

J2_2             32000 32000 97 10 97 10 4 1 0 120 0 0
"Default Font"
"Default Font"
1000 6140 0 4 97 10 "Default Font"
REF-DES
1000 -40 0 6 97 10 "Default Font"
PART-TYPE
1000 -140 0 6 97 10 "Default Font"
*
1000 -240 0 6 97 10 "Default Font"
*
CLOSED 5   10  255
0     0    
2000  0    
2000  6100 
0     6100 
0     0    
T-200  6000  0 0 140 20 0 1 230 0 0 8 PIN
P-520 0 0 1 -80 0 0 1 0
T-200  5900  0 0 140 20 0 1 230 0 0 8 PIN
P-520 0 0 1 -80 0 0 1 0
T-200  5800  0 0 140 20 0 1 230 0 0 8 PIN
P-520 0 0 1 -80 0 0 1 0
T-200  5700  0 0 140 20 0 1 230 0 0 8 PIN
P-520 0 0 1 -80 0 0 1 0
T-200  5600  0 0 140 20 0 1 230 0 0 8 PIN
P-520 0 0 1 -80 0 0 1 0
T-200  5500  0 0 140 20 0 1 230 0 0 8 PIN
P-520 0 0 1 -80 0 0 1 0
T-200  5400  0 0 140 20 0 1 230 0 0 8 PIN
P-520 0 0 1 -80 0 0 1 0
T-200  5300  0 0 140 20 0 1 230 0 0 8 PIN
P-520 0 0 1 -80 0 0 1 0
T-200  5200  0 0 140 20 0 1 230 0 0 8 PIN
P-520 0 0 1 -80 0 0 1 0
T-200  5100  0 0 140 20 0 1 230 0 0 8 PIN
P-520 0 0 1 -80 0 0 1 0
T-200  5000  0 0 140 20 0 1 230 0 0 8 PIN
P-520 0 0 1 -80 0 0 1 0
T-200  4900  0 0 140 20 0 1 230 0 0 8 PIN
P-520 0 0 1 -80 0 0 1 0
T-200  4800  0 0 140 20 0 1 230 0 0 8 PIN
P-520 0 0 1 -80 0 0 1 0
T-200  4700  0 0 140 20 0 1 230 0 0 8 PIN
P-520 0 0 1 -80 0 0 1 0
T-200  4600  0 0 140 20 0 1 230 0 0 8 PIN
P-520 0 0 1 -80 0 0 1 0
T-200  4500  0 0 140 20 0 1 230 0 0 8 PIN
P-520 0 0 1 -80 0 0 1 0
T-200  4400  0 0 140 20 0 1 230 0 0 8 PIN
P-520 0 0 1 -80 0 0 1 0
T-200  4300  0 0 140 20 0 1 230 0 0 8 PIN
P-520 0 0 1 -80 0 0 1 0
T-200  4200  0 0 140 20 0 1 230 0 0 8 PIN
P-520 0 0 1 -80 0 0 1 0
T-200  4100  0 0 140 20 0 1 230 0 0 8 PIN
P-520 0 0 1 -80 0 0 1 0
T-200  4000  0 0 140 20 0 1 230 0 0 8 PIN
P-520 0 0 1 -80 0 0 1 0
T-200  3900  0 0 140 20 0 1 230 0 0 8 PIN
P-520 0 0 1 -80 0 0 1 0
T-200  3800  0 0 140 20 0 1 230 0 0 8 PIN
P-520 0 0 1 -80 0 0 1 0
T-200  3700  0 0 140 20 0 1 230 0 0 8 PIN
P-520 0 0 1 -80 0 0 1 0
T-200  3600  0 0 140 20 0 1 230 0 0 8 PIN
P-520 0 0 1 -80 0 0 1 0
T-200  3500  0 0 140 20 0 1 230 0 0 8 PIN
P-520 0 0 1 -80 0 0 1 0
T-200  3400  0 0 140 20 0 1 230 0 0 8 PIN
P-520 0 0 1 -80 0 0 1 0
T-200  3300  0 0 140 20 0 1 230 0 0 8 PIN
P-520 0 0 1 -80 0 0 1 0
T-200  3200  0 0 140 20 0 1 230 0 0 8 PIN
P-520 0 0 1 -80 0 0 1 0
T-200  3100  0 0 140 20 0 1 230 0 0 8 PIN
P-520 0 0 1 -80 0 0 1 0
T-200  3000  0 0 140 20 0 1 230 0 0 8 PIN
P-520 0 0 1 -80 0 0 1 0
T-200  2900  0 0 140 20 0 1 230 0 0 8 PIN
P-520 0 0 1 -80 0 0 1 0
T-200  2800  0 0 140 20 0 1 230 0 0 8 PIN
P-520 0 0 1 -80 0 0 1 0
T-200  2700  0 0 140 20 0 1 230 0 0 8 PIN
P-520 0 0 1 -80 0 0 1 0
T-200  2600  0 0 140 20 0 1 230 0 0 8 PIN
P-520 0 0 1 -80 0 0 1 0
T-200  2500  0 0 140 20 0 1 230 0 0 8 PIN
P-520 0 0 1 -80 0 0 1 0
T-200  2400  0 0 140 20 0 1 230 0 0 8 PIN
P-520 0 0 1 -80 0 0 1 0
T-200  2300  0 0 140 20 0 1 230 0 0 8 PIN
P-520 0 0 1 -80 0 0 1 0
T-200  2200  0 0 140 20 0 1 230 0 0 8 PIN
P-520 0 0 1 -80 0 0 1 0
T-200  2100  0 0 140 20 0 1 230 0 0 8 PIN
P-520 0 0 1 -80 0 0 1 0
T-200  2000  0 0 140 20 0 1 230 0 0 8 PIN
P-520 0 0 1 -80 0 0 1 0
T-200  1900  0 0 140 20 0 1 230 0 0 8 PIN
P-520 0 0 1 -80 0 0 1 0
T-200  1800  0 0 140 20 0 1 230 0 0 8 PIN
P-520 0 0 1 -80 0 0 1 0
T-200  1700  0 0 140 20 0 1 230 0 0 8 PIN
P-520 0 0 1 -80 0 0 1 0
T-200  1600  0 0 140 20 0 1 230 0 0 8 PIN
P-520 0 0 1 -80 0 0 1 0
T-200  1500  0 0 140 20 0 1 230 0 0 8 PIN
P-520 0 0 1 -80 0 0 1 0
T-200  1400  0 0 140 20 0 1 230 0 0 8 PIN
P-520 0 0 1 -80 0 0 1 0
T-200  1300  0 0 140 20 0 1 230 0 0 8 PIN
P-520 0 0 1 -80 0 0 1 0
T-200  1200  0 0 140 20 0 1 230 0 0 8 PIN
P-520 0 0 1 -80 0 0 1 0
T-200  1100  0 0 140 20 0 1 230 0 0 8 PIN
P-520 0 0 1 -80 0 0 1 0
T-200  1000  0 0 140 20 0 1 230 0 0 8 PIN
P-520 0 0 1 -80 0 0 1 0
T-200  900   0 0 140 20 0 1 230 0 0 8 PIN
P-520 0 0 1 -80 0 0 1 0
T-200  800   0 0 140 20 0 1 230 0 0 8 PIN
P-520 0 0 1 -80 0 0 1 0
T-200  700   0 0 140 20 0 1 230 0 0 8 PIN
P-520 0 0 1 -80 0 0 1 0
T-200  600   0 0 140 20 0 1 230 0 0 8 PIN
P-520 0 0 1 -80 0 0 1 0
T-200  500   0 0 140 20 0 1 230 0 0 8 PIN
P-520 0 0 1 -80 0 0 1 0
T-200  400   0 0 140 20 0 1 230 0 0 8 PIN
P-520 0 0 1 -80 0 0 1 0
T-200  300   0 0 140 20 0 1 230 0 0 8 PIN
P-520 0 0 1 -80 0 0 1 0
T-200  200   0 0 140 20 0 1 230 0 0 8 PIN
P-520 0 0 1 -80 0 0 1 0
T-200  100   0 0 140 20 0 1 230 0 0 8 PIN
P-520 0 0 1 -80 0 0 1 0
T2200  100   0 1 140 20 0 1 230 0 0 8 PIN
P-520 0 0 1 -80 0 0 1 0
T2200  200   0 1 140 20 0 1 230 0 0 8 PIN
P-520 0 0 1 -80 0 0 1 0
T2200  300   0 1 140 20 0 1 230 0 0 8 PIN
P-520 0 0 1 -80 0 0 1 0
T2200  400   0 1 140 20 0 1 230 0 0 8 PIN
P-520 0 0 1 -80 0 0 1 0
T2200  500   0 1 140 20 0 1 230 0 0 8 PIN
P-520 0 0 1 -80 0 0 1 0
T2200  600   0 1 140 20 0 1 230 0 0 8 PIN
P-520 0 0 1 -80 0 0 1 0
T2200  700   0 1 140 20 0 1 230 0 0 8 PIN
P-520 0 0 1 -80 0 0 1 0
T2200  800   0 1 140 20 0 1 230 0 0 8 PIN
P-520 0 0 1 -80 0 0 1 0
T2200  900   0 1 140 20 0 1 230 0 0 8 PIN
P-520 0 0 1 -80 0 0 1 0
T2200  1000  0 1 140 20 0 1 230 0 0 8 PIN
P-520 0 0 1 -80 0 0 1 0
T2200  1100  0 1 140 20 0 1 230 0 0 8 PIN
P-520 0 0 1 -80 0 0 1 0
T2200  1200  0 1 140 20 0 1 230 0 0 8 PIN
P-520 0 0 1 -80 0 0 1 0
T2200  1300  0 1 140 20 0 1 230 0 0 8 PIN
P-520 0 0 1 -80 0 0 1 0
T2200  1400  0 1 140 20 0 1 230 0 0 8 PIN
P-520 0 0 1 -80 0 0 1 0
T2200  1500  0 1 140 20 0 1 230 0 0 8 PIN
P-520 0 0 1 -80 0 0 1 0
T2200  1600  0 1 140 20 0 1 230 0 0 8 PIN
P-520 0 0 1 -80 0 0 1 0
T2200  1700  0 1 140 20 0 1 230 0 0 8 PIN
P-520 0 0 1 -80 0 0 1 0
T2200  1800  0 1 140 20 0 1 230 0 0 8 PIN
P-520 0 0 1 -80 0 0 1 0
T2200  1900  0 1 140 20 0 1 230 0 0 8 PIN
P-520 0 0 1 -80 0 0 1 0
T2200  2000  0 1 140 20 0 1 230 0 0 8 PIN
P-520 0 0 1 -80 0 0 1 0
T2200  2100  0 1 140 20 0 1 230 0 0 8 PIN
P-520 0 0 1 -80 0 0 1 0
T2200  2200  0 1 140 20 0 1 230 0 0 8 PIN
P-520 0 0 1 -80 0 0 1 0
T2200  2300  0 1 140 20 0 1 230 0 0 8 PIN
P-520 0 0 1 -80 0 0 1 0
T2200  2400  0 1 140 20 0 1 230 0 0 8 PIN
P-520 0 0 1 -80 0 0 1 0
T2200  2500  0 1 140 20 0 1 230 0 0 8 PIN
P-520 0 0 1 -80 0 0 1 0
T2200  2600  0 1 140 20 0 1 230 0 0 8 PIN
P-520 0 0 1 -80 0 0 1 0
T2200  2700  0 1 140 20 0 1 230 0 0 8 PIN
P-520 0 0 1 -80 0 0 1 0
T2200  2800  0 1 140 20 0 1 230 0 0 8 PIN
P-520 0 0 1 -80 0 0 1 0
T2200  2900  0 1 140 20 0 1 230 0 0 8 PIN
P-520 0 0 1 -80 0 0 1 0
T2200  3000  0 1 140 20 0 1 230 0 0 8 PIN
P-520 0 0 1 -80 0 0 1 0
T2200  3100  0 1 140 20 0 1 230 0 0 8 PIN
P-520 0 0 1 -80 0 0 1 0
T2200  3200  0 1 140 20 0 1 230 0 0 8 PIN
P-520 0 0 1 -80 0 0 1 0
T2200  3300  0 1 140 20 0 1 230 0 0 8 PIN
P-520 0 0 1 -80 0 0 1 0
T2200  3400  0 1 140 20 0 1 230 0 0 8 PIN
P-520 0 0 1 -80 0 0 1 0
T2200  3500  0 1 140 20 0 1 230 0 0 8 PIN
P-520 0 0 1 -80 0 0 1 0
T2200  3600  0 1 140 20 0 1 230 0 0 8 PIN
P-520 0 0 1 -80 0 0 1 0
T2200  3700  0 1 140 20 0 1 230 0 0 8 PIN
P-520 0 0 1 -80 0 0 1 0
T2200  3800  0 1 140 20 0 1 230 0 0 8 PIN
P-520 0 0 1 -80 0 0 1 0
T2200  3900  0 1 140 20 0 1 230 0 0 8 PIN
P-520 0 0 1 -80 0 0 1 0
T2200  4000  0 1 140 20 0 1 230 0 0 8 PIN
P-520 0 0 1 -80 0 0 1 0
T2200  4100  0 1 140 20 0 1 230 0 0 8 PIN
P-520 0 0 1 -80 0 0 1 0
T2200  4200  0 1 140 20 0 1 230 0 0 8 PIN
P-520 0 0 1 -80 0 0 1 0
T2200  4300  0 1 140 20 0 1 230 0 0 8 PIN
P-520 0 0 1 -80 0 0 1 0
T2200  4400  0 1 140 20 0 1 230 0 0 8 PIN
P-520 0 0 1 -80 0 0 1 0
T2200  4500  0 1 140 20 0 1 230 0 0 8 PIN
P-520 0 0 1 -80 0 0 1 0
T2200  4600  0 1 140 20 0 1 230 0 0 8 PIN
P-520 0 0 1 -80 0 0 1 0
T2200  4700  0 1 140 20 0 1 230 0 0 8 PIN
P-520 0 0 1 -80 0 0 1 0
T2200  4800  0 1 140 20 0 1 230 0 0 8 PIN
P-520 0 0 1 -80 0 0 1 0
T2200  4900  0 1 140 20 0 1 230 0 0 8 PIN
P-520 0 0 1 -80 0 0 1 0
T2200  5000  0 1 140 20 0 1 230 0 0 8 PIN
P-520 0 0 1 -80 0 0 1 0
T2200  5100  0 1 140 20 0 1 230 0 0 8 PIN
P-520 0 0 1 -80 0 0 1 0
T2200  5200  0 1 140 20 0 1 230 0 0 8 PIN
P-520 0 0 1 -80 0 0 1 0
T2200  5300  0 1 140 20 0 1 230 0 0 8 PIN
P-520 0 0 1 -80 0 0 1 0
T2200  5400  0 1 140 20 0 1 230 0 0 8 PIN
P-520 0 0 1 -80 0 0 1 0
T2200  5500  0 1 140 20 0 1 230 0 0 8 PIN
P-520 0 0 1 -80 0 0 1 0
T2200  5600  0 1 140 20 0 1 230 0 0 8 PIN
P-520 0 0 1 -80 0 0 1 0
T2200  5700  0 1 140 20 0 1 230 0 0 8 PIN
P-520 0 0 1 -80 0 0 1 0
T2200  5800  0 1 140 20 0 1 230 0 0 8 PIN
P-520 0 0 1 -80 0 0 1 0
T2200  5900  0 1 140 20 0 1 230 0 0 8 PIN
P-520 0 0 1 -80 0 0 1 0
T2200  6000  0 1 140 20 0 1 230 0 0 8 PIN
P-520 0 0 1 -80 0 0 1 0


*PARTTYPE*   ITEMS

APF27 CON  2   0   0     0 240
G:J1:J1_2 0 120
1.0.U.+2V8_1
2.0.U.+2V8_2
3.0.U.USBH1_SUSPEND
4.0.U.USBH1_PWR
5.0.U.USBH1_FS
6.0.U.USBH1_TXDM
7.0.U.USBH1_RXDM
8.0.U.SPI2_SS0_USBH2_DATA6
9.0.U.SPI2_SS1_USBH2_DATA3
10.0.U.SPI2_SS2_USBH2_DATA4
11.0.U.SPI1_SS0
12.0.U.SPI1_SS2_USBH2_DATA5
13.0.U.+2V5
14.0.U.RESERVED
15.0.G.GND_1
16.0.U.SD1_D0_SPI3_MISO
17.0.U.SD1_D1
18.0.U.SD1_D2
19.0.U.SD1_D3_SPI3_SS
20.0.U.SD1_CMD_SPI3_MOSI
21.0.U.SD1_CLK_SPI3_SCLK
22.0.U.UART1_CTS
23.0.U.UART1_RTS
24.0.U.UART3_CTS
25.0.U.UART3_RTS
26.0.G.GND_2
27.0.U.KP_COL0
28.0.U.KP_COL1
29.0.U.KP_COL2
30.0.U.KP_COL3
31.0.U.KP_COL4
32.0.U.KP_COL5
33.0.U.SSI3_FS
34.0.U.SSI3_RXDAT
35.0.U.SSI3_TXDAT
36.0.U.SSI3_CLK
37.0.G.GND_3
38.0.U.CSI_D6_UART5_TXD
39.0.U.CSI_D7_UART5_RXD
40.0.U.CSI_VSYNC_UART5_CTS
41.0.U.CSI_HSYNC_UART5_RTS
42.0.U.CSI_MCLK
43.0.U.CSI_PIXCLK
44.0.U.SD2_D0
45.0.U.SD2_D1
46.0.U.SD2_D2
47.0.U.SD2_D3
48.0.U.SD2_CMD
49.0.U.SD2_CLK
50.0.G.GND_4
51.0.U.CLS
52.0.U.REV
53.0.U.PS
54.0.U.SPL_SPR
55.0.U.HSYNC
56.0.U.VSYNC
57.0.U.CONTRAST
58.0.U.OE_ACD
59.0.U.LSCLK
60.0.G.GND_5
61.0.U.LD17
62.0.U.LD16
63.0.U.LD15
64.0.U.LD14
65.0.U.LD13
66.0.U.LD12
67.0.U.LD11
68.0.U.LD10
69.0.U.LD9
70.0.U.LD8
71.0.U.LD7
72.0.U.LD6
73.0.U.LD5
74.0.U.LD4
75.0.U.LD3
76.0.U.LD2
77.0.U.LD1
78.0.U.LD0
79.0.G.GND_6
80.0.U.CSI_D5
81.0.U.CSI_D4
82.0.U.CSI_D3_UART6_RTS
83.0.U.CSI_D2_UART6_CTS
84.0.U.CSI_D1_UART6_RXD
85.0.U.CSI_D0_UART6_TXD
86.0.U.SSI1_CLK
87.0.U.SSI1_TXDAT
88.0.U.SSI1_RXDAT
89.0.U.SSI1_FS
90.0.U.SSI2_CLK_GPT4_TIN
91.0.U.SSI2_TXDAT_GPT4_TOUT
92.0.U.SSI2_RXDAT_GTP5_TIN
93.0.U.SSI2_FS_GPT5_TOUT
94.0.U.KP_ROW5
95.0.U.KP_ROW4
96.0.U.KP_ROW3
97.0.U.KP_ROW2
98.0.U.KP_ROW1
99.0.U.KP_ROW0
100.0.U.UART2_RTS_KP_ROW7
101.0.U.UART2_CTS_KP_COL7
102.0.U.UART2_RXD_KP_ROW6
103.0.U.UART2_TXD_KP_COL6
104.0.U.I2C_DATA
105.0.U.I2C_CLK
106.0.U.RTCK_OWIRE
107.0.U.I2C2_SDA
108.0.U.I2C2_SCL
109.0.U.SPI1_SCLK
110.0.U.SPI1_MISO
111.0.U.SPI1_MOSI
112.0.U.SPI2_MOSI_USBH2_DATA1
113.0.U.SPI2_MISO_USBH2_DAT2
114.0.U.SPI2_SCLK_USBH2_DATA0
115.0.G.GND_7
116.0.U.USBH1_RXDP
117.0.U.USBH1_TXDP
118.0.U.USBH1_OE#
119.0.U.USBH1_RCV
120.0.U.USBH1_OC#
G:J2:J2_2 0 120
121.0.U.+3V3_1
122.0.U.+3V3_2
123.0.U.GND_8
124.0.U.GND_9
125.0.U.DP
126.0.U.DM
127.0.U.VBUS
128.0.U.PSW#
129.0.U.ID
130.0.U.FAULT
131.0.U.RXP
132.0.U.RXN
133.0.U.ETH_LINK
134.0.U.PC_VS2
135.0.U.PC_VS1
136.0.U.PC_PWRON
137.0.U.PC_READY
138.0.U.PWM0
139.0.U.TOUT
140.0.U.GND_10
141.0.U.VCC01
142.0.U.IO_L24P_1
143.0.U.IO_L24N_1
144.0.U.IO_L22P_1
145.0.U.GND_11
146.0.U.IO_L02N_0
147.0.U.IO_L02P_0
148.0.U.IO_L04N_0
149.0.U.IO_L04P_0
150.0.U.IO_L03N_0
151.0.U.IO_L03P_0
152.0.U.IO_L08N_0
153.0.U.IO_L08P_0
154.0.U.IO_L10N_0/GLCK7
155.0.U.IO_L10P_0/GCLK6
156.0.U.IO_L12N_0/GCLK11
157.0.U.IO_L12P_0/GCLK10
158.0.U.IO_L15N_0
159.0.U.IO_L15P_0
160.0.U.IO_L18N_0
161.0.U.IO_L18P_0
162.0.U.GND_12
163.0.U.IO_L24P_3
164.0.U.IO_L23P_3
165.0.U.IO_L22N_3
166.0.U.IO_L20N_3
167.0.U.IO_L20P_3
168.0.U.IO_L12P_3
169.0.U.IO_L15N_3
170.0.U.IO_L14N_3
171.0.U.IO_L11N_3
172.0.U.IO_L08N_3
173.0.U.IO_L08P_3
174.0.U.IO_L03N_3
175.0.U.IO_L03P_3
176.0.U.IO_L01N_3
177.0.U.GND_13
178.0.U.TRSTN
179.0.U.TDI
180.0.U.TCK
181.0.U.TDO
182.0.U.TMS
183.0.U.GND_14
184.0.U.IO_L01P_3
185.0.U.IO_L02N_3
186.0.U.IO_L02P_3
187.0.U.IP_L04N_3
188.0.U.IO_L11P_3
189.0.U.IO_L14P_3
190.0.U.IO_L15P_3
191.0.U.IO_L12N_3
192.0.U.IO_L22P_3
193.0.U.IO_L23N_3
194.0.U.IO_L24N_3
195.0.U.IP_L25N_3
196.0.U.VCCO3_1
197.0.U.VCCO3_2
198.0.U.IO_L19P_0
199.0.U.IO_L19N_0
200.0.U.IO_L17P_0
201.0.U.IO_L17N_0
202.0.U.IO_L16P_0
203.0.U.IO_L16N_0
204.0.U.IO_L11P_0/GCLK8
205.0.U.IO_L11N_0/GCLK9
206.0.U.IO_L09P_0/GCLK4
207.0.U.IO_L09N_0/GCLK5
208.0.U.IO_L07P_0
209.0.U.IO_L07N_0
210.0.U.IO_L01P_0
211.0.U.IO_L01N_0
212.0.U.VCCO0_1
213.0.U.VCCO0_2
214.0.U.GND_15
215.0.U.IO_L22N_1
216.0.U.IO_L23P_1
217.0.U.IO_L23N_1
218.0.U.IO_L20P_1
219.0.U.IO_L20N_1
220.0.U.GND_16
221.0.U.USR_RESET#
222.0.U.TIN
223.0.U.EXTAL_26M
224.0.U.RX3
225.0.U.TX3
226.0.U.RX1
227.0.U.TX1
228.0.U.BOOT
229.0.U.TXN
230.0.U.TXP
231.0.U.ETH_ACTIVITY
232.0.U.USBH2_NXT
233.0.U.USBH2_DIR
234.0.U.USBH2_DATA7
235.0.U.USBH2_STP
236.0.U.USBH2_CLK
237.0.U.GND_17
238.0.U.GND_18
239.0.U.+3V3_3
240.0.U.+3V3_4
J1_1 J1_2 J1_3 J1_4 J1_5 J1_6 J1_7 J1_8 J1_9 J1_10 J1_11 J1_12 
J1_13 J1_14 J1_15 J1_16 J1_17 J1_18 J1_19 J1_20 J1_21 J1_22 J1_23 J1_24 
J1_25 J1_26 J1_27 J1_28 J1_29 J1_30 J1_31 J1_32 J1_33 J1_34 J1_35 J1_36 
J1_37 J1_38 J1_39 J1_40 J1_41 J1_42 J1_43 J1_44 J1_45 J1_46 J1_47 J1_48 
J1_49 J1_50 J1_51 J1_52 J1_53 J1_54 J1_55 J1_56 J1_57 J1_58 J1_59 J1_60 
J1_61 J1_62 J1_63 J1_64 J1_65 J1_66 J1_67 J1_68 J1_69 J1_70 J1_71 J1_72 
J1_73 J1_74 J1_75 J1_76 J1_77 J1_78 J1_79 J1_80 J1_81 J1_82 J1_83 J1_84 
J1_85 J1_86 J1_87 J1_88 J1_89 J1_90 J1_91 J1_92 J1_93 J1_94 J1_95 J1_96 
J1_97 J1_98 J1_99 J1_100 J1_101 J1_102 J1_103 J1_104 J1_105 J1_106 J1_107 J1_108 
J1_109 J1_110 J1_111 J1_112 J1_113 J1_114 J1_115 J1_116 J1_117 J1_118 J1_119 J1_120 
J2_1 J2_2 J2_3 J2_4 J2_5 J2_6 J2_7 J2_8 J2_9 J2_10 J2_11 J2_12 
J2_13 J2_14 J2_15 J2_16 J2_17 J2_18 J2_19 J2_20 J2_21 J2_22 J2_23 J2_24 
J2_25 J2_26 J2_27 J2_28 J2_29 J2_30 J2_31 J2_32 J2_33 J2_34 J2_35 J2_36 
J2_37 J2_38 J2_39 J2_40 J2_41 J2_42 J2_43 J2_44 J2_45 J2_46 J2_47 J2_48 
J2_49 J2_50 J2_51 J2_52 J2_53 J2_54 J2_55 J2_56 J2_57 J2_58 J2_59 J2_60 
J2_61 J2_62 J2_63 J2_64 J2_65 J2_66 J2_67 J2_68 J2_69 J2_70 J2_71 J2_72 
J2_73 J2_74 J2_75 J2_76 J2_77 J2_78 J2_79 J2_80 J2_81 J2_82 J2_83 J2_84 
J2_85 J2_86 J2_87 J2_88 J2_89 J2_90 J2_91 J2_92 J2_93 J2_94 J2_95 J2_96 
J2_97 J2_98 J2_99 J2_100 J2_101 J2_102 J2_103 J2_104 J2_105 J2_106 J2_107 J2_108 
J2_109 J2_110 J2_111 J2_112 J2_113 J2_114 J2_115 J2_116 J2_117 J2_118 J2_119 J2_120 



*PART*       ITEMS



J1-A         APF27            9700  1000    0 0 97 10 97 10 4 1 120 0 0 0
"Default Font"
"Default Font"
1010 7840 0 4 97 10 0 "Default Font"
REF-DES
1000 -40 0 6 97 10 0 "Default Font"
PART-TYPE
1000 -140 0 6 97 10 0 "Default Font"
*
1000 -240 0 6 97 10 0 "Default Font"
*
"PCB DECAL" APF27
0 140 20 0 1
1 140 20 0 1
2 140 20 0 1
3 140 20 0 1
4 140 20 0 1
5 140 20 0 1
6 140 20 0 1
7 140 20 0 1
8 140 20 0 1
9 140 20 0 1
10 140 20 0 1
11 140 20 0 1
12 140 20 0 1
13 140 20 0 1
14 140 20 0 1
15 140 20 0 1
16 140 20 0 1
17 140 20 0 1
18 140 20 0 1
19 140 20 0 1
20 140 20 0 1
21 140 20 0 1
22 140 20 0 1
23 140 20 0 1
24 140 20 0 1
25 140 20 0 1
26 140 20 0 1
27 140 20 0 1
28 140 20 0 1
29 140 20 0 1
30 140 20 0 1
31 140 20 0 1
32 140 20 0 1
33 140 20 0 1
34 140 20 0 1
35 140 20 0 1
36 140 20 0 1
37 140 20 0 1
38 140 20 0 1
39 140 20 0 1
40 140 20 0 1
41 140 20 0 1
42 140 20 0 1
43 140 20 0 1
44 140 20 0 1
45 140 20 0 1
46 140 20 0 1
47 140 20 0 1
48 140 20 0 1
49 140 20 0 1
50 140 20 0 1
51 140 20 0 1
52 140 20 0 1
53 140 20 0 1
54 140 20 0 1
55 140 20 0 1
56 140 20 0 1
57 140 20 0 1
58 140 20 0 1
59 140 20 0 1
60 140 20 0 1
61 140 20 0 1
62 140 20 0 1
63 140 20 0 1
64 140 20 0 1
65 140 20 0 1
66 140 20 0 1
67 140 20 0 1
68 140 20 0 1
69 140 20 0 1
70 140 20 0 1
71 140 20 0 1
72 140 20 0 1
73 140 20 0 1
74 140 20 0 1
75 140 20 0 1
76 140 20 0 1
77 140 20 0 1
78 140 20 0 1
79 140 20 0 1
80 140 20 0 1
81 140 20 0 1
82 140 20 0 1
83 140 20 0 1
84 140 20 0 1
85 140 20 0 1
86 140 20 0 1
87 140 20 0 1
88 140 20 0 1
89 140 20 0 1
90 140 20 0 1
91 140 20 0 1
92 140 20 0 1
93 140 20 0 1
94 140 20 0 1
95 140 20 0 1
96 140 20 0 1
97 140 20 0 1
98 140 20 0 1
99 140 20 0 1
100 140 20 0 1
101 140 20 0 1
102 140 20 0 1
103 140 20 0 1
104 140 20 0 1
105 140 20 0 1
106 140 20 0 1
107 140 20 0 1
108 140 20 0 1
109 140 20 0 1
110 140 20 0 1
111 140 20 0 1
112 140 20 0 1
113 140 20 0 1
114 140 20 0 1
115 140 20 0 1
116 140 20 0 1
117 140 20 0 1
118 140 20 0 1
119 140 20 0 1

J1-B         APF27            4200  1200    0 0 97 10 97 10 4 1 120 0 0 0
"Default Font"
"Default Font"
1010 7440 0 4 97 10 0 "Default Font"
REF-DES
1000 -40 0 6 97 10 0 "Default Font"
PART-TYPE
1000 -140 0 6 97 10 0 "Default Font"
*
1000 -240 0 6 97 10 0 "Default Font"
*
"PCB DECAL" APF27
0 140 20 0 1
1 140 20 0 1
2 140 20 0 1
3 140 20 0 1
4 140 20 0 1
5 140 20 0 1
6 140 20 0 1
7 140 20 0 1
8 140 20 0 1
9 140 20 0 1
10 140 20 0 1
11 140 20 0 1
12 140 20 0 1
13 140 20 0 1
14 140 20 0 1
15 140 20 0 1
16 140 20 0 1
17 140 20 0 1
18 140 20 0 1
19 140 20 0 1
20 140 20 0 1
21 140 20 0 1
22 140 20 0 1
23 140 20 0 1
24 140 20 0 1
25 140 20 0 1
26 140 20 0 1
27 140 20 0 1
28 140 20 0 1
29 140 20 0 1
30 140 20 0 1
31 140 20 0 1
32 140 20 0 1
33 140 20 0 1
34 140 20 0 1
35 140 20 0 1
36 140 20 0 1
37 140 20 0 1
38 140 20 0 1
39 140 20 0 1
40 140 20 0 1
41 140 20 0 1
42 140 20 0 1
43 140 20 0 1
44 140 20 0 1
45 140 20 0 1
46 140 20 0 1
47 140 20 0 1
48 140 20 0 1
49 140 20 0 1
50 140 20 0 1
51 140 20 0 1
52 140 20 0 1
53 140 20 0 1
54 140 20 0 1
55 140 20 0 1
56 140 20 0 1
57 140 20 0 1
58 140 20 0 1
59 140 20 0 1
60 140 20 0 1
61 140 20 0 1
62 140 20 0 1
63 140 20 0 1
64 140 20 0 1
65 140 20 0 1
66 140 20 0 1
67 140 20 0 1
68 140 20 0 1
69 140 20 0 1
70 140 20 0 1
71 140 20 0 1
72 140 20 0 1
73 140 20 0 1
74 140 20 0 1
75 140 20 0 1
76 140 20 0 1
77 140 20 0 1
78 140 20 0 1
79 140 20 0 1
80 140 20 0 1
81 140 20 0 1
82 140 20 0 1
83 140 20 0 1
84 140 20 0 1
85 140 20 0 1
86 140 20 0 1
87 140 20 0 1
88 140 20 0 1
89 140 20 0 1
90 140 20 0 1
91 140 20 0 1
92 140 20 0 1
93 140 20 0 1
94 140 20 0 1
95 140 20 0 1
96 140 20 0 1
97 140 20 0 1
98 140 20 0 1
99 140 20 0 1
100 140 20 0 1
101 140 20 0 1
102 140 20 0 1
103 140 20 0 1
104 140 20 0 1
105 140 20 0 1
106 140 20 0 1
107 140 20 0 1
108 140 20 0 1
109 140 20 0 1
110 140 20 0 1
111 140 20 0 1
112 140 20 0 1
113 140 20 0 1
114 140 20 0 1
115 140 20 0 1
116 140 20 0 1
117 140 20 0 1
118 140 20 0 1
119 140 20 0 1


*END*     OF ASCII OUTPUT FILE